interactions:
- request:
    body: null
    headers:
      User-Agent:
      - python-requests/2.22.0
    method: GET
    uri: https://app.rakuten.co.jp/services/api/BooksTotal/Search/20170404?applicationId=XXXXXX&formatVersion=2&hits=3&keyword=One+Piece
  response:
    body:
      string: "{\"count\":866,\"page\":1,\"first\":1,\"last\":3,\"hits\":3,\"carrier\":0,\"pageCount\":100,\"Items\":[{\"title\":\"ONE
        PIECE 94\",\"author\":\"\u5C3E\u7530 \u6804\u4E00\u90CE\",\"artistName\":\"\",\"publisherName\":\"\u96C6\u82F1\u793E\",\"label\":\"\",\"isbn\":\"9784088820545\",\"jan\":\"\",\"hardware\":\"\",\"os\":\"\",\"itemCaption\":\"\",\"salesDate\":\"2019\u5E7410\u670804\u65E5\",\"itemPrice\":484,\"listPrice\":0,\"discountRate\":0,\"discountPrice\":0,\"itemUrl\":\"https://books.rakuten.co.jp/rb/16023392/\",\"affiliateUrl\":\"\",\"smallImageUrl\":\"https://thumbnail.image.rakuten.co.jp/@0_mall/book/cabinet/0545/9784088820545.jpg?_ex=64x64\",\"mediumImageUrl\":\"https://thumbnail.image.rakuten.co.jp/@0_mall/book/cabinet/0545/9784088820545.jpg?_ex=120x120\",\"largeImageUrl\":\"https://thumbnail.image.rakuten.co.jp/@0_mall/book/cabinet/0545/9784088820545.jpg?_ex=200x200\",\"chirayomiUrl\":\"\",\"availability\":\"1\",\"postageFlag\":0,\"limitedFlag\":0,\"reviewCount\":71,\"reviewAverage\":\"4.62\",\"booksGenreId\":\"001001001008\"},{\"title\":\"ONE
        PIECE magazine Vol.8\",\"author\":\"\u5C3E\u7530 \u6804\u4E00\u90CE\",\"artistName\":\"\",\"publisherName\":\"\u96C6\u82F1\u793E\",\"label\":\"\",\"isbn\":\"9784081024018\",\"jan\":\"\",\"hardware\":\"\",\"os\":\"\",\"itemCaption\":\"\",\"salesDate\":\"2019\u5E7412\u670813\u65E5\",\"itemPrice\":990,\"listPrice\":0,\"discountRate\":0,\"discountPrice\":0,\"itemUrl\":\"https://books.rakuten.co.jp/rb/16101082/\",\"affiliateUrl\":\"\",\"smallImageUrl\":\"https://thumbnail.image.rakuten.co.jp/@0_mall/book/cabinet/noimage_01.gif?_ex=64x64\",\"mediumImageUrl\":\"https://thumbnail.image.rakuten.co.jp/@0_mall/book/cabinet/noimage_01.gif?_ex=120x120\",\"largeImageUrl\":\"https://thumbnail.image.rakuten.co.jp/@0_mall/book/cabinet/noimage_01.gif?_ex=200x200\",\"chirayomiUrl\":\"\",\"availability\":\"5\",\"postageFlag\":0,\"limitedFlag\":0,\"reviewCount\":0,\"reviewAverage\":\"0.0\",\"booksGenreId\":\"001001001008\"},{\"title\":\"ONE
        PIECE 93\",\"author\":\"\u5C3E\u7530 \u6804\u4E00\u90CE\",\"artistName\":\"\",\"publisherName\":\"\u96C6\u82F1\u793E\",\"label\":\"\",\"isbn\":\"9784088818771\",\"jan\":\"\",\"hardware\":\"\",\"os\":\"\",\"itemCaption\":\"\",\"salesDate\":\"2019\u5E7407\u670804\u65E5\",\"itemPrice\":484,\"listPrice\":0,\"discountRate\":0,\"discountPrice\":0,\"itemUrl\":\"https://books.rakuten.co.jp/rb/15924166/\",\"affiliateUrl\":\"\",\"smallImageUrl\":\"https://thumbnail.image.rakuten.co.jp/@0_mall/book/cabinet/8771/9784088818771.jpg?_ex=64x64\",\"mediumImageUrl\":\"https://thumbnail.image.rakuten.co.jp/@0_mall/book/cabinet/8771/9784088818771.jpg?_ex=120x120\",\"largeImageUrl\":\"https://thumbnail.image.rakuten.co.jp/@0_mall/book/cabinet/8771/9784088818771.jpg?_ex=200x200\",\"chirayomiUrl\":\"\",\"availability\":\"1\",\"postageFlag\":0,\"limitedFlag\":0,\"reviewCount\":176,\"reviewAverage\":\"4.34\",\"booksGenreId\":\"001001001008\"}],\"GenreInformation\":[]}"
    headers:
      Access-Control-Allow-Origin:
      - '*'
      Cache-Control:
      - no-store
      Connection:
      - close
      Content-Language:
      - ja-JP
      Content-Length:
      - '2560'
      Content-Type:
      - application/json;charset=UTF-8
      Date:
      - Tue, 22 Oct 2019 12:15:43 GMT
      Vary:
      - Accept-Encoding
    status:
      code: 200
      message: OK
- request:
    body: null
    headers:
      User-Agent:
      - python-requests/2.22.0
    method: GET
    uri: https://app.rakuten.co.jp/services/api/BooksTotal/Search/20170404?applicationId=XXXXXX&formatVersion=2&hits=3&keyword=One+Piece
  response:
    body:
      string: "{\"count\":866,\"page\":1,\"first\":1,\"last\":3,\"hits\":3,\"carrier\":0,\"pageCount\":100,\"Items\":[{\"title\":\"ONE
        PIECE 94\",\"author\":\"\u5C3E\u7530 \u6804\u4E00\u90CE\",\"artistName\":\"\",\"publisherName\":\"\u96C6\u82F1\u793E\",\"label\":\"\",\"isbn\":\"9784088820545\",\"jan\":\"\",\"hardware\":\"\",\"os\":\"\",\"itemCaption\":\"\",\"salesDate\":\"2019\u5E7410\u670804\u65E5\",\"itemPrice\":484,\"listPrice\":0,\"discountRate\":0,\"discountPrice\":0,\"itemUrl\":\"https://books.rakuten.co.jp/rb/16023392/\",\"affiliateUrl\":\"\",\"smallImageUrl\":\"https://thumbnail.image.rakuten.co.jp/@0_mall/book/cabinet/0545/9784088820545.jpg?_ex=64x64\",\"mediumImageUrl\":\"https://thumbnail.image.rakuten.co.jp/@0_mall/book/cabinet/0545/9784088820545.jpg?_ex=120x120\",\"largeImageUrl\":\"https://thumbnail.image.rakuten.co.jp/@0_mall/book/cabinet/0545/9784088820545.jpg?_ex=200x200\",\"chirayomiUrl\":\"\",\"availability\":\"1\",\"postageFlag\":0,\"limitedFlag\":0,\"reviewCount\":71,\"reviewAverage\":\"4.62\",\"booksGenreId\":\"001001001008\"},{\"title\":\"ONE
        PIECE magazine Vol.8\",\"author\":\"\u5C3E\u7530 \u6804\u4E00\u90CE\",\"artistName\":\"\",\"publisherName\":\"\u96C6\u82F1\u793E\",\"label\":\"\",\"isbn\":\"9784081024018\",\"jan\":\"\",\"hardware\":\"\",\"os\":\"\",\"itemCaption\":\"\",\"salesDate\":\"2019\u5E7412\u670813\u65E5\",\"itemPrice\":990,\"listPrice\":0,\"discountRate\":0,\"discountPrice\":0,\"itemUrl\":\"https://books.rakuten.co.jp/rb/16101082/\",\"affiliateUrl\":\"\",\"smallImageUrl\":\"https://thumbnail.image.rakuten.co.jp/@0_mall/book/cabinet/noimage_01.gif?_ex=64x64\",\"mediumImageUrl\":\"https://thumbnail.image.rakuten.co.jp/@0_mall/book/cabinet/noimage_01.gif?_ex=120x120\",\"largeImageUrl\":\"https://thumbnail.image.rakuten.co.jp/@0_mall/book/cabinet/noimage_01.gif?_ex=200x200\",\"chirayomiUrl\":\"\",\"availability\":\"5\",\"postageFlag\":0,\"limitedFlag\":0,\"reviewCount\":0,\"reviewAverage\":\"0.0\",\"booksGenreId\":\"001001001008\"},{\"title\":\"ONE
        PIECE 93\",\"author\":\"\u5C3E\u7530 \u6804\u4E00\u90CE\",\"artistName\":\"\",\"publisherName\":\"\u96C6\u82F1\u793E\",\"label\":\"\",\"isbn\":\"9784088818771\",\"jan\":\"\",\"hardware\":\"\",\"os\":\"\",\"itemCaption\":\"\",\"salesDate\":\"2019\u5E7407\u670804\u65E5\",\"itemPrice\":484,\"listPrice\":0,\"discountRate\":0,\"discountPrice\":0,\"itemUrl\":\"https://books.rakuten.co.jp/rb/15924166/\",\"affiliateUrl\":\"\",\"smallImageUrl\":\"https://thumbnail.image.rakuten.co.jp/@0_mall/book/cabinet/8771/9784088818771.jpg?_ex=64x64\",\"mediumImageUrl\":\"https://thumbnail.image.rakuten.co.jp/@0_mall/book/cabinet/8771/9784088818771.jpg?_ex=120x120\",\"largeImageUrl\":\"https://thumbnail.image.rakuten.co.jp/@0_mall/book/cabinet/8771/9784088818771.jpg?_ex=200x200\",\"chirayomiUrl\":\"\",\"availability\":\"1\",\"postageFlag\":0,\"limitedFlag\":0,\"reviewCount\":176,\"reviewAverage\":\"4.34\",\"booksGenreId\":\"001001001008\"}],\"GenreInformation\":[]}"
    headers:
      Access-Control-Allow-Origin:
      - '*'
      Cache-Control:
      - no-store
      Connection:
      - close
      Content-Language:
      - ja-JP
      Content-Length:
      - '2560'
      Content-Type:
      - application/json;charset=UTF-8
      Date:
      - Tue, 22 Oct 2019 12:17:27 GMT
      Vary:
      - Accept-Encoding
    status:
      code: 200
      message: OK
- request:
    body: null
    headers:
      User-Agent:
      - python-requests/2.22.0
    method: GET
    uri: https://app.rakuten.co.jp/services/api/BooksTotal/Search/20170404?applicationId=XXXXXX&formatVersion=2&hits=3&keyword=One+Piece
  response:
    body:
      string: "{\"count\":866,\"page\":1,\"first\":1,\"last\":3,\"hits\":3,\"carrier\":0,\"pageCount\":100,\"Items\":[{\"title\":\"ONE
        PIECE 94\",\"author\":\"\u5C3E\u7530 \u6804\u4E00\u90CE\",\"artistName\":\"\",\"publisherName\":\"\u96C6\u82F1\u793E\",\"label\":\"\",\"isbn\":\"9784088820545\",\"jan\":\"\",\"hardware\":\"\",\"os\":\"\",\"itemCaption\":\"\",\"salesDate\":\"2019\u5E7410\u670804\u65E5\",\"itemPrice\":484,\"listPrice\":0,\"discountRate\":0,\"discountPrice\":0,\"itemUrl\":\"https://books.rakuten.co.jp/rb/16023392/\",\"affiliateUrl\":\"\",\"smallImageUrl\":\"https://thumbnail.image.rakuten.co.jp/@0_mall/book/cabinet/0545/9784088820545.jpg?_ex=64x64\",\"mediumImageUrl\":\"https://thumbnail.image.rakuten.co.jp/@0_mall/book/cabinet/0545/9784088820545.jpg?_ex=120x120\",\"largeImageUrl\":\"https://thumbnail.image.rakuten.co.jp/@0_mall/book/cabinet/0545/9784088820545.jpg?_ex=200x200\",\"chirayomiUrl\":\"\",\"availability\":\"1\",\"postageFlag\":0,\"limitedFlag\":0,\"reviewCount\":71,\"reviewAverage\":\"4.62\",\"booksGenreId\":\"001001001008\"},{\"title\":\"ONE
        PIECE magazine Vol.8\",\"author\":\"\u5C3E\u7530 \u6804\u4E00\u90CE\",\"artistName\":\"\",\"publisherName\":\"\u96C6\u82F1\u793E\",\"label\":\"\",\"isbn\":\"9784081024018\",\"jan\":\"\",\"hardware\":\"\",\"os\":\"\",\"itemCaption\":\"\",\"salesDate\":\"2019\u5E7412\u670813\u65E5\",\"itemPrice\":990,\"listPrice\":0,\"discountRate\":0,\"discountPrice\":0,\"itemUrl\":\"https://books.rakuten.co.jp/rb/16101082/\",\"affiliateUrl\":\"\",\"smallImageUrl\":\"https://thumbnail.image.rakuten.co.jp/@0_mall/book/cabinet/noimage_01.gif?_ex=64x64\",\"mediumImageUrl\":\"https://thumbnail.image.rakuten.co.jp/@0_mall/book/cabinet/noimage_01.gif?_ex=120x120\",\"largeImageUrl\":\"https://thumbnail.image.rakuten.co.jp/@0_mall/book/cabinet/noimage_01.gif?_ex=200x200\",\"chirayomiUrl\":\"\",\"availability\":\"5\",\"postageFlag\":0,\"limitedFlag\":0,\"reviewCount\":0,\"reviewAverage\":\"0.0\",\"booksGenreId\":\"001001001008\"},{\"title\":\"ONE
        PIECE 93\",\"author\":\"\u5C3E\u7530 \u6804\u4E00\u90CE\",\"artistName\":\"\",\"publisherName\":\"\u96C6\u82F1\u793E\",\"label\":\"\",\"isbn\":\"9784088818771\",\"jan\":\"\",\"hardware\":\"\",\"os\":\"\",\"itemCaption\":\"\",\"salesDate\":\"2019\u5E7407\u670804\u65E5\",\"itemPrice\":484,\"listPrice\":0,\"discountRate\":0,\"discountPrice\":0,\"itemUrl\":\"https://books.rakuten.co.jp/rb/15924166/\",\"affiliateUrl\":\"\",\"smallImageUrl\":\"https://thumbnail.image.rakuten.co.jp/@0_mall/book/cabinet/8771/9784088818771.jpg?_ex=64x64\",\"mediumImageUrl\":\"https://thumbnail.image.rakuten.co.jp/@0_mall/book/cabinet/8771/9784088818771.jpg?_ex=120x120\",\"largeImageUrl\":\"https://thumbnail.image.rakuten.co.jp/@0_mall/book/cabinet/8771/9784088818771.jpg?_ex=200x200\",\"chirayomiUrl\":\"\",\"availability\":\"1\",\"postageFlag\":0,\"limitedFlag\":0,\"reviewCount\":176,\"reviewAverage\":\"4.34\",\"booksGenreId\":\"001001001008\"}],\"GenreInformation\":[]}"
    headers:
      Access-Control-Allow-Origin:
      - '*'
      Cache-Control:
      - no-store
      Connection:
      - close
      Content-Language:
      - ja-JP
      Content-Length:
      - '2560'
      Content-Type:
      - application/json;charset=UTF-8
      Date:
      - Tue, 22 Oct 2019 12:19:33 GMT
      Vary:
      - Accept-Encoding
    status:
      code: 200
      message: OK
- request:
    body: null
    headers:
      User-Agent:
      - python-requests/2.22.0
    method: GET
    uri: https://app.rakuten.co.jp/services/api/BooksTotal/Search/20170404?applicationId=XXXXXX&formatVersion=2&hits=3&keyword=One+Piece
  response:
    body:
      string: "{\"count\":866,\"page\":1,\"first\":1,\"last\":3,\"hits\":3,\"carrier\":0,\"pageCount\":100,\"Items\":[{\"title\":\"ONE
        PIECE 94\",\"author\":\"\u5C3E\u7530 \u6804\u4E00\u90CE\",\"artistName\":\"\",\"publisherName\":\"\u96C6\u82F1\u793E\",\"label\":\"\",\"isbn\":\"9784088820545\",\"jan\":\"\",\"hardware\":\"\",\"os\":\"\",\"itemCaption\":\"\",\"salesDate\":\"2019\u5E7410\u670804\u65E5\",\"itemPrice\":484,\"listPrice\":0,\"discountRate\":0,\"discountPrice\":0,\"itemUrl\":\"https://books.rakuten.co.jp/rb/16023392/\",\"affiliateUrl\":\"\",\"smallImageUrl\":\"https://thumbnail.image.rakuten.co.jp/@0_mall/book/cabinet/0545/9784088820545.jpg?_ex=64x64\",\"mediumImageUrl\":\"https://thumbnail.image.rakuten.co.jp/@0_mall/book/cabinet/0545/9784088820545.jpg?_ex=120x120\",\"largeImageUrl\":\"https://thumbnail.image.rakuten.co.jp/@0_mall/book/cabinet/0545/9784088820545.jpg?_ex=200x200\",\"chirayomiUrl\":\"\",\"availability\":\"1\",\"postageFlag\":0,\"limitedFlag\":0,\"reviewCount\":71,\"reviewAverage\":\"4.62\",\"booksGenreId\":\"001001001008\"},{\"title\":\"ONE
        PIECE magazine Vol.8\",\"author\":\"\u5C3E\u7530 \u6804\u4E00\u90CE\",\"artistName\":\"\",\"publisherName\":\"\u96C6\u82F1\u793E\",\"label\":\"\",\"isbn\":\"9784081024018\",\"jan\":\"\",\"hardware\":\"\",\"os\":\"\",\"itemCaption\":\"\",\"salesDate\":\"2019\u5E7412\u670813\u65E5\",\"itemPrice\":990,\"listPrice\":0,\"discountRate\":0,\"discountPrice\":0,\"itemUrl\":\"https://books.rakuten.co.jp/rb/16101082/\",\"affiliateUrl\":\"\",\"smallImageUrl\":\"https://thumbnail.image.rakuten.co.jp/@0_mall/book/cabinet/noimage_01.gif?_ex=64x64\",\"mediumImageUrl\":\"https://thumbnail.image.rakuten.co.jp/@0_mall/book/cabinet/noimage_01.gif?_ex=120x120\",\"largeImageUrl\":\"https://thumbnail.image.rakuten.co.jp/@0_mall/book/cabinet/noimage_01.gif?_ex=200x200\",\"chirayomiUrl\":\"\",\"availability\":\"5\",\"postageFlag\":0,\"limitedFlag\":0,\"reviewCount\":0,\"reviewAverage\":\"0.0\",\"booksGenreId\":\"001001001008\"},{\"title\":\"ONE
        PIECE 93\",\"author\":\"\u5C3E\u7530 \u6804\u4E00\u90CE\",\"artistName\":\"\",\"publisherName\":\"\u96C6\u82F1\u793E\",\"label\":\"\",\"isbn\":\"9784088818771\",\"jan\":\"\",\"hardware\":\"\",\"os\":\"\",\"itemCaption\":\"\",\"salesDate\":\"2019\u5E7407\u670804\u65E5\",\"itemPrice\":484,\"listPrice\":0,\"discountRate\":0,\"discountPrice\":0,\"itemUrl\":\"https://books.rakuten.co.jp/rb/15924166/\",\"affiliateUrl\":\"\",\"smallImageUrl\":\"https://thumbnail.image.rakuten.co.jp/@0_mall/book/cabinet/8771/9784088818771.jpg?_ex=64x64\",\"mediumImageUrl\":\"https://thumbnail.image.rakuten.co.jp/@0_mall/book/cabinet/8771/9784088818771.jpg?_ex=120x120\",\"largeImageUrl\":\"https://thumbnail.image.rakuten.co.jp/@0_mall/book/cabinet/8771/9784088818771.jpg?_ex=200x200\",\"chirayomiUrl\":\"\",\"availability\":\"1\",\"postageFlag\":0,\"limitedFlag\":0,\"reviewCount\":176,\"reviewAverage\":\"4.34\",\"booksGenreId\":\"001001001008\"}],\"GenreInformation\":[]}"
    headers:
      Access-Control-Allow-Origin:
      - '*'
      Cache-Control:
      - no-store
      Connection:
      - close
      Content-Language:
      - ja-JP
      Content-Length:
      - '2560'
      Content-Type:
      - application/json;charset=UTF-8
      Date:
      - Tue, 22 Oct 2019 12:19:43 GMT
      Vary:
      - Accept-Encoding
    status:
      code: 200
      message: OK
- request:
    body: null
    headers:
      User-Agent:
      - python-requests/2.22.0
    method: GET
    uri: https://app.rakuten.co.jp/services/api/BooksTotal/Search/20170404?applicationId=XXXXXX&formatVersion=2&hits=3&keyword=One+Piece
  response:
    body:
      string: "{\"count\":866,\"page\":1,\"first\":1,\"last\":3,\"hits\":3,\"carrier\":0,\"pageCount\":100,\"Items\":[{\"title\":\"ONE
        PIECE 94\",\"author\":\"\u5C3E\u7530 \u6804\u4E00\u90CE\",\"artistName\":\"\",\"publisherName\":\"\u96C6\u82F1\u793E\",\"label\":\"\",\"isbn\":\"9784088820545\",\"jan\":\"\",\"hardware\":\"\",\"os\":\"\",\"itemCaption\":\"\",\"salesDate\":\"2019\u5E7410\u670804\u65E5\",\"itemPrice\":484,\"listPrice\":0,\"discountRate\":0,\"discountPrice\":0,\"itemUrl\":\"https://books.rakuten.co.jp/rb/16023392/\",\"affiliateUrl\":\"\",\"smallImageUrl\":\"https://thumbnail.image.rakuten.co.jp/@0_mall/book/cabinet/0545/9784088820545.jpg?_ex=64x64\",\"mediumImageUrl\":\"https://thumbnail.image.rakuten.co.jp/@0_mall/book/cabinet/0545/9784088820545.jpg?_ex=120x120\",\"largeImageUrl\":\"https://thumbnail.image.rakuten.co.jp/@0_mall/book/cabinet/0545/9784088820545.jpg?_ex=200x200\",\"chirayomiUrl\":\"\",\"availability\":\"1\",\"postageFlag\":0,\"limitedFlag\":0,\"reviewCount\":71,\"reviewAverage\":\"4.62\",\"booksGenreId\":\"001001001008\"},{\"title\":\"ONE
        PIECE magazine Vol.8\",\"author\":\"\u5C3E\u7530 \u6804\u4E00\u90CE\",\"artistName\":\"\",\"publisherName\":\"\u96C6\u82F1\u793E\",\"label\":\"\",\"isbn\":\"9784081024018\",\"jan\":\"\",\"hardware\":\"\",\"os\":\"\",\"itemCaption\":\"\",\"salesDate\":\"2019\u5E7412\u670813\u65E5\",\"itemPrice\":990,\"listPrice\":0,\"discountRate\":0,\"discountPrice\":0,\"itemUrl\":\"https://books.rakuten.co.jp/rb/16101082/\",\"affiliateUrl\":\"\",\"smallImageUrl\":\"https://thumbnail.image.rakuten.co.jp/@0_mall/book/cabinet/noimage_01.gif?_ex=64x64\",\"mediumImageUrl\":\"https://thumbnail.image.rakuten.co.jp/@0_mall/book/cabinet/noimage_01.gif?_ex=120x120\",\"largeImageUrl\":\"https://thumbnail.image.rakuten.co.jp/@0_mall/book/cabinet/noimage_01.gif?_ex=200x200\",\"chirayomiUrl\":\"\",\"availability\":\"5\",\"postageFlag\":0,\"limitedFlag\":0,\"reviewCount\":0,\"reviewAverage\":\"0.0\",\"booksGenreId\":\"001001001008\"},{\"title\":\"ONE
        PIECE 93\",\"author\":\"\u5C3E\u7530 \u6804\u4E00\u90CE\",\"artistName\":\"\",\"publisherName\":\"\u96C6\u82F1\u793E\",\"label\":\"\",\"isbn\":\"9784088818771\",\"jan\":\"\",\"hardware\":\"\",\"os\":\"\",\"itemCaption\":\"\",\"salesDate\":\"2019\u5E7407\u670804\u65E5\",\"itemPrice\":484,\"listPrice\":0,\"discountRate\":0,\"discountPrice\":0,\"itemUrl\":\"https://books.rakuten.co.jp/rb/15924166/\",\"affiliateUrl\":\"\",\"smallImageUrl\":\"https://thumbnail.image.rakuten.co.jp/@0_mall/book/cabinet/8771/9784088818771.jpg?_ex=64x64\",\"mediumImageUrl\":\"https://thumbnail.image.rakuten.co.jp/@0_mall/book/cabinet/8771/9784088818771.jpg?_ex=120x120\",\"largeImageUrl\":\"https://thumbnail.image.rakuten.co.jp/@0_mall/book/cabinet/8771/9784088818771.jpg?_ex=200x200\",\"chirayomiUrl\":\"\",\"availability\":\"1\",\"postageFlag\":0,\"limitedFlag\":0,\"reviewCount\":176,\"reviewAverage\":\"4.34\",\"booksGenreId\":\"001001001008\"}],\"GenreInformation\":[]}"
    headers:
      Access-Control-Allow-Origin:
      - '*'
      Cache-Control:
      - no-store
      Connection:
      - close
      Content-Language:
      - ja-JP
      Content-Length:
      - '2560'
      Content-Type:
      - application/json;charset=UTF-8
      Date:
      - Tue, 22 Oct 2019 12:20:18 GMT
      Vary:
      - Accept-Encoding
    status:
      code: 200
      message: OK
version: 1
