interactions:
- request:
    body: null
    headers:
      User-Agent:
      - python-requests/2.22.0
    method: GET
    uri: https://app.rakuten.co.jp/services/api/BooksBook/Search/20170404?applicationId=XXXXXX&booksGenreId=001001001008&formatVersion=2&hits=3
  response:
    body:
      string: "{\"count\":3309,\"page\":1,\"first\":1,\"last\":3,\"hits\":3,\"carrier\":0,\"pageCount\":100,\"Items\":[{\"title\":\"\u9B3C\u6EC5\u306E\u5203
        18\",\"titleKana\":\"\u30AD\u30E1\u30C4\u30CE\u30E4\u30A4\u30D0\",\"subTitle\":\"\",\"subTitleKana\":\"\",\"seriesName\":\"\u30B8\u30E3\u30F3\u30D7\u30B3\u30DF\u30C3\u30AF\u30B9\",\"seriesNameKana\":\"\",\"contents\":\"\",\"author\":\"\u543E\u5CE0
        \u547C\u4E16\u6674\",\"authorKana\":\"\u30B4\u30C8\u30A6\u30B2 \u30B3\u30E8\u30CF\u30EB\",\"publisherName\":\"\u96C6\u82F1\u793E\",\"size\":\"\u30B3\u30DF\u30C3\u30AF\",\"isbn\":\"9784088821412\",\"itemCaption\":\"\",\"salesDate\":\"2019\u5E7412\u670804\u65E5\",\"itemPrice\":484,\"listPrice\":0,\"discountRate\":0,\"discountPrice\":0,\"itemUrl\":\"https://books.rakuten.co.jp/rb/16101055/\",\"affiliateUrl\":\"\",\"smallImageUrl\":\"https://thumbnail.image.rakuten.co.jp/@0_mall/book/cabinet/1412/9784088821412.gif?_ex=64x64\",\"mediumImageUrl\":\"https://thumbnail.image.rakuten.co.jp/@0_mall/book/cabinet/1412/9784088821412.gif?_ex=120x120\",\"largeImageUrl\":\"https://thumbnail.image.rakuten.co.jp/@0_mall/book/cabinet/1412/9784088821412.gif?_ex=200x200\",\"chirayomiUrl\":\"\",\"availability\":\"5\",\"postageFlag\":0,\"limitedFlag\":0,\"reviewCount\":0,\"reviewAverage\":\"0.0\",\"booksGenreId\":\"001001001008\"},{\"title\":\"\u30EF\u30F3\u30D1\u30F3\u30DE\u30F3
        21\",\"titleKana\":\"\u30EF\u30F3\u30D1\u30F3\u30DE\u30F3\",\"subTitle\":\"\",\"subTitleKana\":\"\",\"seriesName\":\"\u30B8\u30E3\u30F3\u30D7\u30B3\u30DF\u30C3\u30AF\u30B9\",\"seriesNameKana\":\"\",\"contents\":\"\",\"author\":\"\u6751\u7530
        \u96C4\u4ECB/ONE\",\"authorKana\":\"\u30E0\u30E9\u30BF \u30E6\u30A6\u30B9\u30B1/\u30EF\u30F3\",\"publisherName\":\"\u96C6\u82F1\u793E\",\"size\":\"\u30B3\u30DF\u30C3\u30AF\",\"isbn\":\"9784088818153\",\"itemCaption\":\"\",\"salesDate\":\"2019\u5E7412\u670804\u65E5\",\"itemPrice\":506,\"listPrice\":0,\"discountRate\":0,\"discountPrice\":0,\"itemUrl\":\"https://books.rakuten.co.jp/rb/16101064/\",\"affiliateUrl\":\"\",\"smallImageUrl\":\"https://thumbnail.image.rakuten.co.jp/@0_mall/book/cabinet/8153/9784088818153.gif?_ex=64x64\",\"mediumImageUrl\":\"https://thumbnail.image.rakuten.co.jp/@0_mall/book/cabinet/8153/9784088818153.gif?_ex=120x120\",\"largeImageUrl\":\"https://thumbnail.image.rakuten.co.jp/@0_mall/book/cabinet/8153/9784088818153.gif?_ex=200x200\",\"chirayomiUrl\":\"\",\"availability\":\"5\",\"postageFlag\":0,\"limitedFlag\":0,\"reviewCount\":0,\"reviewAverage\":\"0.0\",\"booksGenreId\":\"001001001008\"},{\"title\":\"ONE
        PIECE 94\",\"titleKana\":\"\u30EF\u30F3\u30D4\u30FC\u30B9\",\"subTitle\":\"\",\"subTitleKana\":\"\",\"seriesName\":\"\u30B8\u30E3\u30F3\u30D7\u30B3\u30DF\u30C3\u30AF\u30B9\",\"seriesNameKana\":\"\",\"contents\":\"\",\"author\":\"\u5C3E\u7530
        \u6804\u4E00\u90CE\",\"authorKana\":\"\u30AA\u30C0 \u30A8\u30A4\u30A4\u30C1\u30ED\u30A6\",\"publisherName\":\"\u96C6\u82F1\u793E\",\"size\":\"\u30B3\u30DF\u30C3\u30AF\",\"isbn\":\"9784088820545\",\"itemCaption\":\"\",\"salesDate\":\"2019\u5E7410\u670804\u65E5\",\"itemPrice\":484,\"listPrice\":0,\"discountRate\":0,\"discountPrice\":0,\"itemUrl\":\"https://books.rakuten.co.jp/rb/16023392/\",\"affiliateUrl\":\"\",\"smallImageUrl\":\"https://thumbnail.image.rakuten.co.jp/@0_mall/book/cabinet/0545/9784088820545.jpg?_ex=64x64\",\"mediumImageUrl\":\"https://thumbnail.image.rakuten.co.jp/@0_mall/book/cabinet/0545/9784088820545.jpg?_ex=120x120\",\"largeImageUrl\":\"https://thumbnail.image.rakuten.co.jp/@0_mall/book/cabinet/0545/9784088820545.jpg?_ex=200x200\",\"chirayomiUrl\":\"\",\"availability\":\"1\",\"postageFlag\":0,\"limitedFlag\":0,\"reviewCount\":71,\"reviewAverage\":\"4.62\",\"booksGenreId\":\"001001001008\"}],\"GenreInformation\":[]}"
    headers:
      Access-Control-Allow-Origin:
      - '*'
      Cache-Control:
      - no-store
      Connection:
      - close
      Content-Language:
      - ja-JP
      Content-Length:
      - '3028'
      Content-Type:
      - application/json;charset=UTF-8
      Date:
      - Tue, 22 Oct 2019 10:40:59 GMT
      Vary:
      - Accept-Encoding
    status:
      code: 200
      message: OK
- request:
    body: null
    headers:
      User-Agent:
      - python-requests/2.22.0
    method: GET
    uri: https://app.rakuten.co.jp/services/api/BooksBook/Search/20170404?applicationId=XXXXXX&booksGenreId=001001001008&formatVersion=2&hits=3
  response:
    body:
      string: "{\"count\":3309,\"page\":1,\"first\":1,\"last\":3,\"hits\":3,\"carrier\":0,\"pageCount\":100,\"Items\":[{\"title\":\"\u9B3C\u6EC5\u306E\u5203
        18\",\"titleKana\":\"\u30AD\u30E1\u30C4\u30CE\u30E4\u30A4\u30D0\",\"subTitle\":\"\",\"subTitleKana\":\"\",\"seriesName\":\"\u30B8\u30E3\u30F3\u30D7\u30B3\u30DF\u30C3\u30AF\u30B9\",\"seriesNameKana\":\"\",\"contents\":\"\",\"author\":\"\u543E\u5CE0
        \u547C\u4E16\u6674\",\"authorKana\":\"\u30B4\u30C8\u30A6\u30B2 \u30B3\u30E8\u30CF\u30EB\",\"publisherName\":\"\u96C6\u82F1\u793E\",\"size\":\"\u30B3\u30DF\u30C3\u30AF\",\"isbn\":\"9784088821412\",\"itemCaption\":\"\",\"salesDate\":\"2019\u5E7412\u670804\u65E5\",\"itemPrice\":484,\"listPrice\":0,\"discountRate\":0,\"discountPrice\":0,\"itemUrl\":\"https://books.rakuten.co.jp/rb/16101055/\",\"affiliateUrl\":\"\",\"smallImageUrl\":\"https://thumbnail.image.rakuten.co.jp/@0_mall/book/cabinet/1412/9784088821412.gif?_ex=64x64\",\"mediumImageUrl\":\"https://thumbnail.image.rakuten.co.jp/@0_mall/book/cabinet/1412/9784088821412.gif?_ex=120x120\",\"largeImageUrl\":\"https://thumbnail.image.rakuten.co.jp/@0_mall/book/cabinet/1412/9784088821412.gif?_ex=200x200\",\"chirayomiUrl\":\"\",\"availability\":\"5\",\"postageFlag\":0,\"limitedFlag\":0,\"reviewCount\":0,\"reviewAverage\":\"0.0\",\"booksGenreId\":\"001001001008\"},{\"title\":\"ONE
        PIECE 94\",\"titleKana\":\"\u30EF\u30F3\u30D4\u30FC\u30B9\",\"subTitle\":\"\",\"subTitleKana\":\"\",\"seriesName\":\"\u30B8\u30E3\u30F3\u30D7\u30B3\u30DF\u30C3\u30AF\u30B9\",\"seriesNameKana\":\"\",\"contents\":\"\",\"author\":\"\u5C3E\u7530
        \u6804\u4E00\u90CE\",\"authorKana\":\"\u30AA\u30C0 \u30A8\u30A4\u30A4\u30C1\u30ED\u30A6\",\"publisherName\":\"\u96C6\u82F1\u793E\",\"size\":\"\u30B3\u30DF\u30C3\u30AF\",\"isbn\":\"9784088820545\",\"itemCaption\":\"\",\"salesDate\":\"2019\u5E7410\u670804\u65E5\",\"itemPrice\":484,\"listPrice\":0,\"discountRate\":0,\"discountPrice\":0,\"itemUrl\":\"https://books.rakuten.co.jp/rb/16023392/\",\"affiliateUrl\":\"\",\"smallImageUrl\":\"https://thumbnail.image.rakuten.co.jp/@0_mall/book/cabinet/0545/9784088820545.jpg?_ex=64x64\",\"mediumImageUrl\":\"https://thumbnail.image.rakuten.co.jp/@0_mall/book/cabinet/0545/9784088820545.jpg?_ex=120x120\",\"largeImageUrl\":\"https://thumbnail.image.rakuten.co.jp/@0_mall/book/cabinet/0545/9784088820545.jpg?_ex=200x200\",\"chirayomiUrl\":\"\",\"availability\":\"1\",\"postageFlag\":0,\"limitedFlag\":0,\"reviewCount\":71,\"reviewAverage\":\"4.62\",\"booksGenreId\":\"001001001008\"},{\"title\":\"\u30EF\u30F3\u30D1\u30F3\u30DE\u30F3
        21\",\"titleKana\":\"\u30EF\u30F3\u30D1\u30F3\u30DE\u30F3\",\"subTitle\":\"\",\"subTitleKana\":\"\",\"seriesName\":\"\u30B8\u30E3\u30F3\u30D7\u30B3\u30DF\u30C3\u30AF\u30B9\",\"seriesNameKana\":\"\",\"contents\":\"\",\"author\":\"\u6751\u7530
        \u96C4\u4ECB/ONE\",\"authorKana\":\"\u30E0\u30E9\u30BF \u30E6\u30A6\u30B9\u30B1/\u30EF\u30F3\",\"publisherName\":\"\u96C6\u82F1\u793E\",\"size\":\"\u30B3\u30DF\u30C3\u30AF\",\"isbn\":\"9784088818153\",\"itemCaption\":\"\",\"salesDate\":\"2019\u5E7412\u670804\u65E5\",\"itemPrice\":506,\"listPrice\":0,\"discountRate\":0,\"discountPrice\":0,\"itemUrl\":\"https://books.rakuten.co.jp/rb/16101064/\",\"affiliateUrl\":\"\",\"smallImageUrl\":\"https://thumbnail.image.rakuten.co.jp/@0_mall/book/cabinet/8153/9784088818153.gif?_ex=64x64\",\"mediumImageUrl\":\"https://thumbnail.image.rakuten.co.jp/@0_mall/book/cabinet/8153/9784088818153.gif?_ex=120x120\",\"largeImageUrl\":\"https://thumbnail.image.rakuten.co.jp/@0_mall/book/cabinet/8153/9784088818153.gif?_ex=200x200\",\"chirayomiUrl\":\"\",\"availability\":\"5\",\"postageFlag\":0,\"limitedFlag\":0,\"reviewCount\":0,\"reviewAverage\":\"0.0\",\"booksGenreId\":\"001001001008\"}],\"GenreInformation\":[]}"
    headers:
      Access-Control-Allow-Origin:
      - '*'
      Cache-Control:
      - no-store
      Connection:
      - close
      Content-Language:
      - ja-JP
      Content-Length:
      - '3028'
      Content-Type:
      - application/json;charset=UTF-8
      Date:
      - Tue, 22 Oct 2019 11:55:21 GMT
      Vary:
      - Accept-Encoding
    status:
      code: 200
      message: OK
- request:
    body: null
    headers:
      User-Agent:
      - python-requests/2.22.0
    method: GET
    uri: https://app.rakuten.co.jp/services/api/BooksBook/Search/20170404?applicationId=XXXXXX&booksGenreId=001001001008&formatVersion=2&hits=3
  response:
    body:
      string: "{\"count\":3309,\"page\":1,\"first\":1,\"last\":3,\"hits\":3,\"carrier\":0,\"pageCount\":100,\"Items\":[{\"title\":\"\u9B3C\u6EC5\u306E\u5203
        18\",\"titleKana\":\"\u30AD\u30E1\u30C4\u30CE\u30E4\u30A4\u30D0\",\"subTitle\":\"\",\"subTitleKana\":\"\",\"seriesName\":\"\u30B8\u30E3\u30F3\u30D7\u30B3\u30DF\u30C3\u30AF\u30B9\",\"seriesNameKana\":\"\",\"contents\":\"\",\"author\":\"\u543E\u5CE0
        \u547C\u4E16\u6674\",\"authorKana\":\"\u30B4\u30C8\u30A6\u30B2 \u30B3\u30E8\u30CF\u30EB\",\"publisherName\":\"\u96C6\u82F1\u793E\",\"size\":\"\u30B3\u30DF\u30C3\u30AF\",\"isbn\":\"9784088821412\",\"itemCaption\":\"\",\"salesDate\":\"2019\u5E7412\u670804\u65E5\",\"itemPrice\":484,\"listPrice\":0,\"discountRate\":0,\"discountPrice\":0,\"itemUrl\":\"https://books.rakuten.co.jp/rb/16101055/\",\"affiliateUrl\":\"\",\"smallImageUrl\":\"https://thumbnail.image.rakuten.co.jp/@0_mall/book/cabinet/1412/9784088821412.gif?_ex=64x64\",\"mediumImageUrl\":\"https://thumbnail.image.rakuten.co.jp/@0_mall/book/cabinet/1412/9784088821412.gif?_ex=120x120\",\"largeImageUrl\":\"https://thumbnail.image.rakuten.co.jp/@0_mall/book/cabinet/1412/9784088821412.gif?_ex=200x200\",\"chirayomiUrl\":\"\",\"availability\":\"5\",\"postageFlag\":0,\"limitedFlag\":0,\"reviewCount\":0,\"reviewAverage\":\"0.0\",\"booksGenreId\":\"001001001008\"},{\"title\":\"ONE
        PIECE 94\",\"titleKana\":\"\u30EF\u30F3\u30D4\u30FC\u30B9\",\"subTitle\":\"\",\"subTitleKana\":\"\",\"seriesName\":\"\u30B8\u30E3\u30F3\u30D7\u30B3\u30DF\u30C3\u30AF\u30B9\",\"seriesNameKana\":\"\",\"contents\":\"\",\"author\":\"\u5C3E\u7530
        \u6804\u4E00\u90CE\",\"authorKana\":\"\u30AA\u30C0 \u30A8\u30A4\u30A4\u30C1\u30ED\u30A6\",\"publisherName\":\"\u96C6\u82F1\u793E\",\"size\":\"\u30B3\u30DF\u30C3\u30AF\",\"isbn\":\"9784088820545\",\"itemCaption\":\"\",\"salesDate\":\"2019\u5E7410\u670804\u65E5\",\"itemPrice\":484,\"listPrice\":0,\"discountRate\":0,\"discountPrice\":0,\"itemUrl\":\"https://books.rakuten.co.jp/rb/16023392/\",\"affiliateUrl\":\"\",\"smallImageUrl\":\"https://thumbnail.image.rakuten.co.jp/@0_mall/book/cabinet/0545/9784088820545.jpg?_ex=64x64\",\"mediumImageUrl\":\"https://thumbnail.image.rakuten.co.jp/@0_mall/book/cabinet/0545/9784088820545.jpg?_ex=120x120\",\"largeImageUrl\":\"https://thumbnail.image.rakuten.co.jp/@0_mall/book/cabinet/0545/9784088820545.jpg?_ex=200x200\",\"chirayomiUrl\":\"\",\"availability\":\"1\",\"postageFlag\":0,\"limitedFlag\":0,\"reviewCount\":71,\"reviewAverage\":\"4.62\",\"booksGenreId\":\"001001001008\"},{\"title\":\"\u30EF\u30F3\u30D1\u30F3\u30DE\u30F3
        21\",\"titleKana\":\"\u30EF\u30F3\u30D1\u30F3\u30DE\u30F3\",\"subTitle\":\"\",\"subTitleKana\":\"\",\"seriesName\":\"\u30B8\u30E3\u30F3\u30D7\u30B3\u30DF\u30C3\u30AF\u30B9\",\"seriesNameKana\":\"\",\"contents\":\"\",\"author\":\"\u6751\u7530
        \u96C4\u4ECB/ONE\",\"authorKana\":\"\u30E0\u30E9\u30BF \u30E6\u30A6\u30B9\u30B1/\u30EF\u30F3\",\"publisherName\":\"\u96C6\u82F1\u793E\",\"size\":\"\u30B3\u30DF\u30C3\u30AF\",\"isbn\":\"9784088818153\",\"itemCaption\":\"\",\"salesDate\":\"2019\u5E7412\u670804\u65E5\",\"itemPrice\":506,\"listPrice\":0,\"discountRate\":0,\"discountPrice\":0,\"itemUrl\":\"https://books.rakuten.co.jp/rb/16101064/\",\"affiliateUrl\":\"\",\"smallImageUrl\":\"https://thumbnail.image.rakuten.co.jp/@0_mall/book/cabinet/8153/9784088818153.gif?_ex=64x64\",\"mediumImageUrl\":\"https://thumbnail.image.rakuten.co.jp/@0_mall/book/cabinet/8153/9784088818153.gif?_ex=120x120\",\"largeImageUrl\":\"https://thumbnail.image.rakuten.co.jp/@0_mall/book/cabinet/8153/9784088818153.gif?_ex=200x200\",\"chirayomiUrl\":\"\",\"availability\":\"5\",\"postageFlag\":0,\"limitedFlag\":0,\"reviewCount\":0,\"reviewAverage\":\"0.0\",\"booksGenreId\":\"001001001008\"}],\"GenreInformation\":[]}"
    headers:
      Access-Control-Allow-Origin:
      - '*'
      Cache-Control:
      - no-store
      Connection:
      - close
      Content-Language:
      - ja-JP
      Content-Length:
      - '3028'
      Content-Type:
      - application/json;charset=UTF-8
      Date:
      - Tue, 22 Oct 2019 12:16:17 GMT
      Vary:
      - Accept-Encoding
    status:
      code: 200
      message: OK
- request:
    body: null
    headers:
      User-Agent:
      - python-requests/2.22.0
    method: GET
    uri: https://app.rakuten.co.jp/services/api/BooksBook/Search/20170404?applicationId=XXXXXX&booksGenreId=001001001008&formatVersion=2&hits=3
  response:
    body:
      string: "{\"count\":3309,\"page\":1,\"first\":1,\"last\":3,\"hits\":3,\"carrier\":0,\"pageCount\":100,\"Items\":[{\"title\":\"\u9B3C\u6EC5\u306E\u5203
        18\",\"titleKana\":\"\u30AD\u30E1\u30C4\u30CE\u30E4\u30A4\u30D0\",\"subTitle\":\"\",\"subTitleKana\":\"\",\"seriesName\":\"\u30B8\u30E3\u30F3\u30D7\u30B3\u30DF\u30C3\u30AF\u30B9\",\"seriesNameKana\":\"\",\"contents\":\"\",\"author\":\"\u543E\u5CE0
        \u547C\u4E16\u6674\",\"authorKana\":\"\u30B4\u30C8\u30A6\u30B2 \u30B3\u30E8\u30CF\u30EB\",\"publisherName\":\"\u96C6\u82F1\u793E\",\"size\":\"\u30B3\u30DF\u30C3\u30AF\",\"isbn\":\"9784088821412\",\"itemCaption\":\"\",\"salesDate\":\"2019\u5E7412\u670804\u65E5\",\"itemPrice\":484,\"listPrice\":0,\"discountRate\":0,\"discountPrice\":0,\"itemUrl\":\"https://books.rakuten.co.jp/rb/16101055/\",\"affiliateUrl\":\"\",\"smallImageUrl\":\"https://thumbnail.image.rakuten.co.jp/@0_mall/book/cabinet/1412/9784088821412.gif?_ex=64x64\",\"mediumImageUrl\":\"https://thumbnail.image.rakuten.co.jp/@0_mall/book/cabinet/1412/9784088821412.gif?_ex=120x120\",\"largeImageUrl\":\"https://thumbnail.image.rakuten.co.jp/@0_mall/book/cabinet/1412/9784088821412.gif?_ex=200x200\",\"chirayomiUrl\":\"\",\"availability\":\"5\",\"postageFlag\":0,\"limitedFlag\":0,\"reviewCount\":0,\"reviewAverage\":\"0.0\",\"booksGenreId\":\"001001001008\"},{\"title\":\"ONE
        PIECE 94\",\"titleKana\":\"\u30EF\u30F3\u30D4\u30FC\u30B9\",\"subTitle\":\"\",\"subTitleKana\":\"\",\"seriesName\":\"\u30B8\u30E3\u30F3\u30D7\u30B3\u30DF\u30C3\u30AF\u30B9\",\"seriesNameKana\":\"\",\"contents\":\"\",\"author\":\"\u5C3E\u7530
        \u6804\u4E00\u90CE\",\"authorKana\":\"\u30AA\u30C0 \u30A8\u30A4\u30A4\u30C1\u30ED\u30A6\",\"publisherName\":\"\u96C6\u82F1\u793E\",\"size\":\"\u30B3\u30DF\u30C3\u30AF\",\"isbn\":\"9784088820545\",\"itemCaption\":\"\",\"salesDate\":\"2019\u5E7410\u670804\u65E5\",\"itemPrice\":484,\"listPrice\":0,\"discountRate\":0,\"discountPrice\":0,\"itemUrl\":\"https://books.rakuten.co.jp/rb/16023392/\",\"affiliateUrl\":\"\",\"smallImageUrl\":\"https://thumbnail.image.rakuten.co.jp/@0_mall/book/cabinet/0545/9784088820545.jpg?_ex=64x64\",\"mediumImageUrl\":\"https://thumbnail.image.rakuten.co.jp/@0_mall/book/cabinet/0545/9784088820545.jpg?_ex=120x120\",\"largeImageUrl\":\"https://thumbnail.image.rakuten.co.jp/@0_mall/book/cabinet/0545/9784088820545.jpg?_ex=200x200\",\"chirayomiUrl\":\"\",\"availability\":\"1\",\"postageFlag\":0,\"limitedFlag\":0,\"reviewCount\":71,\"reviewAverage\":\"4.62\",\"booksGenreId\":\"001001001008\"},{\"title\":\"\u30EF\u30F3\u30D1\u30F3\u30DE\u30F3
        21\",\"titleKana\":\"\u30EF\u30F3\u30D1\u30F3\u30DE\u30F3\",\"subTitle\":\"\",\"subTitleKana\":\"\",\"seriesName\":\"\u30B8\u30E3\u30F3\u30D7\u30B3\u30DF\u30C3\u30AF\u30B9\",\"seriesNameKana\":\"\",\"contents\":\"\",\"author\":\"\u6751\u7530
        \u96C4\u4ECB/ONE\",\"authorKana\":\"\u30E0\u30E9\u30BF \u30E6\u30A6\u30B9\u30B1/\u30EF\u30F3\",\"publisherName\":\"\u96C6\u82F1\u793E\",\"size\":\"\u30B3\u30DF\u30C3\u30AF\",\"isbn\":\"9784088818153\",\"itemCaption\":\"\",\"salesDate\":\"2019\u5E7412\u670804\u65E5\",\"itemPrice\":506,\"listPrice\":0,\"discountRate\":0,\"discountPrice\":0,\"itemUrl\":\"https://books.rakuten.co.jp/rb/16101064/\",\"affiliateUrl\":\"\",\"smallImageUrl\":\"https://thumbnail.image.rakuten.co.jp/@0_mall/book/cabinet/8153/9784088818153.gif?_ex=64x64\",\"mediumImageUrl\":\"https://thumbnail.image.rakuten.co.jp/@0_mall/book/cabinet/8153/9784088818153.gif?_ex=120x120\",\"largeImageUrl\":\"https://thumbnail.image.rakuten.co.jp/@0_mall/book/cabinet/8153/9784088818153.gif?_ex=200x200\",\"chirayomiUrl\":\"\",\"availability\":\"5\",\"postageFlag\":0,\"limitedFlag\":0,\"reviewCount\":0,\"reviewAverage\":\"0.0\",\"booksGenreId\":\"001001001008\"}],\"GenreInformation\":[]}"
    headers:
      Access-Control-Allow-Origin:
      - '*'
      Cache-Control:
      - no-store
      Connection:
      - close
      Content-Language:
      - ja-JP
      Content-Length:
      - '3028'
      Content-Type:
      - application/json;charset=UTF-8
      Date:
      - Tue, 22 Oct 2019 12:21:23 GMT
      Vary:
      - Accept-Encoding
    status:
      code: 200
      message: OK
- request:
    body: null
    headers:
      User-Agent:
      - python-requests/2.22.0
    method: GET
    uri: https://app.rakuten.co.jp/services/api/BooksBook/Search/20170404?applicationId=XXXXXX&booksGenreId=001001001008&formatVersion=2&hits=3
  response:
    body:
      string: "{\"count\":3309,\"page\":1,\"first\":1,\"last\":3,\"hits\":3,\"carrier\":0,\"pageCount\":100,\"Items\":[{\"title\":\"\u9B3C\u6EC5\u306E\u5203
        18\",\"titleKana\":\"\u30AD\u30E1\u30C4\u30CE\u30E4\u30A4\u30D0\",\"subTitle\":\"\",\"subTitleKana\":\"\",\"seriesName\":\"\u30B8\u30E3\u30F3\u30D7\u30B3\u30DF\u30C3\u30AF\u30B9\",\"seriesNameKana\":\"\",\"contents\":\"\",\"author\":\"\u543E\u5CE0
        \u547C\u4E16\u6674\",\"authorKana\":\"\u30B4\u30C8\u30A6\u30B2 \u30B3\u30E8\u30CF\u30EB\",\"publisherName\":\"\u96C6\u82F1\u793E\",\"size\":\"\u30B3\u30DF\u30C3\u30AF\",\"isbn\":\"9784088821412\",\"itemCaption\":\"\",\"salesDate\":\"2019\u5E7412\u670804\u65E5\",\"itemPrice\":484,\"listPrice\":0,\"discountRate\":0,\"discountPrice\":0,\"itemUrl\":\"https://books.rakuten.co.jp/rb/16101055/\",\"affiliateUrl\":\"\",\"smallImageUrl\":\"https://thumbnail.image.rakuten.co.jp/@0_mall/book/cabinet/1412/9784088821412.gif?_ex=64x64\",\"mediumImageUrl\":\"https://thumbnail.image.rakuten.co.jp/@0_mall/book/cabinet/1412/9784088821412.gif?_ex=120x120\",\"largeImageUrl\":\"https://thumbnail.image.rakuten.co.jp/@0_mall/book/cabinet/1412/9784088821412.gif?_ex=200x200\",\"chirayomiUrl\":\"\",\"availability\":\"5\",\"postageFlag\":0,\"limitedFlag\":0,\"reviewCount\":0,\"reviewAverage\":\"0.0\",\"booksGenreId\":\"001001001008\"},{\"title\":\"ONE
        PIECE 94\",\"titleKana\":\"\u30EF\u30F3\u30D4\u30FC\u30B9\",\"subTitle\":\"\",\"subTitleKana\":\"\",\"seriesName\":\"\u30B8\u30E3\u30F3\u30D7\u30B3\u30DF\u30C3\u30AF\u30B9\",\"seriesNameKana\":\"\",\"contents\":\"\",\"author\":\"\u5C3E\u7530
        \u6804\u4E00\u90CE\",\"authorKana\":\"\u30AA\u30C0 \u30A8\u30A4\u30A4\u30C1\u30ED\u30A6\",\"publisherName\":\"\u96C6\u82F1\u793E\",\"size\":\"\u30B3\u30DF\u30C3\u30AF\",\"isbn\":\"9784088820545\",\"itemCaption\":\"\",\"salesDate\":\"2019\u5E7410\u670804\u65E5\",\"itemPrice\":484,\"listPrice\":0,\"discountRate\":0,\"discountPrice\":0,\"itemUrl\":\"https://books.rakuten.co.jp/rb/16023392/\",\"affiliateUrl\":\"\",\"smallImageUrl\":\"https://thumbnail.image.rakuten.co.jp/@0_mall/book/cabinet/0545/9784088820545.jpg?_ex=64x64\",\"mediumImageUrl\":\"https://thumbnail.image.rakuten.co.jp/@0_mall/book/cabinet/0545/9784088820545.jpg?_ex=120x120\",\"largeImageUrl\":\"https://thumbnail.image.rakuten.co.jp/@0_mall/book/cabinet/0545/9784088820545.jpg?_ex=200x200\",\"chirayomiUrl\":\"\",\"availability\":\"1\",\"postageFlag\":0,\"limitedFlag\":0,\"reviewCount\":71,\"reviewAverage\":\"4.62\",\"booksGenreId\":\"001001001008\"},{\"title\":\"\u30EF\u30F3\u30D1\u30F3\u30DE\u30F3
        21\",\"titleKana\":\"\u30EF\u30F3\u30D1\u30F3\u30DE\u30F3\",\"subTitle\":\"\",\"subTitleKana\":\"\",\"seriesName\":\"\u30B8\u30E3\u30F3\u30D7\u30B3\u30DF\u30C3\u30AF\u30B9\",\"seriesNameKana\":\"\",\"contents\":\"\",\"author\":\"\u6751\u7530
        \u96C4\u4ECB/ONE\",\"authorKana\":\"\u30E0\u30E9\u30BF \u30E6\u30A6\u30B9\u30B1/\u30EF\u30F3\",\"publisherName\":\"\u96C6\u82F1\u793E\",\"size\":\"\u30B3\u30DF\u30C3\u30AF\",\"isbn\":\"9784088818153\",\"itemCaption\":\"\",\"salesDate\":\"2019\u5E7412\u670804\u65E5\",\"itemPrice\":506,\"listPrice\":0,\"discountRate\":0,\"discountPrice\":0,\"itemUrl\":\"https://books.rakuten.co.jp/rb/16101064/\",\"affiliateUrl\":\"\",\"smallImageUrl\":\"https://thumbnail.image.rakuten.co.jp/@0_mall/book/cabinet/8153/9784088818153.gif?_ex=64x64\",\"mediumImageUrl\":\"https://thumbnail.image.rakuten.co.jp/@0_mall/book/cabinet/8153/9784088818153.gif?_ex=120x120\",\"largeImageUrl\":\"https://thumbnail.image.rakuten.co.jp/@0_mall/book/cabinet/8153/9784088818153.gif?_ex=200x200\",\"chirayomiUrl\":\"\",\"availability\":\"5\",\"postageFlag\":0,\"limitedFlag\":0,\"reviewCount\":0,\"reviewAverage\":\"0.0\",\"booksGenreId\":\"001001001008\"}],\"GenreInformation\":[]}"
    headers:
      Access-Control-Allow-Origin:
      - '*'
      Cache-Control:
      - no-store
      Connection:
      - close
      Content-Language:
      - ja-JP
      Content-Length:
      - '3028'
      Content-Type:
      - application/json;charset=UTF-8
      Date:
      - Tue, 22 Oct 2019 12:25:05 GMT
      Vary:
      - Accept-Encoding
    status:
      code: 200
      message: OK
version: 1
