interactions:
- request:
    body: null
    headers:
      User-Agent: [python-requests/2.13.0]
    method: GET
    uri: https://app.rakuten.co.jp/services/api/BooksCD/Search/20130522?applicationId=XXXXXX&artistName=Speed&formatVersion=2&hits=3
  response:
    body: {string: "{\"count\":70,\"page\":1,\"first\":1,\"last\":3,\"hits\":3,\"carrier\":0,\"pageCount\":24,\"Items\":[{\"title\":\"SPEEDLAND
        The Premium Best Re Tracks\",\"titleKana\":\"\u30B9\u30D4\u30FC\u30C9\u30E9\u30F3\u30C9
        \u30B6 \u30D7\u30EC\u30DF\u30A2\u30E0 \u30D9\u30B9\u30C8 \u30EA \u30C8\u30E9\u30C3\u30AF\u30B9\",\"artistName\":\"SPEED\",\"artistNameKana\":\"\u30B9\u30D4\u30FC\u30C9\",\"label\":\"\u30A8\u30A4\u30D9\u30C3\u30AF\u30B9\u30FB\u30DF\u30E5\u30FC\u30B8\u30C3\u30AF\u30FB\u30AF\u30EA\u30A8\u30A4\u30C6\u30A3\u30F4(\u682A)\",\"size\":\"1\",\"jan\":\"4988064161874\",\"makerCode\":\"AVCD-16187\",\"itemCaption\":\"\u300CBody&Soul\u300D\u300CWake
        Me Up!\u300D\u3068\u3044\u3063\u305F\u30D2\u30C3\u30C8\u30FB\u30C1\u30E5\u30FC\u30F3\u3092\u30BB\u30EB\u30D5\u30FB\u30AB\u30F4\u30A1\u30FC\u3057\u305F\u30D9\u30B9\u30C8\u3002\u6700\u5148\u7AEF\u306ER&B\u30E2\u30FC\u30C9\u3092\u968F\u6240\u306B\u53D6\u308A\u5165\u308C\u308B\u3053\u3068\u3067\u3001\u201C2009\u5E74\u306ESPEED\u201D\u3092\u8868\u73FE\u3057\u3066\u3044\u308B\u3002\u30B0\u30C3\u3068\u6D17\u7DF4\u3055\u308C\u305F\u30C8\u30E9\u30C3\u30AF\u30FB\u30E1\u30A4\u30AF\u3001\u539A\u307F\u3068\u6DF1\u307F\u3092\u5897\u3057\u305F\u30B3\u30FC\u30E9\u30B9\u30FB\u30EF\u30FC\u30AF\u306E\u30D0\u30E9\u30F3\u30B9\u304C\u629C\u7FA4\u3002\",\"playList\":\"Long
        Way Home###\u3042\u3057\u305F\u306E\u7A7A###Body & Soul###STEADY###Wake Me
        Up!###ALIVE###White Love###Snow Kiss###Breakin' out to the morning###\u71B1\u5E2F\u591C###ALL
        MY TRUE LOVE###Precious Time###GO!GO!Heaven###my graduation\",\"salesDate\":\"2009\u5E7408\u670805\u65E5\",\"itemPrice\":2830,\"listPrice\":0,\"discountRate\":0,\"discountPrice\":0,\"itemUrl\":\"http://books.rakuten.co.jp/rb/6075858/\",\"affiliateUrl\":\"\",\"smallImageUrl\":\"http://thumbnail.image.rakuten.co.jp/@0_mall/book/cabinet/4988/4988064161874.jpg?_ex=64x64\",\"mediumImageUrl\":\"http://thumbnail.image.rakuten.co.jp/@0_mall/book/cabinet/4988/4988064161874.jpg?_ex=120x120\",\"largeImageUrl\":\"http://thumbnail.image.rakuten.co.jp/@0_mall/book/cabinet/4988/4988064161874.jpg?_ex=200x200\",\"availability\":\"1\",\"postageFlag\":1,\"limitedFlag\":0,\"reviewCount\":10,\"reviewAverage\":\"4.7\",\"booksGenreId\":\"002101001\"},{\"title\":\"SPEEDLAND
        \u301CThe Premium Re Tracks\u301C \uFF08CD\uFF0BDVD\uFF09\",\"titleKana\":\"\u30B9\u30D4\u30FC\u30C9\u30E9\u30F3\u30C9
        \u30B6 \u30D7\u30EC\u30DF\u30A2\u30E0 \u30D9\u30B9\u30C8 \u30EA \u30C8\u30E9\u30C3\u30AF\u30B9\",\"artistName\":\"SPEED\",\"artistNameKana\":\"\u30B9\u30D4\u30FC\u30C9\",\"label\":\"\u30A8\u30A4\u30D9\u30C3\u30AF\u30B9\u30FB\u30DF\u30E5\u30FC\u30B8\u30C3\u30AF\u30FB\u30AF\u30EA\u30A8\u30A4\u30C6\u30A3\u30F4(\u682A)\",\"size\":\"1\",\"jan\":\"4988064161867\",\"makerCode\":\"AVCD-16186\",\"itemCaption\":\"2009\u5E748\u67085\u65E5\u30EA\u30EA\u30FC\u30B9\u306E\u30D9\u30B9\u30C8\u30FB\u30A2\u30EB\u30D0\u30E0\u3002\u518D\u7D50\u6210\u5F8C\u3082\u8A71\u984C\u306ESPEED\u306E\u3001\u201C\u30C8\u30A4\u30BA\u30D5\u30A1\u30AF\u30C8\u30EA\u30FC\u201D\u6642\u4EE3\u304B\u3089\u306E\u30B7\u30F3\u30B0\u30EB\u30FB\u30D2\u30C3\u30C8\u3092\u30EA\u30A2\u30EC\u30F3\u30B8\u3002\u8272\u9999\u304C\u5897\u3057\u3066\u3055\u3089\u306B\u8868\u73FE\u529B\u304C\u8C4A\u304B\u306B\u306A\u3063\u305F\u5F7C\u5973\u3089\u306E\u9B45\u529B\u3092\u8A70\u3081\u8FBC\u3093\u3060\u4E00\u679A\u3060\u3002\\n\\n\u21D2\u30A4\u30F3\u30BF\u30D3\u30E5\u30FC\u52D5\u753B\u306F\u3053\u3061\u3089\",\"playList\":\"Long
        Way Home###\u3042\u3057\u305F\u306E\u7A7A###Body & Soul###STEADY###Wake Me
        Up!###ALIVE###White Love###Snow Kiss###Breakin' out to the morning###\u71B1\u5E2F\u591C###ALL
        MY TRUE LOVE###Precious Time###GO!GO!Heaven###my graduation###Wake Me Up!
        (music clip)###\u71B1\u5E2F\u591C (music clip)###\u3042\u3057\u305F\u306E\u7A7A
        (music clip)###Wake Me Up! (music clip making)###SPEED\u306E\u300C\u7B11\u3046\u30E8\u30AC\u8B1B\u5EA7\u300D###\u71B1\u5E2F\u591C
        (music clip making)###\u30AB\u30E1\u30E9\u30DE\u30F3\u7D75\u7406\u5B50\u306E\u300C\u30B9\u30BF\u30B8\u30AA\u63A2\u8A2A\u300D\",\"salesDate\":\"2009\u5E7408\u670805\u65E5\",\"itemPrice\":3693,\"listPrice\":0,\"discountRate\":0,\"discountPrice\":0,\"itemUrl\":\"http://books.rakuten.co.jp/rb/6075857/\",\"affiliateUrl\":\"\",\"smallImageUrl\":\"http://thumbnail.image.rakuten.co.jp/@0_mall/book/cabinet/4988/4988064161867.jpg?_ex=64x64\",\"mediumImageUrl\":\"http://thumbnail.image.rakuten.co.jp/@0_mall/book/cabinet/4988/4988064161867.jpg?_ex=120x120\",\"largeImageUrl\":\"http://thumbnail.image.rakuten.co.jp/@0_mall/book/cabinet/4988/4988064161867.jpg?_ex=200x200\",\"availability\":\"1\",\"postageFlag\":2,\"limitedFlag\":0,\"reviewCount\":82,\"reviewAverage\":\"4.74\",\"booksGenreId\":\"002101001\"},{\"title\":\"Straight
        Shooter\",\"titleKana\":\"\u30B9\u30C8\u30EC\u30FC\u30C8 \u30B7\u30E5\u30FC\u30BF\u30FC\",\"artistName\":\"\u30B9\u30D4\u30FC\u30C9\u30C8\u30E9\u30C3\u30D7\",\"artistNameKana\":\"\u30B9\u30D4\u30FC\u30C9\u30C8\u30E9\u30C3\u30D7\",\"label\":\"(\u6709)\u30B9\u30D4\u30EA\u30C1\u30E5\u30A2\u30EB\u30FB\u30D3\u30FC\u30B9\u30C8\",\"size\":\"1\",\"jan\":\"4571139013095\",\"makerCode\":\"IUCP-16226\",\"itemCaption\":\"\",\"playList\":\"\u30CE\u30FC\u30FB\u30B0\u30ED\u30FC\u30EA\u30FC\u30FB\u30D5\u30A1\u30A6\u30F3\u30C9###\u30C8\u30FC\u30C1\u30BA\u30FB\u30A2\u30D6\u30EC\u30A4\u30BA###\u30E9\u30F3\u30CB\u30F3\u30B0\u30FB\u30E9\u30F3\u30D1\u30F3\u30C8###\u30A2\u30A4\u30BA\u30FB\u30D5\u30A9\u30FC\u30FB\u30B3\u30F3\u30AF\u30A8\u30B9\u30C8###\u30B5\u30FC\u30F4\u30FB\u30E6\u30A2\u30FB\u30DE\u30B9\u30BF\u30FC\u30BA###\u30B9\u30C8\u30EC\u30FC\u30C8\u30FB\u30B7\u30E5\u30FC\u30BF\u30FC###\u30D8\u30F4\u30A3\u30FB\u30A2\u30FC\u30DE\u30FC###\u30B5\u30F4\u30A7\u30FC\u30B8\u30FB\u30B6\u30FB\u30D7\u30EC\u30A4###\u30A2\u30A4\u30FB\u30A6\u30A9\u30F3\u30C8\u30FB\u30C8\u30A5\u30FB\u30B3\u30F3\u30AB\u30FC\u30FB\u30B6\u30FB\u30EF\u30FC\u30EB\u30C9
        (\u65E5\u672C\u76E4\u30DC\u30FC\u30CA\u30B9\u30FB\u30C8\u30E9\u30C3\u30AF)\",\"salesDate\":\"2015\u5E7409\u670823\u65E5\",\"itemPrice\":2359,\"listPrice\":0,\"discountRate\":0,\"discountPrice\":0,\"itemUrl\":\"http://books.rakuten.co.jp/rb/13305613/\",\"affiliateUrl\":\"\",\"smallImageUrl\":\"http://thumbnail.image.rakuten.co.jp/@0_mall/book/cabinet/3095/4571139013095.jpg?_ex=64x64\",\"mediumImageUrl\":\"http://thumbnail.image.rakuten.co.jp/@0_mall/book/cabinet/3095/4571139013095.jpg?_ex=120x120\",\"largeImageUrl\":\"http://thumbnail.image.rakuten.co.jp/@0_mall/book/cabinet/3095/4571139013095.jpg?_ex=200x200\",\"availability\":\"1\",\"postageFlag\":1,\"limitedFlag\":0,\"reviewCount\":0,\"reviewAverage\":\"0.0\",\"booksGenreId\":\"002102002\"}],\"GenreInformation\":[]}"}
    headers:
      Access-Control-Allow-Origin: ['*']
      Cache-Control: [no-store]
      Connection: [close]
      Content-Language: [ja-JP]
      Content-Length: ['4726']
      Content-Type: [application/json;charset=UTF-8]
      Date: ['Mon, 20 Feb 2017 15:34:02 GMT']
      Vary: [Accept-Encoding]
    status: {code: 200, message: OK}
version: 1
