interactions:
- request:
    body: null
    headers:
      User-Agent: [python-requests/2.13.0]
    method: GET
    uri: https://app.rakuten.co.jp/services/api/BooksDVD/Search/20130522?applicationId=XXXXXX&formatVersion=2&hits=3&title=%E3%83%AF%E3%83%B3%E3%83%94%E3%83%BC%E3%82%B9
  response:
    body: {string: "{\"count\":364,\"page\":1,\"first\":1,\"last\":3,\"hits\":3,\"carrier\":0,\"pageCount\":100,\"Items\":[{\"title\":\"ONE
        PIECE \u30EF\u30F3\u30D4\u30FC\u30B9 18TH\u30B7\u30FC\u30BA\u30F3 \u30BE\u30A6\u7DE8
        PIECE.5\",\"titleKana\":\"\u30EF\u30F3\u30D4\u30FC\u30B9 \u30A8\u30A4\u30C6\u30A3\u30FC\u30F3\u30B9\u30B7\u30FC\u30BA\u30F3
        \u30BE\u30A6\u30D8\u30F3 \u30D4\u30FC\u30B9 5\",\"artistName\":\"\u5C3E\u7530\u6804\u4E00\u90CE/\u7530\u4E2D\u771F\u5F13/\u4E45\u7530\u548C\u4E5F\",\"artistNameKana\":\"\u30AA\u30C0\u30A8\u30A4\u30A4\u30C1\u30ED\u30A6/\u30BF\u30CA\u30AB\u30DE\u30E6\u30DF/\u30AF\u30C0\u30AB\u30BA\u30E4\",\"label\":\"\u30A8\u30A4\u30D9\u30C3\u30AF\u30B9\u30FB\u30D4\u30AF\u30C1\u30E3\u30FC\u30BA(\u682A)\",\"jan\":\"4562475273410\",\"makerCode\":\"EYBA-11341\",\"itemCaption\":\"\",\"salesDate\":\"2017\u5E7405\u670803\u65E5\",\"itemPrice\":3645,\"listPrice\":0,\"discountRate\":0,\"discountPrice\":0,\"itemUrl\":\"http://books.rakuten.co.jp/rb/14675609/\",\"affiliateUrl\":\"\",\"smallImageUrl\":\"http://thumbnail.image.rakuten.co.jp/@0_mall/book/cabinet/noimage_01.gif?_ex=64x64\",\"mediumImageUrl\":\"http://thumbnail.image.rakuten.co.jp/@0_mall/book/cabinet/noimage_01.gif?_ex=120x120\",\"largeImageUrl\":\"http://thumbnail.image.rakuten.co.jp/@0_mall/book/cabinet/noimage_01.gif?_ex=200x200\",\"availability\":\"5\",\"postageFlag\":2,\"limitedFlag\":0,\"reviewCount\":0,\"reviewAverage\":\"0.0\",\"booksGenreId\":\"003206001/003206002/003206003/003206004/003206005\"},{\"title\":\"ONE
        PIECE \u30EF\u30F3\u30D4\u30FC\u30B9 18TH\u30B7\u30FC\u30BA\u30F3 \u30BE\u30A6\u7DE8
        PIECE.5\u3010Blu-ray\u3011\",\"titleKana\":\"\u30EF\u30F3\u30D4\u30FC\u30B9
        \u30A8\u30A4\u30C6\u30A3\u30FC\u30F3\u30B9\u30B7\u30FC\u30BA\u30F3 \u30BE\u30A6\u30D8\u30F3
        \u30D4\u30FC\u30B9 5\",\"artistName\":\"\u5C3E\u7530\u6804\u4E00\u90CE/\u7530\u4E2D\u771F\u5F13/\u4E45\u7530\u548C\u4E5F\",\"artistNameKana\":\"\u30AA\u30C0\u30A8\u30A4\u30A4\u30C1\u30ED\u30A6/\u30BF\u30CA\u30AB\u30DE\u30E6\u30DF/\u30AF\u30C0\u30AB\u30BA\u30E4\",\"label\":\"\u30A8\u30A4\u30D9\u30C3\u30AF\u30B9\u30FB\u30D4\u30AF\u30C1\u30E3\u30FC\u30BA(\u682A)\",\"jan\":\"4562475273427\",\"makerCode\":\"EYXA-11342\",\"itemCaption\":\"\",\"salesDate\":\"2017\u5E7405\u670803\u65E5\",\"itemPrice\":4455,\"listPrice\":0,\"discountRate\":0,\"discountPrice\":0,\"itemUrl\":\"http://books.rakuten.co.jp/rb/14675608/\",\"affiliateUrl\":\"\",\"smallImageUrl\":\"http://thumbnail.image.rakuten.co.jp/@0_mall/book/cabinet/noimage_01.gif?_ex=64x64\",\"mediumImageUrl\":\"http://thumbnail.image.rakuten.co.jp/@0_mall/book/cabinet/noimage_01.gif?_ex=120x120\",\"largeImageUrl\":\"http://thumbnail.image.rakuten.co.jp/@0_mall/book/cabinet/noimage_01.gif?_ex=200x200\",\"availability\":\"5\",\"postageFlag\":2,\"limitedFlag\":0,\"reviewCount\":0,\"reviewAverage\":\"0.0\",\"booksGenreId\":\"003215007\"},{\"title\":\"ONE
        PIECE \u30EF\u30F3\u30D4\u30FC\u30B9 18TH\u30B7\u30FC\u30BA\u30F3 \u30BE\u30A6\u7DE8
        PIECE.4\",\"titleKana\":\"\u30EF\u30F3\u30D4\u30FC\u30B9 \u30A8\u30A4\u30C6\u30A3\u30FC\u30F3\u30B9\u30B7\u30FC\u30BA\u30F3
        \u30BE\u30A6\u30D8\u30F3 \u30D4\u30FC\u30B9 4\",\"artistName\":\"\u7530\u4E2D\u771F\u5F13/\u5CA1\u6751\u660E\u7F8E/\u4E2D\u4E95\u548C\u54C9\",\"artistNameKana\":\"\u30BF\u30CA\u30AB\u30DE\u30E6\u30DF/\u30AA\u30AB\u30E0\u30E9\u30A2\u30B1\u30DF/\u30CA\u30AB\u30A4\u30AB\u30BA\u30E4\",\"label\":\"\u30A8\u30A4\u30D9\u30C3\u30AF\u30B9\u30FB\u30D4\u30AF\u30C1\u30E3\u30FC\u30BA(\u682A)\",\"jan\":\"4562475273090\",\"makerCode\":\"EYBA-11309\",\"itemCaption\":\"\",\"salesDate\":\"2017\u5E7404\u670805\u65E5\",\"itemPrice\":3742,\"listPrice\":0,\"discountRate\":0,\"discountPrice\":0,\"itemUrl\":\"http://books.rakuten.co.jp/rb/14632158/\",\"affiliateUrl\":\"\",\"smallImageUrl\":\"http://thumbnail.image.rakuten.co.jp/@0_mall/book/cabinet/noimage_01.gif?_ex=64x64\",\"mediumImageUrl\":\"http://thumbnail.image.rakuten.co.jp/@0_mall/book/cabinet/noimage_01.gif?_ex=120x120\",\"largeImageUrl\":\"http://thumbnail.image.rakuten.co.jp/@0_mall/book/cabinet/noimage_01.gif?_ex=200x200\",\"availability\":\"5\",\"postageFlag\":2,\"limitedFlag\":0,\"reviewCount\":0,\"reviewAverage\":\"0.0\",\"booksGenreId\":\"003206001/003206002/003206003/003206004/003206005\"}],\"GenreInformation\":[]}"}
    headers:
      Access-Control-Allow-Origin: ['*']
      Cache-Control: [no-store]
      Connection: [close]
      Content-Language: [ja-JP]
      Content-Length: ['3227']
      Content-Type: [application/json;charset=UTF-8]
      Date: ['Mon, 20 Feb 2017 15:34:04 GMT']
      Vary: [Accept-Encoding]
    status: {code: 200, message: OK}
version: 1
