interactions:
- request:
    body: null
    headers:
      User-Agent:
      - python-requests/2.22.0
    method: GET
    uri: https://app.rakuten.co.jp/services/api/BooksBook/Search/20170404?applicationId=XXXXXX&formatVersion=2&hits=3&sort=%2BitemPrice
  response:
    body:
      string: "{\"count\":984889,\"page\":1,\"first\":1,\"last\":3,\"hits\":3,\"carrier\":0,\"pageCount\":100,\"Items\":[{\"title\":\"\u61B2\u6CD5\u554F\u984CQ\uFF06A\",\"titleKana\":\"\u30B1\u30F3\u30DD\u30A6
        \u30E2\u30F3\u30C0\u30A4 \u30AD\u30E5\u30FC \u30A2\u30F3\u30C9 \u30A8\u30A4\",\"subTitle\":\"\u5B89\u500D9\u6761\u6539\u61B2NO\uFF01\u5E83\u3052\u3088\u30463000\u4E07\u4EBA\u7F72\u540D\",\"subTitleKana\":\"\u30A2\u30D9
        \u30AD\u30E5\u30A6\u30B8\u30E7\u30A6 \u30AB\u30A4\u30B1\u30F3 \u30CE\u30FC
        \u30D2\u30ED\u30B2\u30E8\u30A6 \u30B5\u30F3\u30BC\u30F3\u30DE\u30F3\u30CB\",\"seriesName\":\"\",\"seriesNameKana\":\"\",\"contents\":\"\",\"author\":\"\",\"authorKana\":\"\",\"publisherName\":\"\u65E5\u672C\u5171\u7523\u515A\u4E2D\u592E\u59D4\u54E1\u4F1A\u51FA\u7248\u5C40\",\"size\":\"\u5358\u884C\u672C\",\"isbn\":\"9784530016717\",\"itemCaption\":\"\",\"salesDate\":\"2018\u5E7402\u6708\",\"itemPrice\":102,\"listPrice\":0,\"discountRate\":0,\"discountPrice\":0,\"itemUrl\":\"https://books.rakuten.co.jp/rb/15563080/\",\"affiliateUrl\":\"\",\"smallImageUrl\":\"https://thumbnail.image.rakuten.co.jp/@0_mall/book/cabinet/6717/9784530016717.jpg?_ex=64x64\",\"mediumImageUrl\":\"https://thumbnail.image.rakuten.co.jp/@0_mall/book/cabinet/6717/9784530016717.jpg?_ex=120x120\",\"largeImageUrl\":\"https://thumbnail.image.rakuten.co.jp/@0_mall/book/cabinet/6717/9784530016717.jpg?_ex=200x200\",\"chirayomiUrl\":\"\",\"availability\":\"1\",\"postageFlag\":0,\"limitedFlag\":0,\"reviewCount\":2,\"reviewAverage\":\"4.0\",\"booksGenreId\":\"001008027\"},{\"title\":\"\u5973\u6027\u3078\u306E\u5DEE\u5225\u3092\u89E3\u6C7A\u3057\u3001\u7537\u5973\u304C\u5171\u306B\u6D3B\u8E8D\u3067\u304D\u308B\u793E\u4F1A\u3092\",\"titleKana\":\"\u30B8\u30E7\u30BB\u30A4
        \u30A8 \u30CE \u30B5\u30D9\u30C4 \u30AA \u30AB\u30A4\u30B1\u30C4\u30B7 \u3001
        \u30C0\u30F3\u30B8\u30E7 \u30AC \u30C8\u30E2\u30CB \u30AB\u30C4\u30E4\u30AF
        \u30C6\",\"subTitle\":\"\u65E5\u672C\u5171\u7523\u515A\u306F\u63D0\u6848\u3057\u307E\u3059\",\"subTitleKana\":\"\u30CB\u30DB\u30F3
        \u30AD\u30E7\u30A6\u30B5\u30F3\u30C8\u30A6 \u30EF \u30C6\u30A4\u30A2\u30F3\u30B7\u30DE\u30B9\",\"seriesName\":\"\u6587\u732E\u30D1\u30F3\u30D5\",\"seriesNameKana\":\"\u30D6\u30F3\u30B1\u30F3
        \u30D1\u30F3\u30D5\",\"contents\":\"\",\"author\":\"\",\"authorKana\":\"\",\"publisherName\":\"\u65E5\u672C\u5171\u7523\u515A\u4E2D\u592E\u59D4\u54E1\u4F1A\u51FA\u7248\u5C40\",\"size\":\"\",\"isbn\":\"9784530016441\",\"itemCaption\":\"\",\"salesDate\":\"2014\u5E7411\u6708\",\"itemPrice\":102,\"listPrice\":0,\"discountRate\":0,\"discountPrice\":0,\"itemUrl\":\"https://books.rakuten.co.jp/rb/13048675/\",\"affiliateUrl\":\"\",\"smallImageUrl\":\"https://thumbnail.image.rakuten.co.jp/@0_mall/book/cabinet/noimage_01.gif?_ex=64x64\",\"mediumImageUrl\":\"https://thumbnail.image.rakuten.co.jp/@0_mall/book/cabinet/noimage_01.gif?_ex=120x120\",\"largeImageUrl\":\"https://thumbnail.image.rakuten.co.jp/@0_mall/book/cabinet/noimage_01.gif?_ex=200x200\",\"chirayomiUrl\":\"\",\"availability\":\"1\",\"postageFlag\":0,\"limitedFlag\":0,\"reviewCount\":2,\"reviewAverage\":\"4.0\",\"booksGenreId\":\"001015\"},{\"title\":\"\u5C0F\u5B66\u6821\u5B66\u7FD2\u6307\u5C0E\u8981\u9818\u89E3\u8AAC\u3000\u5BB6\u5EAD\u7DE8\uFF08\u5E73\u621029\u5E74\u544A\u793A\uFF09\",\"titleKana\":\"\",\"subTitle\":\"\",\"subTitleKana\":\"\",\"seriesName\":\"\",\"seriesNameKana\":\"\",\"contents\":\"\",\"author\":\"\u6587\u90E8\u79D1\u5B66\u7701\",\"authorKana\":\"\",\"publisherName\":\"\u6771\u6D0B\u9928\u51FA\u7248\u793E\",\"size\":\"\",\"isbn\":\"9784491034669\",\"itemCaption\":\"\",\"salesDate\":\"2018\u5E7403\u6708\",\"itemPrice\":104,\"listPrice\":0,\"discountRate\":0,\"discountPrice\":0,\"itemUrl\":\"https://books.rakuten.co.jp/rb/15349236/\",\"affiliateUrl\":\"\",\"smallImageUrl\":\"https://thumbnail.image.rakuten.co.jp/@0_mall/book/cabinet/4669/9784491034669.jpg?_ex=64x64\",\"mediumImageUrl\":\"https://thumbnail.image.rakuten.co.jp/@0_mall/book/cabinet/4669/9784491034669.jpg?_ex=120x120\",\"largeImageUrl\":\"https://thumbnail.image.rakuten.co.jp/@0_mall/book/cabinet/4669/9784491034669.jpg?_ex=200x200\",\"chirayomiUrl\":\"\",\"availability\":\"1\",\"postageFlag\":0,\"limitedFlag\":0,\"reviewCount\":1,\"reviewAverage\":\"3.0\",\"booksGenreId\":\"001008012002\"}],\"GenreInformation\":[]}"
    headers:
      Access-Control-Allow-Origin:
      - '*'
      Cache-Control:
      - no-store
      Connection:
      - close
      Content-Language:
      - ja-JP
      Content-Length:
      - '3292'
      Content-Type:
      - application/json;charset=UTF-8
      Date:
      - Tue, 22 Oct 2019 10:40:54 GMT
      Vary:
      - Accept-Encoding
    status:
      code: 200
      message: OK
- request:
    body: null
    headers:
      User-Agent:
      - python-requests/2.22.0
    method: GET
    uri: https://app.rakuten.co.jp/services/api/BooksBook/Search/20170404?applicationId=XXXXXX&formatVersion=2&hits=3&sort=%2BitemPrice
  response:
    body:
      string: "{\"count\":984938,\"page\":1,\"first\":1,\"last\":3,\"hits\":3,\"carrier\":0,\"pageCount\":100,\"Items\":[{\"title\":\"\u61B2\u6CD5\u554F\u984CQ\uFF06A\",\"titleKana\":\"\u30B1\u30F3\u30DD\u30A6
        \u30E2\u30F3\u30C0\u30A4 \u30AD\u30E5\u30FC \u30A2\u30F3\u30C9 \u30A8\u30A4\",\"subTitle\":\"\u5B89\u500D9\u6761\u6539\u61B2NO\uFF01\u5E83\u3052\u3088\u30463000\u4E07\u4EBA\u7F72\u540D\",\"subTitleKana\":\"\u30A2\u30D9
        \u30AD\u30E5\u30A6\u30B8\u30E7\u30A6 \u30AB\u30A4\u30B1\u30F3 \u30CE\u30FC
        \u30D2\u30ED\u30B2\u30E8\u30A6 \u30B5\u30F3\u30BC\u30F3\u30DE\u30F3\u30CB\",\"seriesName\":\"\",\"seriesNameKana\":\"\",\"contents\":\"\",\"author\":\"\",\"authorKana\":\"\",\"publisherName\":\"\u65E5\u672C\u5171\u7523\u515A\u4E2D\u592E\u59D4\u54E1\u4F1A\u51FA\u7248\u5C40\",\"size\":\"\u5358\u884C\u672C\",\"isbn\":\"9784530016717\",\"itemCaption\":\"\",\"salesDate\":\"2018\u5E7402\u6708\",\"itemPrice\":102,\"listPrice\":0,\"discountRate\":0,\"discountPrice\":0,\"itemUrl\":\"https://books.rakuten.co.jp/rb/15563080/\",\"affiliateUrl\":\"\",\"smallImageUrl\":\"https://thumbnail.image.rakuten.co.jp/@0_mall/book/cabinet/6717/9784530016717.jpg?_ex=64x64\",\"mediumImageUrl\":\"https://thumbnail.image.rakuten.co.jp/@0_mall/book/cabinet/6717/9784530016717.jpg?_ex=120x120\",\"largeImageUrl\":\"https://thumbnail.image.rakuten.co.jp/@0_mall/book/cabinet/6717/9784530016717.jpg?_ex=200x200\",\"chirayomiUrl\":\"\",\"availability\":\"1\",\"postageFlag\":0,\"limitedFlag\":0,\"reviewCount\":2,\"reviewAverage\":\"4.0\",\"booksGenreId\":\"001008027\"},{\"title\":\"\u5973\u6027\u3078\u306E\u5DEE\u5225\u3092\u89E3\u6C7A\u3057\u3001\u7537\u5973\u304C\u5171\u306B\u6D3B\u8E8D\u3067\u304D\u308B\u793E\u4F1A\u3092\",\"titleKana\":\"\u30B8\u30E7\u30BB\u30A4
        \u30A8 \u30CE \u30B5\u30D9\u30C4 \u30AA \u30AB\u30A4\u30B1\u30C4\u30B7 \u3001
        \u30C0\u30F3\u30B8\u30E7 \u30AC \u30C8\u30E2\u30CB \u30AB\u30C4\u30E4\u30AF
        \u30C6\",\"subTitle\":\"\u65E5\u672C\u5171\u7523\u515A\u306F\u63D0\u6848\u3057\u307E\u3059\",\"subTitleKana\":\"\u30CB\u30DB\u30F3
        \u30AD\u30E7\u30A6\u30B5\u30F3\u30C8\u30A6 \u30EF \u30C6\u30A4\u30A2\u30F3\u30B7\u30DE\u30B9\",\"seriesName\":\"\u6587\u732E\u30D1\u30F3\u30D5\",\"seriesNameKana\":\"\u30D6\u30F3\u30B1\u30F3
        \u30D1\u30F3\u30D5\",\"contents\":\"\",\"author\":\"\",\"authorKana\":\"\",\"publisherName\":\"\u65E5\u672C\u5171\u7523\u515A\u4E2D\u592E\u59D4\u54E1\u4F1A\u51FA\u7248\u5C40\",\"size\":\"\",\"isbn\":\"9784530016441\",\"itemCaption\":\"\",\"salesDate\":\"2014\u5E7411\u6708\",\"itemPrice\":102,\"listPrice\":0,\"discountRate\":0,\"discountPrice\":0,\"itemUrl\":\"https://books.rakuten.co.jp/rb/13048675/\",\"affiliateUrl\":\"\",\"smallImageUrl\":\"https://thumbnail.image.rakuten.co.jp/@0_mall/book/cabinet/noimage_01.gif?_ex=64x64\",\"mediumImageUrl\":\"https://thumbnail.image.rakuten.co.jp/@0_mall/book/cabinet/noimage_01.gif?_ex=120x120\",\"largeImageUrl\":\"https://thumbnail.image.rakuten.co.jp/@0_mall/book/cabinet/noimage_01.gif?_ex=200x200\",\"chirayomiUrl\":\"\",\"availability\":\"1\",\"postageFlag\":0,\"limitedFlag\":0,\"reviewCount\":2,\"reviewAverage\":\"4.0\",\"booksGenreId\":\"001015\"},{\"title\":\"\u5916\u4EA4\u4EA4\u6E09\u306B\u3088\u308B\u5C16\u95A3\u8AF8\u5CF6\u554F\u984C\u306E\u89E3\u6C7A\u3092\",\"titleKana\":\"\u30AC\u30A4\u30B3\u30A6
        \u30B3\u30A6\u30B7\u30E7\u30A6 \u30CB \u30E8\u30EB \u30BB\u30F3\u30AB\u30AF
        \u30B7\u30E7\u30C8\u30A6 \u30E2\u30F3\u30C0\u30A4 \u30CE \u30AB\u30A4\u30B1\u30C4
        \u30AA\",\"subTitle\":\"\u65E5\u672C\u5171\u7523\u515A\u5FD7\u4F4D\u59D4\u54E1\u9577\u306E\u63D0\u8A00\",\"subTitleKana\":\"\u30CB\u30DB\u30F3
        \u30AD\u30E7\u30A6\u30B5\u30F3\u30C8\u30A6 \u30B7\u30A4 \u30A4\u30A4\u30F3\u30C1\u30E7\u30A6
        \u30CE \u30C6\u30A4\u30B2\u30F3\",\"seriesName\":\"\u6587\u732E\u30D1\u30F3\u30D5\",\"seriesNameKana\":\"\u30D6\u30F3\u30B1\u30F3
        \u30D1\u30F3\u30D5\",\"contents\":\"\",\"author\":\"\",\"authorKana\":\"\",\"publisherName\":\"\u65E5\u672C\u5171\u7523\u515A\u4E2D\u592E\u59D4\u54E1\u4F1A\u51FA\u7248\u5C40\",\"size\":\"\",\"isbn\":\"9784530016250\",\"itemCaption\":\"\",\"salesDate\":\"2012\u5E7410\u6708\",\"itemPrice\":104,\"listPrice\":0,\"discountRate\":0,\"discountPrice\":0,\"itemUrl\":\"https://books.rakuten.co.jp/rb/12116507/\",\"affiliateUrl\":\"\",\"smallImageUrl\":\"https://thumbnail.image.rakuten.co.jp/@0_mall/book/cabinet/6250/9784530016250.jpg?_ex=64x64\",\"mediumImageUrl\":\"https://thumbnail.image.rakuten.co.jp/@0_mall/book/cabinet/6250/9784530016250.jpg?_ex=120x120\",\"largeImageUrl\":\"https://thumbnail.image.rakuten.co.jp/@0_mall/book/cabinet/6250/9784530016250.jpg?_ex=200x200\",\"chirayomiUrl\":\"\",\"availability\":\"1\",\"postageFlag\":0,\"limitedFlag\":0,\"reviewCount\":1,\"reviewAverage\":\"5.0\",\"booksGenreId\":\"001015\"}],\"GenreInformation\":[]}"
    headers:
      Access-Control-Allow-Origin:
      - '*'
      Cache-Control:
      - no-store
      Connection:
      - close
      Content-Language:
      - ja-JP
      Content-Length:
      - '3524'
      Content-Type:
      - application/json;charset=UTF-8
      Date:
      - Tue, 22 Oct 2019 11:55:16 GMT
      Vary:
      - Accept-Encoding
    status:
      code: 200
      message: OK
- request:
    body: null
    headers:
      User-Agent:
      - python-requests/2.22.0
    method: GET
    uri: https://app.rakuten.co.jp/services/api/BooksBook/Search/20170404?applicationId=XXXXXX&formatVersion=2&hits=3&sort=%2BitemPrice
  response:
    body:
      string: "{\"count\":984924,\"page\":1,\"first\":1,\"last\":3,\"hits\":3,\"carrier\":0,\"pageCount\":100,\"Items\":[{\"title\":\"\u61B2\u6CD5\u554F\u984CQ\uFF06A\",\"titleKana\":\"\u30B1\u30F3\u30DD\u30A6
        \u30E2\u30F3\u30C0\u30A4 \u30AD\u30E5\u30FC \u30A2\u30F3\u30C9 \u30A8\u30A4\",\"subTitle\":\"\u5B89\u500D9\u6761\u6539\u61B2NO\uFF01\u5E83\u3052\u3088\u30463000\u4E07\u4EBA\u7F72\u540D\",\"subTitleKana\":\"\u30A2\u30D9
        \u30AD\u30E5\u30A6\u30B8\u30E7\u30A6 \u30AB\u30A4\u30B1\u30F3 \u30CE\u30FC
        \u30D2\u30ED\u30B2\u30E8\u30A6 \u30B5\u30F3\u30BC\u30F3\u30DE\u30F3\u30CB\",\"seriesName\":\"\",\"seriesNameKana\":\"\",\"contents\":\"\",\"author\":\"\",\"authorKana\":\"\",\"publisherName\":\"\u65E5\u672C\u5171\u7523\u515A\u4E2D\u592E\u59D4\u54E1\u4F1A\u51FA\u7248\u5C40\",\"size\":\"\u5358\u884C\u672C\",\"isbn\":\"9784530016717\",\"itemCaption\":\"\",\"salesDate\":\"2018\u5E7402\u6708\",\"itemPrice\":102,\"listPrice\":0,\"discountRate\":0,\"discountPrice\":0,\"itemUrl\":\"https://books.rakuten.co.jp/rb/15563080/\",\"affiliateUrl\":\"\",\"smallImageUrl\":\"https://thumbnail.image.rakuten.co.jp/@0_mall/book/cabinet/6717/9784530016717.jpg?_ex=64x64\",\"mediumImageUrl\":\"https://thumbnail.image.rakuten.co.jp/@0_mall/book/cabinet/6717/9784530016717.jpg?_ex=120x120\",\"largeImageUrl\":\"https://thumbnail.image.rakuten.co.jp/@0_mall/book/cabinet/6717/9784530016717.jpg?_ex=200x200\",\"chirayomiUrl\":\"\",\"availability\":\"1\",\"postageFlag\":0,\"limitedFlag\":0,\"reviewCount\":2,\"reviewAverage\":\"4.0\",\"booksGenreId\":\"001008027\"},{\"title\":\"\u5973\u6027\u3078\u306E\u5DEE\u5225\u3092\u89E3\u6C7A\u3057\u3001\u7537\u5973\u304C\u5171\u306B\u6D3B\u8E8D\u3067\u304D\u308B\u793E\u4F1A\u3092\",\"titleKana\":\"\u30B8\u30E7\u30BB\u30A4
        \u30A8 \u30CE \u30B5\u30D9\u30C4 \u30AA \u30AB\u30A4\u30B1\u30C4\u30B7 \u3001
        \u30C0\u30F3\u30B8\u30E7 \u30AC \u30C8\u30E2\u30CB \u30AB\u30C4\u30E4\u30AF
        \u30C6\",\"subTitle\":\"\u65E5\u672C\u5171\u7523\u515A\u306F\u63D0\u6848\u3057\u307E\u3059\",\"subTitleKana\":\"\u30CB\u30DB\u30F3
        \u30AD\u30E7\u30A6\u30B5\u30F3\u30C8\u30A6 \u30EF \u30C6\u30A4\u30A2\u30F3\u30B7\u30DE\u30B9\",\"seriesName\":\"\u6587\u732E\u30D1\u30F3\u30D5\",\"seriesNameKana\":\"\u30D6\u30F3\u30B1\u30F3
        \u30D1\u30F3\u30D5\",\"contents\":\"\",\"author\":\"\",\"authorKana\":\"\",\"publisherName\":\"\u65E5\u672C\u5171\u7523\u515A\u4E2D\u592E\u59D4\u54E1\u4F1A\u51FA\u7248\u5C40\",\"size\":\"\",\"isbn\":\"9784530016441\",\"itemCaption\":\"\",\"salesDate\":\"2014\u5E7411\u6708\",\"itemPrice\":102,\"listPrice\":0,\"discountRate\":0,\"discountPrice\":0,\"itemUrl\":\"https://books.rakuten.co.jp/rb/13048675/\",\"affiliateUrl\":\"\",\"smallImageUrl\":\"https://thumbnail.image.rakuten.co.jp/@0_mall/book/cabinet/noimage_01.gif?_ex=64x64\",\"mediumImageUrl\":\"https://thumbnail.image.rakuten.co.jp/@0_mall/book/cabinet/noimage_01.gif?_ex=120x120\",\"largeImageUrl\":\"https://thumbnail.image.rakuten.co.jp/@0_mall/book/cabinet/noimage_01.gif?_ex=200x200\",\"chirayomiUrl\":\"\",\"availability\":\"1\",\"postageFlag\":0,\"limitedFlag\":0,\"reviewCount\":2,\"reviewAverage\":\"4.0\",\"booksGenreId\":\"001015\"},{\"title\":\"\u5916\u4EA4\u4EA4\u6E09\u306B\u3088\u308B\u5C16\u95A3\u8AF8\u5CF6\u554F\u984C\u306E\u89E3\u6C7A\u3092\",\"titleKana\":\"\u30AC\u30A4\u30B3\u30A6
        \u30B3\u30A6\u30B7\u30E7\u30A6 \u30CB \u30E8\u30EB \u30BB\u30F3\u30AB\u30AF
        \u30B7\u30E7\u30C8\u30A6 \u30E2\u30F3\u30C0\u30A4 \u30CE \u30AB\u30A4\u30B1\u30C4
        \u30AA\",\"subTitle\":\"\u65E5\u672C\u5171\u7523\u515A\u5FD7\u4F4D\u59D4\u54E1\u9577\u306E\u63D0\u8A00\",\"subTitleKana\":\"\u30CB\u30DB\u30F3
        \u30AD\u30E7\u30A6\u30B5\u30F3\u30C8\u30A6 \u30B7\u30A4 \u30A4\u30A4\u30F3\u30C1\u30E7\u30A6
        \u30CE \u30C6\u30A4\u30B2\u30F3\",\"seriesName\":\"\u6587\u732E\u30D1\u30F3\u30D5\",\"seriesNameKana\":\"\u30D6\u30F3\u30B1\u30F3
        \u30D1\u30F3\u30D5\",\"contents\":\"\",\"author\":\"\",\"authorKana\":\"\",\"publisherName\":\"\u65E5\u672C\u5171\u7523\u515A\u4E2D\u592E\u59D4\u54E1\u4F1A\u51FA\u7248\u5C40\",\"size\":\"\",\"isbn\":\"9784530016250\",\"itemCaption\":\"\",\"salesDate\":\"2012\u5E7410\u6708\",\"itemPrice\":104,\"listPrice\":0,\"discountRate\":0,\"discountPrice\":0,\"itemUrl\":\"https://books.rakuten.co.jp/rb/12116507/\",\"affiliateUrl\":\"\",\"smallImageUrl\":\"https://thumbnail.image.rakuten.co.jp/@0_mall/book/cabinet/6250/9784530016250.jpg?_ex=64x64\",\"mediumImageUrl\":\"https://thumbnail.image.rakuten.co.jp/@0_mall/book/cabinet/6250/9784530016250.jpg?_ex=120x120\",\"largeImageUrl\":\"https://thumbnail.image.rakuten.co.jp/@0_mall/book/cabinet/6250/9784530016250.jpg?_ex=200x200\",\"chirayomiUrl\":\"\",\"availability\":\"1\",\"postageFlag\":0,\"limitedFlag\":0,\"reviewCount\":1,\"reviewAverage\":\"5.0\",\"booksGenreId\":\"001015\"}],\"GenreInformation\":[]}"
    headers:
      Access-Control-Allow-Origin:
      - '*'
      Cache-Control:
      - no-store
      Connection:
      - close
      Content-Language:
      - ja-JP
      Content-Length:
      - '3524'
      Content-Type:
      - application/json;charset=UTF-8
      Date:
      - Tue, 22 Oct 2019 12:16:12 GMT
      Vary:
      - Accept-Encoding
    status:
      code: 200
      message: OK
- request:
    body: null
    headers:
      User-Agent:
      - python-requests/2.22.0
    method: GET
    uri: https://app.rakuten.co.jp/services/api/BooksBook/Search/20170404?applicationId=XXXXXX&formatVersion=2&hits=3&sort=%2BitemPrice
  response:
    body:
      string: "{\"count\":984924,\"page\":1,\"first\":1,\"last\":3,\"hits\":3,\"carrier\":0,\"pageCount\":100,\"Items\":[{\"title\":\"\u61B2\u6CD5\u554F\u984CQ\uFF06A\",\"titleKana\":\"\u30B1\u30F3\u30DD\u30A6
        \u30E2\u30F3\u30C0\u30A4 \u30AD\u30E5\u30FC \u30A2\u30F3\u30C9 \u30A8\u30A4\",\"subTitle\":\"\u5B89\u500D9\u6761\u6539\u61B2NO\uFF01\u5E83\u3052\u3088\u30463000\u4E07\u4EBA\u7F72\u540D\",\"subTitleKana\":\"\u30A2\u30D9
        \u30AD\u30E5\u30A6\u30B8\u30E7\u30A6 \u30AB\u30A4\u30B1\u30F3 \u30CE\u30FC
        \u30D2\u30ED\u30B2\u30E8\u30A6 \u30B5\u30F3\u30BC\u30F3\u30DE\u30F3\u30CB\",\"seriesName\":\"\",\"seriesNameKana\":\"\",\"contents\":\"\",\"author\":\"\",\"authorKana\":\"\",\"publisherName\":\"\u65E5\u672C\u5171\u7523\u515A\u4E2D\u592E\u59D4\u54E1\u4F1A\u51FA\u7248\u5C40\",\"size\":\"\u5358\u884C\u672C\",\"isbn\":\"9784530016717\",\"itemCaption\":\"\",\"salesDate\":\"2018\u5E7402\u6708\",\"itemPrice\":102,\"listPrice\":0,\"discountRate\":0,\"discountPrice\":0,\"itemUrl\":\"https://books.rakuten.co.jp/rb/15563080/\",\"affiliateUrl\":\"\",\"smallImageUrl\":\"https://thumbnail.image.rakuten.co.jp/@0_mall/book/cabinet/6717/9784530016717.jpg?_ex=64x64\",\"mediumImageUrl\":\"https://thumbnail.image.rakuten.co.jp/@0_mall/book/cabinet/6717/9784530016717.jpg?_ex=120x120\",\"largeImageUrl\":\"https://thumbnail.image.rakuten.co.jp/@0_mall/book/cabinet/6717/9784530016717.jpg?_ex=200x200\",\"chirayomiUrl\":\"\",\"availability\":\"1\",\"postageFlag\":0,\"limitedFlag\":0,\"reviewCount\":2,\"reviewAverage\":\"4.0\",\"booksGenreId\":\"001008027\"},{\"title\":\"\u5973\u6027\u3078\u306E\u5DEE\u5225\u3092\u89E3\u6C7A\u3057\u3001\u7537\u5973\u304C\u5171\u306B\u6D3B\u8E8D\u3067\u304D\u308B\u793E\u4F1A\u3092\",\"titleKana\":\"\u30B8\u30E7\u30BB\u30A4
        \u30A8 \u30CE \u30B5\u30D9\u30C4 \u30AA \u30AB\u30A4\u30B1\u30C4\u30B7 \u3001
        \u30C0\u30F3\u30B8\u30E7 \u30AC \u30C8\u30E2\u30CB \u30AB\u30C4\u30E4\u30AF
        \u30C6\",\"subTitle\":\"\u65E5\u672C\u5171\u7523\u515A\u306F\u63D0\u6848\u3057\u307E\u3059\",\"subTitleKana\":\"\u30CB\u30DB\u30F3
        \u30AD\u30E7\u30A6\u30B5\u30F3\u30C8\u30A6 \u30EF \u30C6\u30A4\u30A2\u30F3\u30B7\u30DE\u30B9\",\"seriesName\":\"\u6587\u732E\u30D1\u30F3\u30D5\",\"seriesNameKana\":\"\u30D6\u30F3\u30B1\u30F3
        \u30D1\u30F3\u30D5\",\"contents\":\"\",\"author\":\"\",\"authorKana\":\"\",\"publisherName\":\"\u65E5\u672C\u5171\u7523\u515A\u4E2D\u592E\u59D4\u54E1\u4F1A\u51FA\u7248\u5C40\",\"size\":\"\",\"isbn\":\"9784530016441\",\"itemCaption\":\"\",\"salesDate\":\"2014\u5E7411\u6708\",\"itemPrice\":102,\"listPrice\":0,\"discountRate\":0,\"discountPrice\":0,\"itemUrl\":\"https://books.rakuten.co.jp/rb/13048675/\",\"affiliateUrl\":\"\",\"smallImageUrl\":\"https://thumbnail.image.rakuten.co.jp/@0_mall/book/cabinet/noimage_01.gif?_ex=64x64\",\"mediumImageUrl\":\"https://thumbnail.image.rakuten.co.jp/@0_mall/book/cabinet/noimage_01.gif?_ex=120x120\",\"largeImageUrl\":\"https://thumbnail.image.rakuten.co.jp/@0_mall/book/cabinet/noimage_01.gif?_ex=200x200\",\"chirayomiUrl\":\"\",\"availability\":\"1\",\"postageFlag\":0,\"limitedFlag\":0,\"reviewCount\":2,\"reviewAverage\":\"4.0\",\"booksGenreId\":\"001015\"},{\"title\":\"\u5916\u4EA4\u4EA4\u6E09\u306B\u3088\u308B\u5C16\u95A3\u8AF8\u5CF6\u554F\u984C\u306E\u89E3\u6C7A\u3092\",\"titleKana\":\"\u30AC\u30A4\u30B3\u30A6
        \u30B3\u30A6\u30B7\u30E7\u30A6 \u30CB \u30E8\u30EB \u30BB\u30F3\u30AB\u30AF
        \u30B7\u30E7\u30C8\u30A6 \u30E2\u30F3\u30C0\u30A4 \u30CE \u30AB\u30A4\u30B1\u30C4
        \u30AA\",\"subTitle\":\"\u65E5\u672C\u5171\u7523\u515A\u5FD7\u4F4D\u59D4\u54E1\u9577\u306E\u63D0\u8A00\",\"subTitleKana\":\"\u30CB\u30DB\u30F3
        \u30AD\u30E7\u30A6\u30B5\u30F3\u30C8\u30A6 \u30B7\u30A4 \u30A4\u30A4\u30F3\u30C1\u30E7\u30A6
        \u30CE \u30C6\u30A4\u30B2\u30F3\",\"seriesName\":\"\u6587\u732E\u30D1\u30F3\u30D5\",\"seriesNameKana\":\"\u30D6\u30F3\u30B1\u30F3
        \u30D1\u30F3\u30D5\",\"contents\":\"\",\"author\":\"\",\"authorKana\":\"\",\"publisherName\":\"\u65E5\u672C\u5171\u7523\u515A\u4E2D\u592E\u59D4\u54E1\u4F1A\u51FA\u7248\u5C40\",\"size\":\"\",\"isbn\":\"9784530016250\",\"itemCaption\":\"\",\"salesDate\":\"2012\u5E7410\u6708\",\"itemPrice\":104,\"listPrice\":0,\"discountRate\":0,\"discountPrice\":0,\"itemUrl\":\"https://books.rakuten.co.jp/rb/12116507/\",\"affiliateUrl\":\"\",\"smallImageUrl\":\"https://thumbnail.image.rakuten.co.jp/@0_mall/book/cabinet/6250/9784530016250.jpg?_ex=64x64\",\"mediumImageUrl\":\"https://thumbnail.image.rakuten.co.jp/@0_mall/book/cabinet/6250/9784530016250.jpg?_ex=120x120\",\"largeImageUrl\":\"https://thumbnail.image.rakuten.co.jp/@0_mall/book/cabinet/6250/9784530016250.jpg?_ex=200x200\",\"chirayomiUrl\":\"\",\"availability\":\"1\",\"postageFlag\":0,\"limitedFlag\":0,\"reviewCount\":1,\"reviewAverage\":\"5.0\",\"booksGenreId\":\"001015\"}],\"GenreInformation\":[]}"
    headers:
      Access-Control-Allow-Origin:
      - '*'
      Cache-Control:
      - no-store
      Connection:
      - close
      Content-Language:
      - ja-JP
      Content-Length:
      - '3524'
      Content-Type:
      - application/json;charset=UTF-8
      Date:
      - Tue, 22 Oct 2019 12:21:18 GMT
      Vary:
      - Accept-Encoding
    status:
      code: 200
      message: OK
- request:
    body: null
    headers:
      User-Agent:
      - python-requests/2.22.0
    method: GET
    uri: https://app.rakuten.co.jp/services/api/BooksBook/Search/20170404?applicationId=XXXXXX&formatVersion=2&hits=3&sort=%2BitemPrice
  response:
    body:
      string: "{\"count\":984924,\"page\":1,\"first\":1,\"last\":3,\"hits\":3,\"carrier\":0,\"pageCount\":100,\"Items\":[{\"title\":\"\u61B2\u6CD5\u554F\u984CQ\uFF06A\",\"titleKana\":\"\u30B1\u30F3\u30DD\u30A6
        \u30E2\u30F3\u30C0\u30A4 \u30AD\u30E5\u30FC \u30A2\u30F3\u30C9 \u30A8\u30A4\",\"subTitle\":\"\u5B89\u500D9\u6761\u6539\u61B2NO\uFF01\u5E83\u3052\u3088\u30463000\u4E07\u4EBA\u7F72\u540D\",\"subTitleKana\":\"\u30A2\u30D9
        \u30AD\u30E5\u30A6\u30B8\u30E7\u30A6 \u30AB\u30A4\u30B1\u30F3 \u30CE\u30FC
        \u30D2\u30ED\u30B2\u30E8\u30A6 \u30B5\u30F3\u30BC\u30F3\u30DE\u30F3\u30CB\",\"seriesName\":\"\",\"seriesNameKana\":\"\",\"contents\":\"\",\"author\":\"\",\"authorKana\":\"\",\"publisherName\":\"\u65E5\u672C\u5171\u7523\u515A\u4E2D\u592E\u59D4\u54E1\u4F1A\u51FA\u7248\u5C40\",\"size\":\"\u5358\u884C\u672C\",\"isbn\":\"9784530016717\",\"itemCaption\":\"\",\"salesDate\":\"2018\u5E7402\u6708\",\"itemPrice\":102,\"listPrice\":0,\"discountRate\":0,\"discountPrice\":0,\"itemUrl\":\"https://books.rakuten.co.jp/rb/15563080/\",\"affiliateUrl\":\"\",\"smallImageUrl\":\"https://thumbnail.image.rakuten.co.jp/@0_mall/book/cabinet/6717/9784530016717.jpg?_ex=64x64\",\"mediumImageUrl\":\"https://thumbnail.image.rakuten.co.jp/@0_mall/book/cabinet/6717/9784530016717.jpg?_ex=120x120\",\"largeImageUrl\":\"https://thumbnail.image.rakuten.co.jp/@0_mall/book/cabinet/6717/9784530016717.jpg?_ex=200x200\",\"chirayomiUrl\":\"\",\"availability\":\"1\",\"postageFlag\":0,\"limitedFlag\":0,\"reviewCount\":2,\"reviewAverage\":\"4.0\",\"booksGenreId\":\"001008027\"},{\"title\":\"\u5973\u6027\u3078\u306E\u5DEE\u5225\u3092\u89E3\u6C7A\u3057\u3001\u7537\u5973\u304C\u5171\u306B\u6D3B\u8E8D\u3067\u304D\u308B\u793E\u4F1A\u3092\",\"titleKana\":\"\u30B8\u30E7\u30BB\u30A4
        \u30A8 \u30CE \u30B5\u30D9\u30C4 \u30AA \u30AB\u30A4\u30B1\u30C4\u30B7 \u3001
        \u30C0\u30F3\u30B8\u30E7 \u30AC \u30C8\u30E2\u30CB \u30AB\u30C4\u30E4\u30AF
        \u30C6\",\"subTitle\":\"\u65E5\u672C\u5171\u7523\u515A\u306F\u63D0\u6848\u3057\u307E\u3059\",\"subTitleKana\":\"\u30CB\u30DB\u30F3
        \u30AD\u30E7\u30A6\u30B5\u30F3\u30C8\u30A6 \u30EF \u30C6\u30A4\u30A2\u30F3\u30B7\u30DE\u30B9\",\"seriesName\":\"\u6587\u732E\u30D1\u30F3\u30D5\",\"seriesNameKana\":\"\u30D6\u30F3\u30B1\u30F3
        \u30D1\u30F3\u30D5\",\"contents\":\"\",\"author\":\"\",\"authorKana\":\"\",\"publisherName\":\"\u65E5\u672C\u5171\u7523\u515A\u4E2D\u592E\u59D4\u54E1\u4F1A\u51FA\u7248\u5C40\",\"size\":\"\",\"isbn\":\"9784530016441\",\"itemCaption\":\"\",\"salesDate\":\"2014\u5E7411\u6708\",\"itemPrice\":102,\"listPrice\":0,\"discountRate\":0,\"discountPrice\":0,\"itemUrl\":\"https://books.rakuten.co.jp/rb/13048675/\",\"affiliateUrl\":\"\",\"smallImageUrl\":\"https://thumbnail.image.rakuten.co.jp/@0_mall/book/cabinet/noimage_01.gif?_ex=64x64\",\"mediumImageUrl\":\"https://thumbnail.image.rakuten.co.jp/@0_mall/book/cabinet/noimage_01.gif?_ex=120x120\",\"largeImageUrl\":\"https://thumbnail.image.rakuten.co.jp/@0_mall/book/cabinet/noimage_01.gif?_ex=200x200\",\"chirayomiUrl\":\"\",\"availability\":\"1\",\"postageFlag\":0,\"limitedFlag\":0,\"reviewCount\":2,\"reviewAverage\":\"4.0\",\"booksGenreId\":\"001015\"},{\"title\":\"\u5916\u4EA4\u4EA4\u6E09\u306B\u3088\u308B\u5C16\u95A3\u8AF8\u5CF6\u554F\u984C\u306E\u89E3\u6C7A\u3092\",\"titleKana\":\"\u30AC\u30A4\u30B3\u30A6
        \u30B3\u30A6\u30B7\u30E7\u30A6 \u30CB \u30E8\u30EB \u30BB\u30F3\u30AB\u30AF
        \u30B7\u30E7\u30C8\u30A6 \u30E2\u30F3\u30C0\u30A4 \u30CE \u30AB\u30A4\u30B1\u30C4
        \u30AA\",\"subTitle\":\"\u65E5\u672C\u5171\u7523\u515A\u5FD7\u4F4D\u59D4\u54E1\u9577\u306E\u63D0\u8A00\",\"subTitleKana\":\"\u30CB\u30DB\u30F3
        \u30AD\u30E7\u30A6\u30B5\u30F3\u30C8\u30A6 \u30B7\u30A4 \u30A4\u30A4\u30F3\u30C1\u30E7\u30A6
        \u30CE \u30C6\u30A4\u30B2\u30F3\",\"seriesName\":\"\u6587\u732E\u30D1\u30F3\u30D5\",\"seriesNameKana\":\"\u30D6\u30F3\u30B1\u30F3
        \u30D1\u30F3\u30D5\",\"contents\":\"\",\"author\":\"\",\"authorKana\":\"\",\"publisherName\":\"\u65E5\u672C\u5171\u7523\u515A\u4E2D\u592E\u59D4\u54E1\u4F1A\u51FA\u7248\u5C40\",\"size\":\"\",\"isbn\":\"9784530016250\",\"itemCaption\":\"\",\"salesDate\":\"2012\u5E7410\u6708\",\"itemPrice\":104,\"listPrice\":0,\"discountRate\":0,\"discountPrice\":0,\"itemUrl\":\"https://books.rakuten.co.jp/rb/12116507/\",\"affiliateUrl\":\"\",\"smallImageUrl\":\"https://thumbnail.image.rakuten.co.jp/@0_mall/book/cabinet/6250/9784530016250.jpg?_ex=64x64\",\"mediumImageUrl\":\"https://thumbnail.image.rakuten.co.jp/@0_mall/book/cabinet/6250/9784530016250.jpg?_ex=120x120\",\"largeImageUrl\":\"https://thumbnail.image.rakuten.co.jp/@0_mall/book/cabinet/6250/9784530016250.jpg?_ex=200x200\",\"chirayomiUrl\":\"\",\"availability\":\"1\",\"postageFlag\":0,\"limitedFlag\":0,\"reviewCount\":1,\"reviewAverage\":\"5.0\",\"booksGenreId\":\"001015\"}],\"GenreInformation\":[]}"
    headers:
      Access-Control-Allow-Origin:
      - '*'
      Cache-Control:
      - no-store
      Connection:
      - close
      Content-Language:
      - ja-JP
      Content-Length:
      - '3524'
      Content-Type:
      - application/json;charset=UTF-8
      Date:
      - Tue, 22 Oct 2019 12:25:00 GMT
      Vary:
      - Accept-Encoding
    status:
      code: 200
      message: OK
version: 1
