interactions:
- request:
    body: null
    headers:
      User-Agent:
      - python-requests/2.22.0
    method: GET
    uri: https://app.rakuten.co.jp/services/api/BooksTotal/Search/20170404?applicationId=XXXXXX&formatVersion=2&hits=3&keyword=%E3%83%89%E3%83%B3%E3%83%BB%E3%82%AD%E3%83%9B%E3%83%BC%E3%83%86&sort=-itemPrice
  response:
    body:
      string: "{\"count\":124,\"page\":1,\"first\":1,\"last\":3,\"hits\":3,\"carrier\":0,\"pageCount\":42,\"Items\":[{\"title\":\"\u3010\u8F38\u5165\u697D\u8B5C\u3011\u30DF\u30F3\u30AF\u30B9,
        Ludwig: \u30D0\u30EC\u30A8\u97F3\u697D\u300C\u30C9\u30F3\u30FB\u30AD\u30DB\u30FC\u30C6\u300D\",\"author\":\"\u30DF\u30F3\u30AF\u30B9,
        Ludwig\",\"artistName\":\"\",\"publisherName\":\"\u30D5\u30A9\u30EB\u30D9\u30EB\u30AF\u793E\",\"label\":\"\",\"isbn\":\"2600000050883\",\"jan\":\"\",\"hardware\":\"\",\"os\":\"\",\"itemCaption\":\"\",\"salesDate\":\"1970\u5E7401\u670801\u65E5\",\"itemPrice\":26400,\"listPrice\":0,\"discountRate\":0,\"discountPrice\":0,\"itemUrl\":\"https://books.rakuten.co.jp/rb/14193025/\",\"affiliateUrl\":\"\",\"smallImageUrl\":\"https://thumbnail.image.rakuten.co.jp/@0_mall/book/cabinet/noimage_01.gif?_ex=64x64\",\"mediumImageUrl\":\"https://thumbnail.image.rakuten.co.jp/@0_mall/book/cabinet/noimage_01.gif?_ex=120x120\",\"largeImageUrl\":\"https://thumbnail.image.rakuten.co.jp/@0_mall/book/cabinet/noimage_01.gif?_ex=200x200\",\"chirayomiUrl\":\"\",\"availability\":\"6\",\"postageFlag\":2,\"limitedFlag\":0,\"reviewCount\":0,\"reviewAverage\":\"0.0\",\"booksGenreId\":\"001018002004\"},{\"title\":\"\u30C9\u30F3\u2605\u30AD\u30DB\u30FC\u30C6
        DVD-BOX\",\"author\":\"\",\"artistName\":\"\u677E\u7530\u7FD4\u592A/\u9AD8\u6A4B\u514B\u5B9F/\u6210\u6D77\u7483\u5B50\",\"publisherName\":\"\",\"label\":\"(\u682A)\u30D0\u30C3\u30D7\",\"isbn\":\"\",\"jan\":\"4988021149594\",\"hardware\":\"\",\"os\":\"\",\"itemCaption\":\"\",\"salesDate\":\"2011\u5E7412\u670821\u65E5\",\"itemPrice\":20020,\"listPrice\":0,\"discountRate\":0,\"discountPrice\":0,\"itemUrl\":\"https://books.rakuten.co.jp/rb/11373177/\",\"affiliateUrl\":\"\",\"smallImageUrl\":\"https://thumbnail.image.rakuten.co.jp/@0_mall/book/cabinet/9594/4988021149594.jpg?_ex=64x64\",\"mediumImageUrl\":\"https://thumbnail.image.rakuten.co.jp/@0_mall/book/cabinet/9594/4988021149594.jpg?_ex=120x120\",\"largeImageUrl\":\"https://thumbnail.image.rakuten.co.jp/@0_mall/book/cabinet/9594/4988021149594.jpg?_ex=200x200\",\"chirayomiUrl\":\"\",\"availability\":\"4\",\"postageFlag\":2,\"limitedFlag\":0,\"reviewCount\":1,\"reviewAverage\":\"5.0\",\"booksGenreId\":\"003203001/003205003\"},{\"title\":\"\u3010\u8F38\u5165\u697D\u8B5C\u3011\u30DE\u30B9\u30CD,
        Jules: \u30AA\u30DA\u30E9\u300C\u30C9\u30F3\u30FB\u30AD\u30DB\u30FC\u30C6\u300D
        (\u4ECF\u8A9E\u30FB\u82F1\u8A9E)\",\"author\":\"\u30DE\u30B9\u30CD, Jules\",\"artistName\":\"\",\"publisherName\":\"\u30A6\u30B8\u30A7\u30EB\u793E\",\"label\":\"\",\"isbn\":\"2600000784016\",\"jan\":\"\",\"hardware\":\"\",\"os\":\"\",\"itemCaption\":\"\",\"salesDate\":\"1970\u5E7401\u670801\u65E5\",\"itemPrice\":19800,\"listPrice\":0,\"discountRate\":0,\"discountPrice\":0,\"itemUrl\":\"https://books.rakuten.co.jp/rb/14188811/\",\"affiliateUrl\":\"\",\"smallImageUrl\":\"https://thumbnail.image.rakuten.co.jp/@0_mall/book/cabinet/noimage_01.gif?_ex=64x64\",\"mediumImageUrl\":\"https://thumbnail.image.rakuten.co.jp/@0_mall/book/cabinet/noimage_01.gif?_ex=120x120\",\"largeImageUrl\":\"https://thumbnail.image.rakuten.co.jp/@0_mall/book/cabinet/noimage_01.gif?_ex=200x200\",\"chirayomiUrl\":\"\",\"availability\":\"6\",\"postageFlag\":2,\"limitedFlag\":0,\"reviewCount\":0,\"reviewAverage\":\"0.0\",\"booksGenreId\":\"001018011001\"}],\"GenreInformation\":[]}"
    headers:
      Access-Control-Allow-Origin:
      - '*'
      Cache-Control:
      - no-store
      Connection:
      - close
      Content-Language:
      - ja-JP
      Content-Length:
      - '2745'
      Content-Type:
      - application/json;charset=UTF-8
      Date:
      - Tue, 22 Oct 2019 10:40:39 GMT
      Vary:
      - Accept-Encoding
    status:
      code: 200
      message: OK
- request:
    body: null
    headers:
      User-Agent:
      - python-requests/2.22.0
    method: GET
    uri: https://app.rakuten.co.jp/services/api/BooksTotal/Search/20170404?applicationId=XXXXXX&formatVersion=2&hits=3&keyword=%E3%83%89%E3%83%B3%E3%83%BB%E3%82%AD%E3%83%9B%E3%83%BC%E3%83%86&sort=-itemPrice
  response:
    body:
      string: "{\"count\":124,\"page\":1,\"first\":1,\"last\":3,\"hits\":3,\"carrier\":0,\"pageCount\":42,\"Items\":[{\"title\":\"\u3010\u8F38\u5165\u697D\u8B5C\u3011\u30DF\u30F3\u30AF\u30B9,
        Ludwig: \u30D0\u30EC\u30A8\u97F3\u697D\u300C\u30C9\u30F3\u30FB\u30AD\u30DB\u30FC\u30C6\u300D\",\"author\":\"\u30DF\u30F3\u30AF\u30B9,
        Ludwig\",\"artistName\":\"\",\"publisherName\":\"\u30D5\u30A9\u30EB\u30D9\u30EB\u30AF\u793E\",\"label\":\"\",\"isbn\":\"2600000050883\",\"jan\":\"\",\"hardware\":\"\",\"os\":\"\",\"itemCaption\":\"\",\"salesDate\":\"1970\u5E7401\u670801\u65E5\",\"itemPrice\":26400,\"listPrice\":0,\"discountRate\":0,\"discountPrice\":0,\"itemUrl\":\"https://books.rakuten.co.jp/rb/14193025/\",\"affiliateUrl\":\"\",\"smallImageUrl\":\"https://thumbnail.image.rakuten.co.jp/@0_mall/book/cabinet/noimage_01.gif?_ex=64x64\",\"mediumImageUrl\":\"https://thumbnail.image.rakuten.co.jp/@0_mall/book/cabinet/noimage_01.gif?_ex=120x120\",\"largeImageUrl\":\"https://thumbnail.image.rakuten.co.jp/@0_mall/book/cabinet/noimage_01.gif?_ex=200x200\",\"chirayomiUrl\":\"\",\"availability\":\"6\",\"postageFlag\":2,\"limitedFlag\":0,\"reviewCount\":0,\"reviewAverage\":\"0.0\",\"booksGenreId\":\"001018002004\"},{\"title\":\"\u30C9\u30F3\u2605\u30AD\u30DB\u30FC\u30C6
        DVD-BOX\",\"author\":\"\",\"artistName\":\"\u677E\u7530\u7FD4\u592A/\u9AD8\u6A4B\u514B\u5B9F/\u6210\u6D77\u7483\u5B50\",\"publisherName\":\"\",\"label\":\"(\u682A)\u30D0\u30C3\u30D7\",\"isbn\":\"\",\"jan\":\"4988021149594\",\"hardware\":\"\",\"os\":\"\",\"itemCaption\":\"\",\"salesDate\":\"2011\u5E7412\u670821\u65E5\",\"itemPrice\":20020,\"listPrice\":0,\"discountRate\":0,\"discountPrice\":0,\"itemUrl\":\"https://books.rakuten.co.jp/rb/11373177/\",\"affiliateUrl\":\"\",\"smallImageUrl\":\"https://thumbnail.image.rakuten.co.jp/@0_mall/book/cabinet/9594/4988021149594.jpg?_ex=64x64\",\"mediumImageUrl\":\"https://thumbnail.image.rakuten.co.jp/@0_mall/book/cabinet/9594/4988021149594.jpg?_ex=120x120\",\"largeImageUrl\":\"https://thumbnail.image.rakuten.co.jp/@0_mall/book/cabinet/9594/4988021149594.jpg?_ex=200x200\",\"chirayomiUrl\":\"\",\"availability\":\"4\",\"postageFlag\":2,\"limitedFlag\":0,\"reviewCount\":1,\"reviewAverage\":\"5.0\",\"booksGenreId\":\"003203001/003205003\"},{\"title\":\"\u3010\u8F38\u5165\u697D\u8B5C\u3011\u30DE\u30B9\u30CD,
        Jules: \u30AA\u30DA\u30E9\u300C\u30C9\u30F3\u30FB\u30AD\u30DB\u30FC\u30C6\u300D
        (\u4ECF\u8A9E\u30FB\u82F1\u8A9E)\",\"author\":\"\u30DE\u30B9\u30CD, Jules\",\"artistName\":\"\",\"publisherName\":\"\u30A6\u30B8\u30A7\u30EB\u793E\",\"label\":\"\",\"isbn\":\"2600000784016\",\"jan\":\"\",\"hardware\":\"\",\"os\":\"\",\"itemCaption\":\"\",\"salesDate\":\"1970\u5E7401\u670801\u65E5\",\"itemPrice\":19800,\"listPrice\":0,\"discountRate\":0,\"discountPrice\":0,\"itemUrl\":\"https://books.rakuten.co.jp/rb/14188811/\",\"affiliateUrl\":\"\",\"smallImageUrl\":\"https://thumbnail.image.rakuten.co.jp/@0_mall/book/cabinet/noimage_01.gif?_ex=64x64\",\"mediumImageUrl\":\"https://thumbnail.image.rakuten.co.jp/@0_mall/book/cabinet/noimage_01.gif?_ex=120x120\",\"largeImageUrl\":\"https://thumbnail.image.rakuten.co.jp/@0_mall/book/cabinet/noimage_01.gif?_ex=200x200\",\"chirayomiUrl\":\"\",\"availability\":\"6\",\"postageFlag\":2,\"limitedFlag\":0,\"reviewCount\":0,\"reviewAverage\":\"0.0\",\"booksGenreId\":\"001018011001\"}],\"GenreInformation\":[]}"
    headers:
      Access-Control-Allow-Origin:
      - '*'
      Cache-Control:
      - no-store
      Connection:
      - close
      Content-Language:
      - ja-JP
      Content-Length:
      - '2745'
      Content-Type:
      - application/json;charset=UTF-8
      Date:
      - Tue, 22 Oct 2019 11:55:00 GMT
      Vary:
      - Accept-Encoding
    status:
      code: 200
      message: OK
- request:
    body: null
    headers:
      User-Agent:
      - python-requests/2.22.0
    method: GET
    uri: https://app.rakuten.co.jp/services/api/BooksTotal/Search/20170404?applicationId=XXXXXX&formatVersion=2&hits=3&keyword=One+Piece&sort=-itemPrice
  response:
    body:
      string: "{\"count\":866,\"page\":1,\"first\":1,\"last\":3,\"hits\":3,\"carrier\":0,\"pageCount\":100,\"Items\":[{\"title\":\"ONE
        PIECE MUSIC MATERIAL\",\"author\":\"\",\"artistName\":\"(V.A.)\",\"publisherName\":\"\",\"label\":\"\u30A8\u30A4\u30D9\u30C3\u30AF\u30B9\u30FB\u30D4\u30AF\u30C1\u30E3\u30FC\u30BA(\u682A)\",\"isbn\":\"\",\"jan\":\"4562475293005\",\"hardware\":\"\",\"os\":\"\",\"itemCaption\":\"\",\"salesDate\":\"2019\u5E7402\u670822\u65E5\",\"itemPrice\":17095,\"listPrice\":0,\"discountRate\":0,\"discountPrice\":0,\"itemUrl\":\"https://books.rakuten.co.jp/rb/15738627/\",\"affiliateUrl\":\"\",\"smallImageUrl\":\"https://thumbnail.image.rakuten.co.jp/@0_mall/book/cabinet/3005/4562475293005.jpg?_ex=64x64\",\"mediumImageUrl\":\"https://thumbnail.image.rakuten.co.jp/@0_mall/book/cabinet/3005/4562475293005.jpg?_ex=120x120\",\"largeImageUrl\":\"https://thumbnail.image.rakuten.co.jp/@0_mall/book/cabinet/3005/4562475293005.jpg?_ex=200x200\",\"chirayomiUrl\":\"\",\"availability\":\"1\",\"postageFlag\":2,\"limitedFlag\":1,\"reviewCount\":0,\"reviewAverage\":\"0.0\",\"booksGenreId\":\"002108001\"},{\"title\":\"ONE
        PIECE Log Collection \u201CNAMI\u201D\",\"author\":\"\",\"artistName\":\"\u7530\u4E2D\u771F\u5F13/\u4E2D\u4E95\u548C\u54C9/\u5927\u585A\u5468\u592B\",\"publisherName\":\"\",\"label\":\"\u30A8\u30A4\u30D9\u30C3\u30AF\u30B9\u30FB\u30D4\u30AF\u30C1\u30E3\u30FC\u30BA(\u682A)\",\"isbn\":\"\",\"jan\":\"4988064297160\",\"hardware\":\"\",\"os\":\"\",\"itemCaption\":\"\u300EONE
        PIECE\u300FTV\u30B7\u30EA\u30FC\u30BA\u3092\u30A8\u30D4\u30BD\u30FC\u30C9\u3054\u3068\u306B\u53CE\u3081\u305F\u201CLog
        Collection\u201D\u30B7\u30EA\u30FC\u30BA\u3002\u4F53\u304C\u30B4\u30E0\u306E\u3088\u3046\u306B\u306A\u308B\u80FD\u529B\u3092\u5F97\u305F\u5C11\u5E74\u30EB\u30D5\u30A3\u304C\u3001\u6D77\u8CCA\u738B\u306B\u306A\u308B\u305F\u3081\u306B\u5192\u967A\u3092\u91CD\u306D\u3066\u3044\u304F\u3002\u7B2C2\u5F3E1\u4F5C\u76EE\u306F\u7B2C31\u8A71\u301C\u7B2C44\u8A71\u306E\u201CNAMI\u201D\u7DE8\u3002\",\"salesDate\":\"2010\u5E7408\u670827\u65E5\",\"itemPrice\":14457,\"listPrice\":0,\"discountRate\":0,\"discountPrice\":0,\"itemUrl\":\"https://books.rakuten.co.jp/rb/6426465/\",\"affiliateUrl\":\"\",\"smallImageUrl\":\"https://thumbnail.image.rakuten.co.jp/@0_mall/book/cabinet/7160/4988064297160.jpg?_ex=64x64\",\"mediumImageUrl\":\"https://thumbnail.image.rakuten.co.jp/@0_mall/book/cabinet/7160/4988064297160.jpg?_ex=120x120\",\"largeImageUrl\":\"https://thumbnail.image.rakuten.co.jp/@0_mall/book/cabinet/7160/4988064297160.jpg?_ex=200x200\",\"chirayomiUrl\":\"\",\"availability\":\"1\",\"postageFlag\":2,\"limitedFlag\":0,\"reviewCount\":55,\"reviewAverage\":\"4.78\",\"booksGenreId\":\"003206002001\"},{\"title\":\"ONE
        PIECE Log Collection \u201CGRAND LINE\u201D\",\"author\":\"\",\"artistName\":\"\u5C3E\u7530\u6804\u4E00\u90CE/\u7530\u4E2D\u771F\u5F13/\u4E2D\u4E95\u548C\u54C9\",\"publisherName\":\"\",\"label\":\"\u30A8\u30A4\u30D9\u30C3\u30AF\u30B9\u30FB\u30D4\u30AF\u30C1\u30E3\u30FC\u30BA(\u682A)\",\"isbn\":\"\",\"jan\":\"4988064297245\",\"hardware\":\"\",\"os\":\"\",\"itemCaption\":\"\u201C\u60AA\u9B54\u306E\u5B9F\u201D\u3092\u98DF\u3079\u305F\u3053\u3068\u3067\u4F53\u304C\u30B4\u30E0\u306E\u3088\u3046\u306B\u306A\u308B\u80FD\u529B\u3092\u6301\u3063\u305F\u5C11\u5E74\u30EB\u30D5\u30A3\u304C\u3001\u6D77\u8CCA\u738B\u306B\u306A\u308B\u305F\u3081\u306B\u6D77\u3092\u5192\u967A\u3059\u308B\u300EONE
        PIECE\u300F\u306ETV\u30B7\u30EA\u30FC\u30BA\u3092\u30A8\u30D4\u30BD\u30FC\u30C9\u3054\u3068\u306B\u30EA\u30EA\u30FC\u30B9\u3002\u7B2C3\u5F3E1\u4F5C\u76EE\u306F\u7B2C62\u8A71\u301C\u7B2C77\u8A71\u306E\u201CGRAND
        LINE\u201D\u7DE8\u3002\",\"salesDate\":\"2010\u5E7412\u670822\u65E5\",\"itemPrice\":13567,\"listPrice\":0,\"discountRate\":0,\"discountPrice\":0,\"itemUrl\":\"https://books.rakuten.co.jp/rb/6426467/\",\"affiliateUrl\":\"\",\"smallImageUrl\":\"https://thumbnail.image.rakuten.co.jp/@0_mall/book/cabinet/7245/4988064297245.jpg?_ex=64x64\",\"mediumImageUrl\":\"https://thumbnail.image.rakuten.co.jp/@0_mall/book/cabinet/7245/4988064297245.jpg?_ex=120x120\",\"largeImageUrl\":\"https://thumbnail.image.rakuten.co.jp/@0_mall/book/cabinet/7245/4988064297245.jpg?_ex=200x200\",\"chirayomiUrl\":\"\",\"availability\":\"1\",\"postageFlag\":2,\"limitedFlag\":0,\"reviewCount\":60,\"reviewAverage\":\"4.5\",\"booksGenreId\":\"003206002001\"}],\"GenreInformation\":[]}"
    headers:
      Access-Control-Allow-Origin:
      - '*'
      Cache-Control:
      - no-store
      Connection:
      - close
      Content-Language:
      - ja-JP
      Content-Length:
      - '3340'
      Content-Type:
      - application/json;charset=UTF-8
      Date:
      - Tue, 22 Oct 2019 12:15:56 GMT
      Vary:
      - Accept-Encoding
    status:
      code: 200
      message: OK
- request:
    body: null
    headers:
      User-Agent:
      - python-requests/2.22.0
    method: GET
    uri: https://app.rakuten.co.jp/services/api/BooksTotal/Search/20170404?applicationId=XXXXXX&formatVersion=2&hits=3&keyword=One+Piece&sort=-itemPrice
  response:
    body:
      string: "{\"count\":866,\"page\":1,\"first\":1,\"last\":3,\"hits\":3,\"carrier\":0,\"pageCount\":100,\"Items\":[{\"title\":\"ONE
        PIECE MUSIC MATERIAL\",\"author\":\"\",\"artistName\":\"(V.A.)\",\"publisherName\":\"\",\"label\":\"\u30A8\u30A4\u30D9\u30C3\u30AF\u30B9\u30FB\u30D4\u30AF\u30C1\u30E3\u30FC\u30BA(\u682A)\",\"isbn\":\"\",\"jan\":\"4562475293005\",\"hardware\":\"\",\"os\":\"\",\"itemCaption\":\"\",\"salesDate\":\"2019\u5E7402\u670822\u65E5\",\"itemPrice\":17095,\"listPrice\":0,\"discountRate\":0,\"discountPrice\":0,\"itemUrl\":\"https://books.rakuten.co.jp/rb/15738627/\",\"affiliateUrl\":\"\",\"smallImageUrl\":\"https://thumbnail.image.rakuten.co.jp/@0_mall/book/cabinet/3005/4562475293005.jpg?_ex=64x64\",\"mediumImageUrl\":\"https://thumbnail.image.rakuten.co.jp/@0_mall/book/cabinet/3005/4562475293005.jpg?_ex=120x120\",\"largeImageUrl\":\"https://thumbnail.image.rakuten.co.jp/@0_mall/book/cabinet/3005/4562475293005.jpg?_ex=200x200\",\"chirayomiUrl\":\"\",\"availability\":\"1\",\"postageFlag\":2,\"limitedFlag\":1,\"reviewCount\":0,\"reviewAverage\":\"0.0\",\"booksGenreId\":\"002108001\"},{\"title\":\"ONE
        PIECE Log Collection \u201CNAMI\u201D\",\"author\":\"\",\"artistName\":\"\u7530\u4E2D\u771F\u5F13/\u4E2D\u4E95\u548C\u54C9/\u5927\u585A\u5468\u592B\",\"publisherName\":\"\",\"label\":\"\u30A8\u30A4\u30D9\u30C3\u30AF\u30B9\u30FB\u30D4\u30AF\u30C1\u30E3\u30FC\u30BA(\u682A)\",\"isbn\":\"\",\"jan\":\"4988064297160\",\"hardware\":\"\",\"os\":\"\",\"itemCaption\":\"\u300EONE
        PIECE\u300FTV\u30B7\u30EA\u30FC\u30BA\u3092\u30A8\u30D4\u30BD\u30FC\u30C9\u3054\u3068\u306B\u53CE\u3081\u305F\u201CLog
        Collection\u201D\u30B7\u30EA\u30FC\u30BA\u3002\u4F53\u304C\u30B4\u30E0\u306E\u3088\u3046\u306B\u306A\u308B\u80FD\u529B\u3092\u5F97\u305F\u5C11\u5E74\u30EB\u30D5\u30A3\u304C\u3001\u6D77\u8CCA\u738B\u306B\u306A\u308B\u305F\u3081\u306B\u5192\u967A\u3092\u91CD\u306D\u3066\u3044\u304F\u3002\u7B2C2\u5F3E1\u4F5C\u76EE\u306F\u7B2C31\u8A71\u301C\u7B2C44\u8A71\u306E\u201CNAMI\u201D\u7DE8\u3002\",\"salesDate\":\"2010\u5E7408\u670827\u65E5\",\"itemPrice\":14457,\"listPrice\":0,\"discountRate\":0,\"discountPrice\":0,\"itemUrl\":\"https://books.rakuten.co.jp/rb/6426465/\",\"affiliateUrl\":\"\",\"smallImageUrl\":\"https://thumbnail.image.rakuten.co.jp/@0_mall/book/cabinet/7160/4988064297160.jpg?_ex=64x64\",\"mediumImageUrl\":\"https://thumbnail.image.rakuten.co.jp/@0_mall/book/cabinet/7160/4988064297160.jpg?_ex=120x120\",\"largeImageUrl\":\"https://thumbnail.image.rakuten.co.jp/@0_mall/book/cabinet/7160/4988064297160.jpg?_ex=200x200\",\"chirayomiUrl\":\"\",\"availability\":\"1\",\"postageFlag\":2,\"limitedFlag\":0,\"reviewCount\":55,\"reviewAverage\":\"4.78\",\"booksGenreId\":\"003206002001\"},{\"title\":\"ONE
        PIECE Log Collection \u201CGRAND LINE\u201D\",\"author\":\"\",\"artistName\":\"\u5C3E\u7530\u6804\u4E00\u90CE/\u7530\u4E2D\u771F\u5F13/\u4E2D\u4E95\u548C\u54C9\",\"publisherName\":\"\",\"label\":\"\u30A8\u30A4\u30D9\u30C3\u30AF\u30B9\u30FB\u30D4\u30AF\u30C1\u30E3\u30FC\u30BA(\u682A)\",\"isbn\":\"\",\"jan\":\"4988064297245\",\"hardware\":\"\",\"os\":\"\",\"itemCaption\":\"\u201C\u60AA\u9B54\u306E\u5B9F\u201D\u3092\u98DF\u3079\u305F\u3053\u3068\u3067\u4F53\u304C\u30B4\u30E0\u306E\u3088\u3046\u306B\u306A\u308B\u80FD\u529B\u3092\u6301\u3063\u305F\u5C11\u5E74\u30EB\u30D5\u30A3\u304C\u3001\u6D77\u8CCA\u738B\u306B\u306A\u308B\u305F\u3081\u306B\u6D77\u3092\u5192\u967A\u3059\u308B\u300EONE
        PIECE\u300F\u306ETV\u30B7\u30EA\u30FC\u30BA\u3092\u30A8\u30D4\u30BD\u30FC\u30C9\u3054\u3068\u306B\u30EA\u30EA\u30FC\u30B9\u3002\u7B2C3\u5F3E1\u4F5C\u76EE\u306F\u7B2C62\u8A71\u301C\u7B2C77\u8A71\u306E\u201CGRAND
        LINE\u201D\u7DE8\u3002\",\"salesDate\":\"2010\u5E7412\u670822\u65E5\",\"itemPrice\":13567,\"listPrice\":0,\"discountRate\":0,\"discountPrice\":0,\"itemUrl\":\"https://books.rakuten.co.jp/rb/6426467/\",\"affiliateUrl\":\"\",\"smallImageUrl\":\"https://thumbnail.image.rakuten.co.jp/@0_mall/book/cabinet/7245/4988064297245.jpg?_ex=64x64\",\"mediumImageUrl\":\"https://thumbnail.image.rakuten.co.jp/@0_mall/book/cabinet/7245/4988064297245.jpg?_ex=120x120\",\"largeImageUrl\":\"https://thumbnail.image.rakuten.co.jp/@0_mall/book/cabinet/7245/4988064297245.jpg?_ex=200x200\",\"chirayomiUrl\":\"\",\"availability\":\"1\",\"postageFlag\":2,\"limitedFlag\":0,\"reviewCount\":60,\"reviewAverage\":\"4.5\",\"booksGenreId\":\"003206002001\"}],\"GenreInformation\":[]}"
    headers:
      Access-Control-Allow-Origin:
      - '*'
      Cache-Control:
      - no-store
      Connection:
      - close
      Content-Language:
      - ja-JP
      Content-Length:
      - '3340'
      Content-Type:
      - application/json;charset=UTF-8
      Date:
      - Tue, 22 Oct 2019 12:21:02 GMT
      Vary:
      - Accept-Encoding
    status:
      code: 200
      message: OK
- request:
    body: null
    headers:
      User-Agent:
      - python-requests/2.22.0
    method: GET
    uri: https://app.rakuten.co.jp/services/api/BooksTotal/Search/20170404?applicationId=XXXXXX&formatVersion=2&hits=3&keyword=One+Piece&sort=-itemPrice
  response:
    body:
      string: "{\"count\":866,\"page\":1,\"first\":1,\"last\":3,\"hits\":3,\"carrier\":0,\"pageCount\":100,\"Items\":[{\"title\":\"ONE
        PIECE MUSIC MATERIAL\",\"author\":\"\",\"artistName\":\"(V.A.)\",\"publisherName\":\"\",\"label\":\"\u30A8\u30A4\u30D9\u30C3\u30AF\u30B9\u30FB\u30D4\u30AF\u30C1\u30E3\u30FC\u30BA(\u682A)\",\"isbn\":\"\",\"jan\":\"4562475293005\",\"hardware\":\"\",\"os\":\"\",\"itemCaption\":\"\",\"salesDate\":\"2019\u5E7402\u670822\u65E5\",\"itemPrice\":17095,\"listPrice\":0,\"discountRate\":0,\"discountPrice\":0,\"itemUrl\":\"https://books.rakuten.co.jp/rb/15738627/\",\"affiliateUrl\":\"\",\"smallImageUrl\":\"https://thumbnail.image.rakuten.co.jp/@0_mall/book/cabinet/3005/4562475293005.jpg?_ex=64x64\",\"mediumImageUrl\":\"https://thumbnail.image.rakuten.co.jp/@0_mall/book/cabinet/3005/4562475293005.jpg?_ex=120x120\",\"largeImageUrl\":\"https://thumbnail.image.rakuten.co.jp/@0_mall/book/cabinet/3005/4562475293005.jpg?_ex=200x200\",\"chirayomiUrl\":\"\",\"availability\":\"1\",\"postageFlag\":2,\"limitedFlag\":1,\"reviewCount\":0,\"reviewAverage\":\"0.0\",\"booksGenreId\":\"002108001\"},{\"title\":\"ONE
        PIECE Log Collection \u201CNAMI\u201D\",\"author\":\"\",\"artistName\":\"\u7530\u4E2D\u771F\u5F13/\u4E2D\u4E95\u548C\u54C9/\u5927\u585A\u5468\u592B\",\"publisherName\":\"\",\"label\":\"\u30A8\u30A4\u30D9\u30C3\u30AF\u30B9\u30FB\u30D4\u30AF\u30C1\u30E3\u30FC\u30BA(\u682A)\",\"isbn\":\"\",\"jan\":\"4988064297160\",\"hardware\":\"\",\"os\":\"\",\"itemCaption\":\"\u300EONE
        PIECE\u300FTV\u30B7\u30EA\u30FC\u30BA\u3092\u30A8\u30D4\u30BD\u30FC\u30C9\u3054\u3068\u306B\u53CE\u3081\u305F\u201CLog
        Collection\u201D\u30B7\u30EA\u30FC\u30BA\u3002\u4F53\u304C\u30B4\u30E0\u306E\u3088\u3046\u306B\u306A\u308B\u80FD\u529B\u3092\u5F97\u305F\u5C11\u5E74\u30EB\u30D5\u30A3\u304C\u3001\u6D77\u8CCA\u738B\u306B\u306A\u308B\u305F\u3081\u306B\u5192\u967A\u3092\u91CD\u306D\u3066\u3044\u304F\u3002\u7B2C2\u5F3E1\u4F5C\u76EE\u306F\u7B2C31\u8A71\u301C\u7B2C44\u8A71\u306E\u201CNAMI\u201D\u7DE8\u3002\",\"salesDate\":\"2010\u5E7408\u670827\u65E5\",\"itemPrice\":14457,\"listPrice\":0,\"discountRate\":0,\"discountPrice\":0,\"itemUrl\":\"https://books.rakuten.co.jp/rb/6426465/\",\"affiliateUrl\":\"\",\"smallImageUrl\":\"https://thumbnail.image.rakuten.co.jp/@0_mall/book/cabinet/7160/4988064297160.jpg?_ex=64x64\",\"mediumImageUrl\":\"https://thumbnail.image.rakuten.co.jp/@0_mall/book/cabinet/7160/4988064297160.jpg?_ex=120x120\",\"largeImageUrl\":\"https://thumbnail.image.rakuten.co.jp/@0_mall/book/cabinet/7160/4988064297160.jpg?_ex=200x200\",\"chirayomiUrl\":\"\",\"availability\":\"1\",\"postageFlag\":2,\"limitedFlag\":0,\"reviewCount\":55,\"reviewAverage\":\"4.78\",\"booksGenreId\":\"003206002001\"},{\"title\":\"ONE
        PIECE Log Collection \u201CGRAND LINE\u201D\",\"author\":\"\",\"artistName\":\"\u5C3E\u7530\u6804\u4E00\u90CE/\u7530\u4E2D\u771F\u5F13/\u4E2D\u4E95\u548C\u54C9\",\"publisherName\":\"\",\"label\":\"\u30A8\u30A4\u30D9\u30C3\u30AF\u30B9\u30FB\u30D4\u30AF\u30C1\u30E3\u30FC\u30BA(\u682A)\",\"isbn\":\"\",\"jan\":\"4988064297245\",\"hardware\":\"\",\"os\":\"\",\"itemCaption\":\"\u201C\u60AA\u9B54\u306E\u5B9F\u201D\u3092\u98DF\u3079\u305F\u3053\u3068\u3067\u4F53\u304C\u30B4\u30E0\u306E\u3088\u3046\u306B\u306A\u308B\u80FD\u529B\u3092\u6301\u3063\u305F\u5C11\u5E74\u30EB\u30D5\u30A3\u304C\u3001\u6D77\u8CCA\u738B\u306B\u306A\u308B\u305F\u3081\u306B\u6D77\u3092\u5192\u967A\u3059\u308B\u300EONE
        PIECE\u300F\u306ETV\u30B7\u30EA\u30FC\u30BA\u3092\u30A8\u30D4\u30BD\u30FC\u30C9\u3054\u3068\u306B\u30EA\u30EA\u30FC\u30B9\u3002\u7B2C3\u5F3E1\u4F5C\u76EE\u306F\u7B2C62\u8A71\u301C\u7B2C77\u8A71\u306E\u201CGRAND
        LINE\u201D\u7DE8\u3002\",\"salesDate\":\"2010\u5E7412\u670822\u65E5\",\"itemPrice\":13567,\"listPrice\":0,\"discountRate\":0,\"discountPrice\":0,\"itemUrl\":\"https://books.rakuten.co.jp/rb/6426467/\",\"affiliateUrl\":\"\",\"smallImageUrl\":\"https://thumbnail.image.rakuten.co.jp/@0_mall/book/cabinet/7245/4988064297245.jpg?_ex=64x64\",\"mediumImageUrl\":\"https://thumbnail.image.rakuten.co.jp/@0_mall/book/cabinet/7245/4988064297245.jpg?_ex=120x120\",\"largeImageUrl\":\"https://thumbnail.image.rakuten.co.jp/@0_mall/book/cabinet/7245/4988064297245.jpg?_ex=200x200\",\"chirayomiUrl\":\"\",\"availability\":\"1\",\"postageFlag\":2,\"limitedFlag\":0,\"reviewCount\":60,\"reviewAverage\":\"4.5\",\"booksGenreId\":\"003206002001\"}],\"GenreInformation\":[]}"
    headers:
      Access-Control-Allow-Origin:
      - '*'
      Cache-Control:
      - no-store
      Connection:
      - close
      Content-Language:
      - ja-JP
      Content-Length:
      - '3340'
      Content-Type:
      - application/json;charset=UTF-8
      Date:
      - Tue, 22 Oct 2019 12:24:12 GMT
      Vary:
      - Accept-Encoding
    status:
      code: 200
      message: OK
- request:
    body: null
    headers:
      User-Agent:
      - python-requests/2.22.0
    method: GET
    uri: https://app.rakuten.co.jp/services/api/BooksTotal/Search/20170404?applicationId=XXXXXX&formatVersion=2&hits=3&keyword=One+Piece&sort=-itemPrice
  response:
    body:
      string: "{\"count\":866,\"page\":1,\"first\":1,\"last\":3,\"hits\":3,\"carrier\":0,\"pageCount\":100,\"Items\":[{\"title\":\"ONE
        PIECE MUSIC MATERIAL\",\"author\":\"\",\"artistName\":\"(V.A.)\",\"publisherName\":\"\",\"label\":\"\u30A8\u30A4\u30D9\u30C3\u30AF\u30B9\u30FB\u30D4\u30AF\u30C1\u30E3\u30FC\u30BA(\u682A)\",\"isbn\":\"\",\"jan\":\"4562475293005\",\"hardware\":\"\",\"os\":\"\",\"itemCaption\":\"\",\"salesDate\":\"2019\u5E7402\u670822\u65E5\",\"itemPrice\":17095,\"listPrice\":0,\"discountRate\":0,\"discountPrice\":0,\"itemUrl\":\"https://books.rakuten.co.jp/rb/15738627/\",\"affiliateUrl\":\"\",\"smallImageUrl\":\"https://thumbnail.image.rakuten.co.jp/@0_mall/book/cabinet/3005/4562475293005.jpg?_ex=64x64\",\"mediumImageUrl\":\"https://thumbnail.image.rakuten.co.jp/@0_mall/book/cabinet/3005/4562475293005.jpg?_ex=120x120\",\"largeImageUrl\":\"https://thumbnail.image.rakuten.co.jp/@0_mall/book/cabinet/3005/4562475293005.jpg?_ex=200x200\",\"chirayomiUrl\":\"\",\"availability\":\"1\",\"postageFlag\":2,\"limitedFlag\":1,\"reviewCount\":0,\"reviewAverage\":\"0.0\",\"booksGenreId\":\"002108001\"},{\"title\":\"ONE
        PIECE Log Collection \u201CNAMI\u201D\",\"author\":\"\",\"artistName\":\"\u7530\u4E2D\u771F\u5F13/\u4E2D\u4E95\u548C\u54C9/\u5927\u585A\u5468\u592B\",\"publisherName\":\"\",\"label\":\"\u30A8\u30A4\u30D9\u30C3\u30AF\u30B9\u30FB\u30D4\u30AF\u30C1\u30E3\u30FC\u30BA(\u682A)\",\"isbn\":\"\",\"jan\":\"4988064297160\",\"hardware\":\"\",\"os\":\"\",\"itemCaption\":\"\u300EONE
        PIECE\u300FTV\u30B7\u30EA\u30FC\u30BA\u3092\u30A8\u30D4\u30BD\u30FC\u30C9\u3054\u3068\u306B\u53CE\u3081\u305F\u201CLog
        Collection\u201D\u30B7\u30EA\u30FC\u30BA\u3002\u4F53\u304C\u30B4\u30E0\u306E\u3088\u3046\u306B\u306A\u308B\u80FD\u529B\u3092\u5F97\u305F\u5C11\u5E74\u30EB\u30D5\u30A3\u304C\u3001\u6D77\u8CCA\u738B\u306B\u306A\u308B\u305F\u3081\u306B\u5192\u967A\u3092\u91CD\u306D\u3066\u3044\u304F\u3002\u7B2C2\u5F3E1\u4F5C\u76EE\u306F\u7B2C31\u8A71\u301C\u7B2C44\u8A71\u306E\u201CNAMI\u201D\u7DE8\u3002\",\"salesDate\":\"2010\u5E7408\u670827\u65E5\",\"itemPrice\":14457,\"listPrice\":0,\"discountRate\":0,\"discountPrice\":0,\"itemUrl\":\"https://books.rakuten.co.jp/rb/6426465/\",\"affiliateUrl\":\"\",\"smallImageUrl\":\"https://thumbnail.image.rakuten.co.jp/@0_mall/book/cabinet/7160/4988064297160.jpg?_ex=64x64\",\"mediumImageUrl\":\"https://thumbnail.image.rakuten.co.jp/@0_mall/book/cabinet/7160/4988064297160.jpg?_ex=120x120\",\"largeImageUrl\":\"https://thumbnail.image.rakuten.co.jp/@0_mall/book/cabinet/7160/4988064297160.jpg?_ex=200x200\",\"chirayomiUrl\":\"\",\"availability\":\"1\",\"postageFlag\":2,\"limitedFlag\":0,\"reviewCount\":55,\"reviewAverage\":\"4.78\",\"booksGenreId\":\"003206002001\"},{\"title\":\"ONE
        PIECE Log Collection \u201CGRAND LINE\u201D\",\"author\":\"\",\"artistName\":\"\u5C3E\u7530\u6804\u4E00\u90CE/\u7530\u4E2D\u771F\u5F13/\u4E2D\u4E95\u548C\u54C9\",\"publisherName\":\"\",\"label\":\"\u30A8\u30A4\u30D9\u30C3\u30AF\u30B9\u30FB\u30D4\u30AF\u30C1\u30E3\u30FC\u30BA(\u682A)\",\"isbn\":\"\",\"jan\":\"4988064297245\",\"hardware\":\"\",\"os\":\"\",\"itemCaption\":\"\u201C\u60AA\u9B54\u306E\u5B9F\u201D\u3092\u98DF\u3079\u305F\u3053\u3068\u3067\u4F53\u304C\u30B4\u30E0\u306E\u3088\u3046\u306B\u306A\u308B\u80FD\u529B\u3092\u6301\u3063\u305F\u5C11\u5E74\u30EB\u30D5\u30A3\u304C\u3001\u6D77\u8CCA\u738B\u306B\u306A\u308B\u305F\u3081\u306B\u6D77\u3092\u5192\u967A\u3059\u308B\u300EONE
        PIECE\u300F\u306ETV\u30B7\u30EA\u30FC\u30BA\u3092\u30A8\u30D4\u30BD\u30FC\u30C9\u3054\u3068\u306B\u30EA\u30EA\u30FC\u30B9\u3002\u7B2C3\u5F3E1\u4F5C\u76EE\u306F\u7B2C62\u8A71\u301C\u7B2C77\u8A71\u306E\u201CGRAND
        LINE\u201D\u7DE8\u3002\",\"salesDate\":\"2010\u5E7412\u670822\u65E5\",\"itemPrice\":13567,\"listPrice\":0,\"discountRate\":0,\"discountPrice\":0,\"itemUrl\":\"https://books.rakuten.co.jp/rb/6426467/\",\"affiliateUrl\":\"\",\"smallImageUrl\":\"https://thumbnail.image.rakuten.co.jp/@0_mall/book/cabinet/7245/4988064297245.jpg?_ex=64x64\",\"mediumImageUrl\":\"https://thumbnail.image.rakuten.co.jp/@0_mall/book/cabinet/7245/4988064297245.jpg?_ex=120x120\",\"largeImageUrl\":\"https://thumbnail.image.rakuten.co.jp/@0_mall/book/cabinet/7245/4988064297245.jpg?_ex=200x200\",\"chirayomiUrl\":\"\",\"availability\":\"1\",\"postageFlag\":2,\"limitedFlag\":0,\"reviewCount\":60,\"reviewAverage\":\"4.5\",\"booksGenreId\":\"003206002001\"}],\"GenreInformation\":[]}"
    headers:
      Access-Control-Allow-Origin:
      - '*'
      Cache-Control:
      - no-store
      Connection:
      - close
      Content-Language:
      - ja-JP
      Content-Length:
      - '3340'
      Content-Type:
      - application/json;charset=UTF-8
      Date:
      - Tue, 22 Oct 2019 12:24:45 GMT
      Vary:
      - Accept-Encoding
    status:
      code: 200
      message: OK
version: 1
