interactions:
- request:
    body: null
    headers:
      User-Agent:
      - python-requests/2.22.0
    method: GET
    uri: https://app.rakuten.co.jp/services/api/BooksBook/Search/20170404?applicationId=XXXXXX&author=%E5%B0%BE%E7%94%B0%E3%83%BB%E6%A0%84%E4%B8%80%E9%83%8E&formatVersion=2&hits=3
  response:
    body:
      string: "{\"count\":193,\"page\":1,\"first\":1,\"last\":3,\"hits\":3,\"carrier\":0,\"pageCount\":65,\"Items\":[{\"title\":\"ONE
        PIECE 94\",\"titleKana\":\"\u30EF\u30F3\u30D4\u30FC\u30B9\",\"subTitle\":\"\",\"subTitleKana\":\"\",\"seriesName\":\"\u30B8\u30E3\u30F3\u30D7\u30B3\u30DF\u30C3\u30AF\u30B9\",\"seriesNameKana\":\"\",\"contents\":\"\",\"author\":\"\u5C3E\u7530
        \u6804\u4E00\u90CE\",\"authorKana\":\"\u30AA\u30C0 \u30A8\u30A4\u30A4\u30C1\u30ED\u30A6\",\"publisherName\":\"\u96C6\u82F1\u793E\",\"size\":\"\u30B3\u30DF\u30C3\u30AF\",\"isbn\":\"9784088820545\",\"itemCaption\":\"\",\"salesDate\":\"2019\u5E7410\u670804\u65E5\",\"itemPrice\":484,\"listPrice\":0,\"discountRate\":0,\"discountPrice\":0,\"itemUrl\":\"https://books.rakuten.co.jp/rb/16023392/\",\"affiliateUrl\":\"\",\"smallImageUrl\":\"https://thumbnail.image.rakuten.co.jp/@0_mall/book/cabinet/0545/9784088820545.jpg?_ex=64x64\",\"mediumImageUrl\":\"https://thumbnail.image.rakuten.co.jp/@0_mall/book/cabinet/0545/9784088820545.jpg?_ex=120x120\",\"largeImageUrl\":\"https://thumbnail.image.rakuten.co.jp/@0_mall/book/cabinet/0545/9784088820545.jpg?_ex=200x200\",\"chirayomiUrl\":\"\",\"availability\":\"1\",\"postageFlag\":0,\"limitedFlag\":0,\"reviewCount\":71,\"reviewAverage\":\"4.62\",\"booksGenreId\":\"001001001008\"},{\"title\":\"ONE
        PIECE 93\",\"titleKana\":\"\u30EF\u30F3\u30D4\u30FC\u30B9\",\"subTitle\":\"\",\"subTitleKana\":\"\",\"seriesName\":\"\u30B8\u30E3\u30F3\u30D7\u30B3\u30DF\u30C3\u30AF\u30B9\",\"seriesNameKana\":\"\",\"contents\":\"\",\"author\":\"\u5C3E\u7530
        \u6804\u4E00\u90CE\",\"authorKana\":\"\u30AA\u30C0 \u30A8\u30A4\u30A4\u30C1\u30ED\u30A6\",\"publisherName\":\"\u96C6\u82F1\u793E\",\"size\":\"\u30B3\u30DF\u30C3\u30AF\",\"isbn\":\"9784088818771\",\"itemCaption\":\"\",\"salesDate\":\"2019\u5E7407\u670804\u65E5\",\"itemPrice\":484,\"listPrice\":0,\"discountRate\":0,\"discountPrice\":0,\"itemUrl\":\"https://books.rakuten.co.jp/rb/15924166/\",\"affiliateUrl\":\"\",\"smallImageUrl\":\"https://thumbnail.image.rakuten.co.jp/@0_mall/book/cabinet/8771/9784088818771.jpg?_ex=64x64\",\"mediumImageUrl\":\"https://thumbnail.image.rakuten.co.jp/@0_mall/book/cabinet/8771/9784088818771.jpg?_ex=120x120\",\"largeImageUrl\":\"https://thumbnail.image.rakuten.co.jp/@0_mall/book/cabinet/8771/9784088818771.jpg?_ex=200x200\",\"chirayomiUrl\":\"\",\"availability\":\"1\",\"postageFlag\":0,\"limitedFlag\":0,\"reviewCount\":176,\"reviewAverage\":\"4.34\",\"booksGenreId\":\"001001001008\"},{\"title\":\"ONE
        PIECE magazine Vol.8\",\"titleKana\":\"\u30EF\u30F3\u30D4\u30FC\u30B9 \u30DE\u30AC\u30B8\u30F3
        \u30DC\u30EA\u30E5\u30FC\u30E08\",\"subTitle\":\"\",\"subTitleKana\":\"\",\"seriesName\":\"\u30B8\u30E3\u30F3\u30D7\u30B3\u30DF\u30C3\u30AF\u30B9\",\"seriesNameKana\":\"\",\"contents\":\"\",\"author\":\"\u5C3E\u7530
        \u6804\u4E00\u90CE\",\"authorKana\":\"\u30AA\u30C0 \u30A8\u30A4\u30A4\u30C1\u30ED\u30A6\",\"publisherName\":\"\u96C6\u82F1\u793E\",\"size\":\"\u30E0\u30C3\u30AF\u305D\u306E\u4ED6\",\"isbn\":\"9784081024018\",\"itemCaption\":\"\",\"salesDate\":\"2019\u5E7412\u670813\u65E5\",\"itemPrice\":990,\"listPrice\":0,\"discountRate\":0,\"discountPrice\":0,\"itemUrl\":\"https://books.rakuten.co.jp/rb/16101082/\",\"affiliateUrl\":\"\",\"smallImageUrl\":\"https://thumbnail.image.rakuten.co.jp/@0_mall/book/cabinet/noimage_01.gif?_ex=64x64\",\"mediumImageUrl\":\"https://thumbnail.image.rakuten.co.jp/@0_mall/book/cabinet/noimage_01.gif?_ex=120x120\",\"largeImageUrl\":\"https://thumbnail.image.rakuten.co.jp/@0_mall/book/cabinet/noimage_01.gif?_ex=200x200\",\"chirayomiUrl\":\"\",\"availability\":\"5\",\"postageFlag\":0,\"limitedFlag\":0,\"reviewCount\":0,\"reviewAverage\":\"0.0\",\"booksGenreId\":\"001001001008\"}],\"GenreInformation\":[]}"
    headers:
      Access-Control-Allow-Origin:
      - '*'
      Cache-Control:
      - no-store
      Connection:
      - close
      Content-Language:
      - ja-JP
      Content-Length:
      - '3027'
      Content-Type:
      - application/json;charset=UTF-8
      Date:
      - Tue, 22 Oct 2019 10:40:46 GMT
      Vary:
      - Accept-Encoding
    status:
      code: 200
      message: OK
- request:
    body: null
    headers:
      User-Agent:
      - python-requests/2.22.0
    method: GET
    uri: https://app.rakuten.co.jp/services/api/BooksBook/Search/20170404?applicationId=XXXXXX&author=%E5%B0%BE%E7%94%B0%E3%83%BB%E6%A0%84%E4%B8%80%E9%83%8E&formatVersion=2&hits=3
  response:
    body:
      string: "{\"count\":193,\"page\":1,\"first\":1,\"last\":3,\"hits\":3,\"carrier\":0,\"pageCount\":65,\"Items\":[{\"title\":\"ONE
        PIECE 94\",\"titleKana\":\"\u30EF\u30F3\u30D4\u30FC\u30B9\",\"subTitle\":\"\",\"subTitleKana\":\"\",\"seriesName\":\"\u30B8\u30E3\u30F3\u30D7\u30B3\u30DF\u30C3\u30AF\u30B9\",\"seriesNameKana\":\"\",\"contents\":\"\",\"author\":\"\u5C3E\u7530
        \u6804\u4E00\u90CE\",\"authorKana\":\"\u30AA\u30C0 \u30A8\u30A4\u30A4\u30C1\u30ED\u30A6\",\"publisherName\":\"\u96C6\u82F1\u793E\",\"size\":\"\u30B3\u30DF\u30C3\u30AF\",\"isbn\":\"9784088820545\",\"itemCaption\":\"\",\"salesDate\":\"2019\u5E7410\u670804\u65E5\",\"itemPrice\":484,\"listPrice\":0,\"discountRate\":0,\"discountPrice\":0,\"itemUrl\":\"https://books.rakuten.co.jp/rb/16023392/\",\"affiliateUrl\":\"\",\"smallImageUrl\":\"https://thumbnail.image.rakuten.co.jp/@0_mall/book/cabinet/0545/9784088820545.jpg?_ex=64x64\",\"mediumImageUrl\":\"https://thumbnail.image.rakuten.co.jp/@0_mall/book/cabinet/0545/9784088820545.jpg?_ex=120x120\",\"largeImageUrl\":\"https://thumbnail.image.rakuten.co.jp/@0_mall/book/cabinet/0545/9784088820545.jpg?_ex=200x200\",\"chirayomiUrl\":\"\",\"availability\":\"1\",\"postageFlag\":0,\"limitedFlag\":0,\"reviewCount\":71,\"reviewAverage\":\"4.62\",\"booksGenreId\":\"001001001008\"},{\"title\":\"ONE
        PIECE 93\",\"titleKana\":\"\u30EF\u30F3\u30D4\u30FC\u30B9\",\"subTitle\":\"\",\"subTitleKana\":\"\",\"seriesName\":\"\u30B8\u30E3\u30F3\u30D7\u30B3\u30DF\u30C3\u30AF\u30B9\",\"seriesNameKana\":\"\",\"contents\":\"\",\"author\":\"\u5C3E\u7530
        \u6804\u4E00\u90CE\",\"authorKana\":\"\u30AA\u30C0 \u30A8\u30A4\u30A4\u30C1\u30ED\u30A6\",\"publisherName\":\"\u96C6\u82F1\u793E\",\"size\":\"\u30B3\u30DF\u30C3\u30AF\",\"isbn\":\"9784088818771\",\"itemCaption\":\"\",\"salesDate\":\"2019\u5E7407\u670804\u65E5\",\"itemPrice\":484,\"listPrice\":0,\"discountRate\":0,\"discountPrice\":0,\"itemUrl\":\"https://books.rakuten.co.jp/rb/15924166/\",\"affiliateUrl\":\"\",\"smallImageUrl\":\"https://thumbnail.image.rakuten.co.jp/@0_mall/book/cabinet/8771/9784088818771.jpg?_ex=64x64\",\"mediumImageUrl\":\"https://thumbnail.image.rakuten.co.jp/@0_mall/book/cabinet/8771/9784088818771.jpg?_ex=120x120\",\"largeImageUrl\":\"https://thumbnail.image.rakuten.co.jp/@0_mall/book/cabinet/8771/9784088818771.jpg?_ex=200x200\",\"chirayomiUrl\":\"\",\"availability\":\"1\",\"postageFlag\":0,\"limitedFlag\":0,\"reviewCount\":176,\"reviewAverage\":\"4.34\",\"booksGenreId\":\"001001001008\"},{\"title\":\"ONE
        PIECE DOORS! 3\",\"titleKana\":\"\u30EF\u30F3\u30D4\u30FC\u30B9 \u30C9\u30A2\u30FC\u30BA\",\"subTitle\":\"\",\"subTitleKana\":\"\",\"seriesName\":\"\u30B8\u30E3\u30F3\u30D7\u30B3\u30DF\u30C3\u30AF\u30B9\",\"seriesNameKana\":\"\",\"contents\":\"\",\"author\":\"\u5C3E\u7530
        \u6804\u4E00\u90CE\",\"authorKana\":\"\u30AA\u30C0 \u30A8\u30A4\u30A4\u30C1\u30ED\u30A6\",\"publisherName\":\"\u96C6\u82F1\u793E\",\"size\":\"\u30B3\u30DF\u30C3\u30AF\",\"isbn\":\"9784088820989\",\"itemCaption\":\"\",\"salesDate\":\"2019\u5E7410\u670804\u65E5\",\"itemPrice\":715,\"listPrice\":0,\"discountRate\":0,\"discountPrice\":0,\"itemUrl\":\"https://books.rakuten.co.jp/rb/15992330/\",\"affiliateUrl\":\"\",\"smallImageUrl\":\"https://thumbnail.image.rakuten.co.jp/@0_mall/book/cabinet/0989/9784088820989.jpg?_ex=64x64\",\"mediumImageUrl\":\"https://thumbnail.image.rakuten.co.jp/@0_mall/book/cabinet/0989/9784088820989.jpg?_ex=120x120\",\"largeImageUrl\":\"https://thumbnail.image.rakuten.co.jp/@0_mall/book/cabinet/0989/9784088820989.jpg?_ex=200x200\",\"chirayomiUrl\":\"\",\"availability\":\"1\",\"postageFlag\":0,\"limitedFlag\":0,\"reviewCount\":2,\"reviewAverage\":\"4.5\",\"booksGenreId\":\"001001001008\"}],\"GenreInformation\":[]}"
    headers:
      Access-Control-Allow-Origin:
      - '*'
      Cache-Control:
      - no-store
      Connection:
      - close
      Content-Language:
      - ja-JP
      Content-Length:
      - '3022'
      Content-Type:
      - application/json;charset=UTF-8
      Date:
      - Tue, 22 Oct 2019 11:55:07 GMT
      Vary:
      - Accept-Encoding
    status:
      code: 200
      message: OK
- request:
    body: null
    headers:
      User-Agent:
      - python-requests/2.22.0
    method: GET
    uri: https://app.rakuten.co.jp/services/api/BooksBook/Search/20170404?applicationId=XXXXXX&author=%E5%B0%BE%E7%94%B0%E3%83%BB%E6%A0%84%E4%B8%80%E9%83%8E&formatVersion=2&hits=3
  response:
    body:
      string: "{\"count\":193,\"page\":1,\"first\":1,\"last\":3,\"hits\":3,\"carrier\":0,\"pageCount\":65,\"Items\":[{\"title\":\"ONE
        PIECE 94\",\"titleKana\":\"\u30EF\u30F3\u30D4\u30FC\u30B9\",\"subTitle\":\"\",\"subTitleKana\":\"\",\"seriesName\":\"\u30B8\u30E3\u30F3\u30D7\u30B3\u30DF\u30C3\u30AF\u30B9\",\"seriesNameKana\":\"\",\"contents\":\"\",\"author\":\"\u5C3E\u7530
        \u6804\u4E00\u90CE\",\"authorKana\":\"\u30AA\u30C0 \u30A8\u30A4\u30A4\u30C1\u30ED\u30A6\",\"publisherName\":\"\u96C6\u82F1\u793E\",\"size\":\"\u30B3\u30DF\u30C3\u30AF\",\"isbn\":\"9784088820545\",\"itemCaption\":\"\",\"salesDate\":\"2019\u5E7410\u670804\u65E5\",\"itemPrice\":484,\"listPrice\":0,\"discountRate\":0,\"discountPrice\":0,\"itemUrl\":\"https://books.rakuten.co.jp/rb/16023392/\",\"affiliateUrl\":\"\",\"smallImageUrl\":\"https://thumbnail.image.rakuten.co.jp/@0_mall/book/cabinet/0545/9784088820545.jpg?_ex=64x64\",\"mediumImageUrl\":\"https://thumbnail.image.rakuten.co.jp/@0_mall/book/cabinet/0545/9784088820545.jpg?_ex=120x120\",\"largeImageUrl\":\"https://thumbnail.image.rakuten.co.jp/@0_mall/book/cabinet/0545/9784088820545.jpg?_ex=200x200\",\"chirayomiUrl\":\"\",\"availability\":\"1\",\"postageFlag\":0,\"limitedFlag\":0,\"reviewCount\":71,\"reviewAverage\":\"4.62\",\"booksGenreId\":\"001001001008\"},{\"title\":\"ONE
        PIECE 93\",\"titleKana\":\"\u30EF\u30F3\u30D4\u30FC\u30B9\",\"subTitle\":\"\",\"subTitleKana\":\"\",\"seriesName\":\"\u30B8\u30E3\u30F3\u30D7\u30B3\u30DF\u30C3\u30AF\u30B9\",\"seriesNameKana\":\"\",\"contents\":\"\",\"author\":\"\u5C3E\u7530
        \u6804\u4E00\u90CE\",\"authorKana\":\"\u30AA\u30C0 \u30A8\u30A4\u30A4\u30C1\u30ED\u30A6\",\"publisherName\":\"\u96C6\u82F1\u793E\",\"size\":\"\u30B3\u30DF\u30C3\u30AF\",\"isbn\":\"9784088818771\",\"itemCaption\":\"\",\"salesDate\":\"2019\u5E7407\u670804\u65E5\",\"itemPrice\":484,\"listPrice\":0,\"discountRate\":0,\"discountPrice\":0,\"itemUrl\":\"https://books.rakuten.co.jp/rb/15924166/\",\"affiliateUrl\":\"\",\"smallImageUrl\":\"https://thumbnail.image.rakuten.co.jp/@0_mall/book/cabinet/8771/9784088818771.jpg?_ex=64x64\",\"mediumImageUrl\":\"https://thumbnail.image.rakuten.co.jp/@0_mall/book/cabinet/8771/9784088818771.jpg?_ex=120x120\",\"largeImageUrl\":\"https://thumbnail.image.rakuten.co.jp/@0_mall/book/cabinet/8771/9784088818771.jpg?_ex=200x200\",\"chirayomiUrl\":\"\",\"availability\":\"1\",\"postageFlag\":0,\"limitedFlag\":0,\"reviewCount\":176,\"reviewAverage\":\"4.34\",\"booksGenreId\":\"001001001008\"},{\"title\":\"ONE
        PIECE DOORS! 3\",\"titleKana\":\"\u30EF\u30F3\u30D4\u30FC\u30B9 \u30C9\u30A2\u30FC\u30BA\",\"subTitle\":\"\",\"subTitleKana\":\"\",\"seriesName\":\"\u30B8\u30E3\u30F3\u30D7\u30B3\u30DF\u30C3\u30AF\u30B9\",\"seriesNameKana\":\"\",\"contents\":\"\",\"author\":\"\u5C3E\u7530
        \u6804\u4E00\u90CE\",\"authorKana\":\"\u30AA\u30C0 \u30A8\u30A4\u30A4\u30C1\u30ED\u30A6\",\"publisherName\":\"\u96C6\u82F1\u793E\",\"size\":\"\u30B3\u30DF\u30C3\u30AF\",\"isbn\":\"9784088820989\",\"itemCaption\":\"\",\"salesDate\":\"2019\u5E7410\u670804\u65E5\",\"itemPrice\":715,\"listPrice\":0,\"discountRate\":0,\"discountPrice\":0,\"itemUrl\":\"https://books.rakuten.co.jp/rb/15992330/\",\"affiliateUrl\":\"\",\"smallImageUrl\":\"https://thumbnail.image.rakuten.co.jp/@0_mall/book/cabinet/0989/9784088820989.jpg?_ex=64x64\",\"mediumImageUrl\":\"https://thumbnail.image.rakuten.co.jp/@0_mall/book/cabinet/0989/9784088820989.jpg?_ex=120x120\",\"largeImageUrl\":\"https://thumbnail.image.rakuten.co.jp/@0_mall/book/cabinet/0989/9784088820989.jpg?_ex=200x200\",\"chirayomiUrl\":\"\",\"availability\":\"1\",\"postageFlag\":0,\"limitedFlag\":0,\"reviewCount\":2,\"reviewAverage\":\"4.5\",\"booksGenreId\":\"001001001008\"}],\"GenreInformation\":[]}"
    headers:
      Access-Control-Allow-Origin:
      - '*'
      Cache-Control:
      - no-store
      Connection:
      - close
      Content-Language:
      - ja-JP
      Content-Length:
      - '3022'
      Content-Type:
      - application/json;charset=UTF-8
      Date:
      - Tue, 22 Oct 2019 12:16:03 GMT
      Vary:
      - Accept-Encoding
    status:
      code: 200
      message: OK
- request:
    body: null
    headers:
      User-Agent:
      - python-requests/2.22.0
    method: GET
    uri: https://app.rakuten.co.jp/services/api/BooksBook/Search/20170404?applicationId=XXXXXX&author=%E5%B0%BE%E7%94%B0%E3%83%BB%E6%A0%84%E4%B8%80%E9%83%8E&formatVersion=2&hits=3
  response:
    body:
      string: "{\"count\":193,\"page\":1,\"first\":1,\"last\":3,\"hits\":3,\"carrier\":0,\"pageCount\":65,\"Items\":[{\"title\":\"ONE
        PIECE 94\",\"titleKana\":\"\u30EF\u30F3\u30D4\u30FC\u30B9\",\"subTitle\":\"\",\"subTitleKana\":\"\",\"seriesName\":\"\u30B8\u30E3\u30F3\u30D7\u30B3\u30DF\u30C3\u30AF\u30B9\",\"seriesNameKana\":\"\",\"contents\":\"\",\"author\":\"\u5C3E\u7530
        \u6804\u4E00\u90CE\",\"authorKana\":\"\u30AA\u30C0 \u30A8\u30A4\u30A4\u30C1\u30ED\u30A6\",\"publisherName\":\"\u96C6\u82F1\u793E\",\"size\":\"\u30B3\u30DF\u30C3\u30AF\",\"isbn\":\"9784088820545\",\"itemCaption\":\"\",\"salesDate\":\"2019\u5E7410\u670804\u65E5\",\"itemPrice\":484,\"listPrice\":0,\"discountRate\":0,\"discountPrice\":0,\"itemUrl\":\"https://books.rakuten.co.jp/rb/16023392/\",\"affiliateUrl\":\"\",\"smallImageUrl\":\"https://thumbnail.image.rakuten.co.jp/@0_mall/book/cabinet/0545/9784088820545.jpg?_ex=64x64\",\"mediumImageUrl\":\"https://thumbnail.image.rakuten.co.jp/@0_mall/book/cabinet/0545/9784088820545.jpg?_ex=120x120\",\"largeImageUrl\":\"https://thumbnail.image.rakuten.co.jp/@0_mall/book/cabinet/0545/9784088820545.jpg?_ex=200x200\",\"chirayomiUrl\":\"\",\"availability\":\"1\",\"postageFlag\":0,\"limitedFlag\":0,\"reviewCount\":71,\"reviewAverage\":\"4.62\",\"booksGenreId\":\"001001001008\"},{\"title\":\"ONE
        PIECE 93\",\"titleKana\":\"\u30EF\u30F3\u30D4\u30FC\u30B9\",\"subTitle\":\"\",\"subTitleKana\":\"\",\"seriesName\":\"\u30B8\u30E3\u30F3\u30D7\u30B3\u30DF\u30C3\u30AF\u30B9\",\"seriesNameKana\":\"\",\"contents\":\"\",\"author\":\"\u5C3E\u7530
        \u6804\u4E00\u90CE\",\"authorKana\":\"\u30AA\u30C0 \u30A8\u30A4\u30A4\u30C1\u30ED\u30A6\",\"publisherName\":\"\u96C6\u82F1\u793E\",\"size\":\"\u30B3\u30DF\u30C3\u30AF\",\"isbn\":\"9784088818771\",\"itemCaption\":\"\",\"salesDate\":\"2019\u5E7407\u670804\u65E5\",\"itemPrice\":484,\"listPrice\":0,\"discountRate\":0,\"discountPrice\":0,\"itemUrl\":\"https://books.rakuten.co.jp/rb/15924166/\",\"affiliateUrl\":\"\",\"smallImageUrl\":\"https://thumbnail.image.rakuten.co.jp/@0_mall/book/cabinet/8771/9784088818771.jpg?_ex=64x64\",\"mediumImageUrl\":\"https://thumbnail.image.rakuten.co.jp/@0_mall/book/cabinet/8771/9784088818771.jpg?_ex=120x120\",\"largeImageUrl\":\"https://thumbnail.image.rakuten.co.jp/@0_mall/book/cabinet/8771/9784088818771.jpg?_ex=200x200\",\"chirayomiUrl\":\"\",\"availability\":\"1\",\"postageFlag\":0,\"limitedFlag\":0,\"reviewCount\":176,\"reviewAverage\":\"4.34\",\"booksGenreId\":\"001001001008\"},{\"title\":\"ONE
        PIECE DOORS! 3\",\"titleKana\":\"\u30EF\u30F3\u30D4\u30FC\u30B9 \u30C9\u30A2\u30FC\u30BA\",\"subTitle\":\"\",\"subTitleKana\":\"\",\"seriesName\":\"\u30B8\u30E3\u30F3\u30D7\u30B3\u30DF\u30C3\u30AF\u30B9\",\"seriesNameKana\":\"\",\"contents\":\"\",\"author\":\"\u5C3E\u7530
        \u6804\u4E00\u90CE\",\"authorKana\":\"\u30AA\u30C0 \u30A8\u30A4\u30A4\u30C1\u30ED\u30A6\",\"publisherName\":\"\u96C6\u82F1\u793E\",\"size\":\"\u30B3\u30DF\u30C3\u30AF\",\"isbn\":\"9784088820989\",\"itemCaption\":\"\",\"salesDate\":\"2019\u5E7410\u670804\u65E5\",\"itemPrice\":715,\"listPrice\":0,\"discountRate\":0,\"discountPrice\":0,\"itemUrl\":\"https://books.rakuten.co.jp/rb/15992330/\",\"affiliateUrl\":\"\",\"smallImageUrl\":\"https://thumbnail.image.rakuten.co.jp/@0_mall/book/cabinet/0989/9784088820989.jpg?_ex=64x64\",\"mediumImageUrl\":\"https://thumbnail.image.rakuten.co.jp/@0_mall/book/cabinet/0989/9784088820989.jpg?_ex=120x120\",\"largeImageUrl\":\"https://thumbnail.image.rakuten.co.jp/@0_mall/book/cabinet/0989/9784088820989.jpg?_ex=200x200\",\"chirayomiUrl\":\"\",\"availability\":\"1\",\"postageFlag\":0,\"limitedFlag\":0,\"reviewCount\":2,\"reviewAverage\":\"4.5\",\"booksGenreId\":\"001001001008\"}],\"GenreInformation\":[]}"
    headers:
      Access-Control-Allow-Origin:
      - '*'
      Cache-Control:
      - no-store
      Connection:
      - close
      Content-Language:
      - ja-JP
      Content-Length:
      - '3022'
      Content-Type:
      - application/json;charset=UTF-8
      Date:
      - Tue, 22 Oct 2019 12:21:09 GMT
      Vary:
      - Accept-Encoding
    status:
      code: 200
      message: OK
- request:
    body: null
    headers:
      User-Agent:
      - python-requests/2.22.0
    method: GET
    uri: https://app.rakuten.co.jp/services/api/BooksBook/Search/20170404?applicationId=XXXXXX&author=%E5%B0%BE%E7%94%B0%E3%83%BB%E6%A0%84%E4%B8%80%E9%83%8E&formatVersion=2&hits=3
  response:
    body:
      string: "{\"count\":193,\"page\":1,\"first\":1,\"last\":3,\"hits\":3,\"carrier\":0,\"pageCount\":65,\"Items\":[{\"title\":\"ONE
        PIECE 94\",\"titleKana\":\"\u30EF\u30F3\u30D4\u30FC\u30B9\",\"subTitle\":\"\",\"subTitleKana\":\"\",\"seriesName\":\"\u30B8\u30E3\u30F3\u30D7\u30B3\u30DF\u30C3\u30AF\u30B9\",\"seriesNameKana\":\"\",\"contents\":\"\",\"author\":\"\u5C3E\u7530
        \u6804\u4E00\u90CE\",\"authorKana\":\"\u30AA\u30C0 \u30A8\u30A4\u30A4\u30C1\u30ED\u30A6\",\"publisherName\":\"\u96C6\u82F1\u793E\",\"size\":\"\u30B3\u30DF\u30C3\u30AF\",\"isbn\":\"9784088820545\",\"itemCaption\":\"\",\"salesDate\":\"2019\u5E7410\u670804\u65E5\",\"itemPrice\":484,\"listPrice\":0,\"discountRate\":0,\"discountPrice\":0,\"itemUrl\":\"https://books.rakuten.co.jp/rb/16023392/\",\"affiliateUrl\":\"\",\"smallImageUrl\":\"https://thumbnail.image.rakuten.co.jp/@0_mall/book/cabinet/0545/9784088820545.jpg?_ex=64x64\",\"mediumImageUrl\":\"https://thumbnail.image.rakuten.co.jp/@0_mall/book/cabinet/0545/9784088820545.jpg?_ex=120x120\",\"largeImageUrl\":\"https://thumbnail.image.rakuten.co.jp/@0_mall/book/cabinet/0545/9784088820545.jpg?_ex=200x200\",\"chirayomiUrl\":\"\",\"availability\":\"1\",\"postageFlag\":0,\"limitedFlag\":0,\"reviewCount\":71,\"reviewAverage\":\"4.62\",\"booksGenreId\":\"001001001008\"},{\"title\":\"ONE
        PIECE 93\",\"titleKana\":\"\u30EF\u30F3\u30D4\u30FC\u30B9\",\"subTitle\":\"\",\"subTitleKana\":\"\",\"seriesName\":\"\u30B8\u30E3\u30F3\u30D7\u30B3\u30DF\u30C3\u30AF\u30B9\",\"seriesNameKana\":\"\",\"contents\":\"\",\"author\":\"\u5C3E\u7530
        \u6804\u4E00\u90CE\",\"authorKana\":\"\u30AA\u30C0 \u30A8\u30A4\u30A4\u30C1\u30ED\u30A6\",\"publisherName\":\"\u96C6\u82F1\u793E\",\"size\":\"\u30B3\u30DF\u30C3\u30AF\",\"isbn\":\"9784088818771\",\"itemCaption\":\"\",\"salesDate\":\"2019\u5E7407\u670804\u65E5\",\"itemPrice\":484,\"listPrice\":0,\"discountRate\":0,\"discountPrice\":0,\"itemUrl\":\"https://books.rakuten.co.jp/rb/15924166/\",\"affiliateUrl\":\"\",\"smallImageUrl\":\"https://thumbnail.image.rakuten.co.jp/@0_mall/book/cabinet/8771/9784088818771.jpg?_ex=64x64\",\"mediumImageUrl\":\"https://thumbnail.image.rakuten.co.jp/@0_mall/book/cabinet/8771/9784088818771.jpg?_ex=120x120\",\"largeImageUrl\":\"https://thumbnail.image.rakuten.co.jp/@0_mall/book/cabinet/8771/9784088818771.jpg?_ex=200x200\",\"chirayomiUrl\":\"\",\"availability\":\"1\",\"postageFlag\":0,\"limitedFlag\":0,\"reviewCount\":176,\"reviewAverage\":\"4.34\",\"booksGenreId\":\"001001001008\"},{\"title\":\"ONE
        PIECE DOORS! 3\",\"titleKana\":\"\u30EF\u30F3\u30D4\u30FC\u30B9 \u30C9\u30A2\u30FC\u30BA\",\"subTitle\":\"\",\"subTitleKana\":\"\",\"seriesName\":\"\u30B8\u30E3\u30F3\u30D7\u30B3\u30DF\u30C3\u30AF\u30B9\",\"seriesNameKana\":\"\",\"contents\":\"\",\"author\":\"\u5C3E\u7530
        \u6804\u4E00\u90CE\",\"authorKana\":\"\u30AA\u30C0 \u30A8\u30A4\u30A4\u30C1\u30ED\u30A6\",\"publisherName\":\"\u96C6\u82F1\u793E\",\"size\":\"\u30B3\u30DF\u30C3\u30AF\",\"isbn\":\"9784088820989\",\"itemCaption\":\"\",\"salesDate\":\"2019\u5E7410\u670804\u65E5\",\"itemPrice\":715,\"listPrice\":0,\"discountRate\":0,\"discountPrice\":0,\"itemUrl\":\"https://books.rakuten.co.jp/rb/15992330/\",\"affiliateUrl\":\"\",\"smallImageUrl\":\"https://thumbnail.image.rakuten.co.jp/@0_mall/book/cabinet/0989/9784088820989.jpg?_ex=64x64\",\"mediumImageUrl\":\"https://thumbnail.image.rakuten.co.jp/@0_mall/book/cabinet/0989/9784088820989.jpg?_ex=120x120\",\"largeImageUrl\":\"https://thumbnail.image.rakuten.co.jp/@0_mall/book/cabinet/0989/9784088820989.jpg?_ex=200x200\",\"chirayomiUrl\":\"\",\"availability\":\"1\",\"postageFlag\":0,\"limitedFlag\":0,\"reviewCount\":2,\"reviewAverage\":\"4.5\",\"booksGenreId\":\"001001001008\"}],\"GenreInformation\":[]}"
    headers:
      Access-Control-Allow-Origin:
      - '*'
      Cache-Control:
      - no-store
      Connection:
      - close
      Content-Language:
      - ja-JP
      Content-Length:
      - '3022'
      Content-Type:
      - application/json;charset=UTF-8
      Date:
      - Tue, 22 Oct 2019 12:24:52 GMT
      Vary:
      - Accept-Encoding
    status:
      code: 200
      message: OK
version: 1
