interactions:
- request:
    body: null
    headers:
      User-Agent: [python-requests/2.13.0]
    method: GET
    uri: https://app.rakuten.co.jp/services/api/BooksBook/Search/20130522?applicationId=XXXXXX&formatVersion=2&hits=3&sort=reviewAverage
  response:
    body: {string: "{\"count\":983132,\"page\":1,\"first\":1,\"last\":3,\"hits\":3,\"carrier\":0,\"pageCount\":100,\"Items\":[{\"title\":\"\u5B87\u5B99\u4EBA\u30DE\u30C3\u30CF\u5B8C\u5168\u7248\uFF08\u4E0A\uFF09\",\"titleKana\":\"\u30A6\u30C1\u30E5\u30A6\u30B8\u30F3
        \u30DE\u30C3\u30CF \u30AB\u30F3\u30BC\u30F3\u30D0\u30F3\",\"subTitle\":\"\",\"subTitleKana\":\"\",\"seriesName\":\"\u30DE\u30F3\u30AC\u30B7\u30E7\u30C3\u30D7\u30B7\u30EA-\u30BA\",\"seriesNameKana\":\"\u30DE\u30F3\u30AC
        \u30B7\u30E7\u30C3\u30D7 \u30B7\u30EA-\u30BA\",\"contents\":\"\",\"author\":\"\u68DF\u660E\u90CE/\u4E00\u5CF0\u5927\u4E8C\",\"authorKana\":\"\u30C8\u30A6,\u30CF\u30EB\u30AA/\u30AB\u30BA\u30DF\u30CD,\u30C0\u30A4\u30B8\",\"publisherName\":\"\u30D1\u30F3\u30ED\u30FC\u30EA\u30F3\u30B0\",\"size\":\"\u30B3\u30DF\u30C3\u30AF\",\"isbn\":\"9784775911846\",\"itemCaption\":\"\",\"salesDate\":\"2007\u5E7409\u670802\u65E5\",\"itemPrice\":1944,\"listPrice\":0,\"discountRate\":0,\"discountPrice\":0,\"itemUrl\":\"http://books.rakuten.co.jp/rb/4494588/\",\"affiliateUrl\":\"\",\"smallImageUrl\":\"http://thumbnail.image.rakuten.co.jp/@0_mall/book/cabinet/7759/77591184.jpg?_ex=64x64\",\"mediumImageUrl\":\"http://thumbnail.image.rakuten.co.jp/@0_mall/book/cabinet/7759/77591184.jpg?_ex=120x120\",\"largeImageUrl\":\"http://thumbnail.image.rakuten.co.jp/@0_mall/book/cabinet/7759/77591184.jpg?_ex=200x200\",\"chirayomiUrl\":\"\",\"availability\":\"4\",\"postageFlag\":1,\"limitedFlag\":0,\"reviewCount\":1,\"reviewAverage\":\"5.0\",\"booksGenreId\":\"001001012\"},{\"title\":\"\u7D50\u5A5A\u3063\u3066\u3044\u3044\u304B\u3082\u3057\u308C\u306A\u3044\",\"titleKana\":\"\u30B1\u30C3\u30B3\u30F3\u30C3\u30C6
        \u30A4\u30A4 \u30AB\u30E2\u30B7\u30EC\u30CA\u30A4\",\"subTitle\":\"\",\"subTitleKana\":\"\",\"seriesName\":\"\u5E7B\u51AC\u820E\u6587\u5EAB\",\"seriesNameKana\":\"\u30B2\u30F3\u30C8\u30A6\u30B7\u30E3
        \u30D6\u30F3\u30B3\",\"contents\":\"\",\"author\":\"\u85E4\u81E3\u67CA\u5B50\",\"authorKana\":\"\u30D5\u30B8\u30AA\u30DF,\u30B7\u30E5\u30A6\u30B3\",\"publisherName\":\"\u5E7B\u51AC\u820E\",\"size\":\"\u6587\u5EAB\",\"isbn\":\"9784877288471\",\"itemCaption\":\"\",\"salesDate\":\"2000\u5E7402\u6708\",\"itemPrice\":616,\"listPrice\":0,\"discountRate\":0,\"discountPrice\":0,\"itemUrl\":\"http://books.rakuten.co.jp/rb/1130038/\",\"affiliateUrl\":\"\",\"smallImageUrl\":\"http://thumbnail.image.rakuten.co.jp/@0_mall/book/cabinet/8772/87728847.gif?_ex=64x64\",\"mediumImageUrl\":\"http://thumbnail.image.rakuten.co.jp/@0_mall/book/cabinet/8772/87728847.gif?_ex=120x120\",\"largeImageUrl\":\"http://thumbnail.image.rakuten.co.jp/@0_mall/book/cabinet/8772/87728847.gif?_ex=200x200\",\"chirayomiUrl\":\"\",\"availability\":\"1\",\"postageFlag\":0,\"limitedFlag\":0,\"reviewCount\":1,\"reviewAverage\":\"5.0\",\"booksGenreId\":\"001001006010\"},{\"title\":\"\u304A\u308C\u306F\u9B54\u7269\u3068\u304F\u3089\u3057\u3066\u308B\",\"titleKana\":\"\u30AA\u30EC
        \u30EF \u30DE\u30E2\u30CE \u30C8 \u30AF\u30E9\u30B7\u30C6\u30EB\",\"subTitle\":\"\u30EB\u30CE\u30A2\u30FC\u30EB\u5144\u5F1F\u4F5C\u54C1\u96C6\",\"subTitleKana\":\"\u30EB\u30CE\u30A2\u30FC\u30EB
        \u30AD\u30E7\u30A6\u30C0\u30A4 \u30B5\u30AF\u30D2\u30F3\u30B7\u30E5\u30A6\",\"seriesName\":\"\",\"seriesNameKana\":\"\",\"contents\":\"\",\"author\":\"\u30EB\u30CE\u30A2\u30FC\u30EB\u5144\u5F1F\",\"authorKana\":\"\u30EB\u30CE\u30A2\u30FC\u30EB
        \u30AD\u30E7\u30A6\u30C0\u30A4\",\"publisherName\":\"\u592A\u7530\u51FA\u7248\",\"size\":\"\u30B3\u30DF\u30C3\u30AF\",\"isbn\":\"9784778320638\",\"itemCaption\":\"\",\"salesDate\":\"2008\u5E7410\u6708\",\"itemPrice\":918,\"listPrice\":0,\"discountRate\":0,\"discountPrice\":0,\"itemUrl\":\"http://books.rakuten.co.jp/rb/5866041/\",\"affiliateUrl\":\"\",\"smallImageUrl\":\"http://thumbnail.image.rakuten.co.jp/@0_mall/book/cabinet/0638/9784778320638.jpg?_ex=64x64\",\"mediumImageUrl\":\"http://thumbnail.image.rakuten.co.jp/@0_mall/book/cabinet/0638/9784778320638.jpg?_ex=120x120\",\"largeImageUrl\":\"http://thumbnail.image.rakuten.co.jp/@0_mall/book/cabinet/0638/9784778320638.jpg?_ex=200x200\",\"chirayomiUrl\":\"\",\"availability\":\"1\",\"postageFlag\":0,\"limitedFlag\":0,\"reviewCount\":2,\"reviewAverage\":\"5.0\",\"booksGenreId\":\"001001012\"}],\"GenreInformation\":[]}"}
    headers:
      Access-Control-Allow-Origin: ['*']
      Cache-Control: [no-store]
      Connection: [close]
      Content-Language: [ja-JP]
      Content-Length: ['3242']
      Content-Type: [application/json;charset=UTF-8]
      Date: ['Mon, 13 Feb 2017 14:36:50 GMT']
      Vary: [Accept-Encoding]
    status: {code: 200, message: OK}
version: 1
