interactions:
- request:
    body: null
    headers:
      User-Agent: [python-requests/2.13.0]
    method: GET
    uri: https://app.rakuten.co.jp/services/api/BooksSoftware/Search/20130522?applicationId=XXXXXX&formatVersion=2&hits=3&os=windows
  response:
    body: {string: "{\"count\":307,\"page\":1,\"first\":1,\"last\":3,\"hits\":3,\"carrier\":0,\"pageCount\":100,\"Items\":[{\"title\":\"\u30D5\u30A1\u30A4\u30CA\u30EB\u30D5\u30A1\u30F3\u30BF\u30B8\u30FCXIV
        : \u7D05\u84EE\u306E\u30EA\u30D9\u30EC\u30FC\u30BF\u30FC \u30B3\u30EC\u30AF\u30BF\u30FC\u30BA\u30A8\u30C7\u30A3\u30B7\u30E7\u30F3\",\"titleKana\":\"\u30D5\u30A1\u30A4\u30CA\u30EB\u30D5\u30A1\u30F3\u30BF\u30B8\u30FCXIV
        : \u7D05\u84EE\u306E\u30EA\u30D9\u30EC\u30FC\u30BF\u30FC \u30B3\u30EC\u30AF\u30BF\u30FC\u30BA\u30A8\u30C7\u30A3\u30B7\u30E7\u30F3\",\"os\":\"WINDOWS\",\"label\":\"\",\"jan\":\"4988601009737\",\"makerCode\":\"SE-W
        0023\",\"itemCaption\":\"\\n\\n\u5149\u306E\u6226\u58EB\u305F\u3061\u3088\u3002\u7D05\u84EE\u306E\u89E3\u653E\u8005\u3068\u306A\u308C\uFF01\\n\\n\u30D5\u30A1\u30A4\u30CA\u30EB\u30D5\u30A1\u30F3\u30BF\u30B8\u30FCXIV\u306F\u3001\u58EE\u5927\u306A\u201C\u30A8\u30AA\u30EB\u30BC\u30A2\u201D\u3068\u3044\u3046\u4E16\u754C\u3092\u821E\u53F0\u306B\u3001
        \u30CD\u30C3\u30C8\u30EF\u30FC\u30AF\u3092\u901A\u3058\u3066\u3001\\n\u4E16\u754C\u4E2D\u306E\u30D7\u30EC\u30A4\u30E4\u30FC\u3068\u5171\u306B\u5192\u967A\u3067\u304D\u308B\u3001\u30AA\u30F3\u30E9\u30A4\u30F3\u30B2\u30FC\u30E0\u3067\u3059\u3002
        \\n\u5192\u967A\u306F\u6226\u3044\u3060\u3051\u3067\u306A\u304F\u3001\u30A2\u30A4\u30C6\u30E0\u306E\u88FD\u4F5C\u3084\u3001\u30C1\u30E7\u30B3\u30DC\u306E\u80B2\u6210\u306A\u3069\u69D8\u3005\u3042\u308A\u3001\u305D\u306E\u904A\u3073\u65B9\u306F\u5192\u967A\u8005\u3067\u3042\u308B\u3042\u306A\u305F\u6B21\u7B2C\uFF01\\n
        \u304A\u99B4\u67D3\u307F\u306E\u53EC\u559A\u7363\u3084\u30E2\u30FC\u30B0\u30EA\u3001\u98DB\u7A7A\u633A\u2026
        \u305D\u3057\u3066\u4EF2\u9593\u305F\u3061\u304C\u5F85\u3064\u3001\u65B0\u305F\u306AFF\u306E\u4E16\u754C\u306B\u65C5\u7ACB\u3061\u307E\u3057\u3087\u3046\uFF01\\n\\n\\n\\n\uFF1C\u69D8\u3005\u306A\u65B0\u8981\u7D20\uFF1E\\n\u30FB\u65B0\u305F\u306A\u5192\u967A\u306E\u821E\u53F0\\n\u30FB\u65B0\u305F\u306A\u8907\u6570\u306E\u30B8\u30E7\u30D6\u8FFD\u52A0\uFF01\\n\u30FB\u65B0\u305F\u306A\u30B2\u30FC\u30E0\u4F53\u9A13\u300C\u6C34\u4E2D\u30A2\u30AF\u30B7\u30E7\u30F3\u300D\\n\u30FB\u30EC\u30D9\u30EB\u30AD\u30E3\u30C3\u30D7\u958B\u653E\uFF08\u30EC\u30D9\u30EB60\u219270\uFF09\\n\u30FB\u30D0\u30C8\u30EB\u30B7\u30B9\u30C6\u30E0\u306E\u5909\u66F4\\n\u30FB\u65B0\u898F\u30D5\u30A3\u30FC\u30EB\u30C9\\n\u30FB\u65B0\u305F\u306A\u86EE\u795E\u306E\u964D\u81E8\\n\\n\\n\\n\u203B\u30D5\u30A1\u30A4\u30CA\u30EB\u30D5\u30A1\u30F3\u30BF\u30B8\u30FCXIV\u306F\u30AA\u30F3\u30E9\u30A4\u30F3\u5C02\u7528\u30B2\u30FC\u30E0\u3067\u3059\u3002\u30D7\u30EC\u30A4\u306B\u306F\u30B5\u30FC\u30D3\u30B9\u5229\u7528\u6599\u91D1\u304C\u304B\u304B\u308A\u307E\u3059\u3002\\n\u30D7\u30EC\u30A4\u306B\u95A2\u308F\u308B\u30A4\u30F3\u30BF\u30FC\u30CD\u30C3\u30C8\u63A5\u7D9A\u6599\u304A\u3088\u3073\u901A\u4FE1\u6599\u306F\u3001\u304A\u5BA2\u69D8\u306E\u3054\u8CA0\u62C5\u3068\u306A\u308A\u307E\u3059\u3002\\n\\n\u203B\u672C\u88FD\u54C1\u306F\u300C\u30D5\u30A1\u30A4\u30CA\u30EB\u30D5\u30A1\u30F3\u30BF\u30B8\u30FCXIV\u300D\u306E\u62E1\u5F35\u30D1\u30C3\u30B1\u30FC\u30B8\u3067\u3042\u308A\u3001\\n\u672C\u88FD\u54C1\u5358\u72EC\u3067\u306F\u3054\u5229\u7528\u3044\u305F\u3060\u3051\u307E\u305B\u3093\u3002\\n\u62E1\u5F35\u30D1\u30C3\u30B1\u30FC\u30B8\u3092\u3054\u5229\u7528\u3044\u305F\u3060\u304F\u305F\u3081\u306B\u306F\u3001\u57FA\u672C\u30D1\u30C3\u30B1\u30FC\u30B8\u3067\u3042\u308B\\n\u300C\u30D5\u30A1\u30A4\u30CA\u30EB\u30D5\u30A1\u30F3\u30BF\u30B8\u30FCXIV:
        \u65B0\u751F\u30A8\u30AA\u30EB\u30BC\u30A2\u300D\u304C\u5FC5\u8981\u3067\u3059\u3002\\n\\n\\n&copy;
        2010 - 2017 SQUARE ENIX CO., LTD. All Rights Reserved.\",\"salesDate\":\"2017\u5E7406\u670820\u65E5\",\"itemPrice\":19459,\"listPrice\":0,\"discountRate\":0,\"discountPrice\":0,\"itemUrl\":\"http://books.rakuten.co.jp/rb/14658135/\",\"affiliateUrl\":\"\",\"smallImageUrl\":\"http://thumbnail.image.rakuten.co.jp/@0_mall/book/cabinet/9737/4988601009737.jpg?_ex=64x64\",\"mediumImageUrl\":\"http://thumbnail.image.rakuten.co.jp/@0_mall/book/cabinet/9737/4988601009737.jpg?_ex=120x120\",\"largeImageUrl\":\"http://thumbnail.image.rakuten.co.jp/@0_mall/book/cabinet/9737/4988601009737.jpg?_ex=200x200\",\"availability\":\"5\",\"postageFlag\":2,\"limitedFlag\":0,\"reviewCount\":0,\"reviewAverage\":\"0.0\",\"booksGenreId\":\"004319014001\"},{\"title\":\"\u4E09\u570B\u5FD713
        \u30D1\u30EF\u30FC\u30A2\u30C3\u30D7\u30AD\u30C3\u30C8 Windows\u7248\",\"titleKana\":\"\u30B5\u30F3\u30B4\u30AF\u30B713
        \u30D1\u30EF\u30FC\u30A2\u30C3\u30D7\u30AD\u30C3\u30C8\",\"os\":\"Windows
        10/8.1/7/Vista \u65E5\u672C\u8A9E\u7248\",\"label\":\"\",\"jan\":\"4988615100550\",\"makerCode\":\"\",\"itemCaption\":\"\\n\\n\\n\\n\\n\\nCPU:Pentium4
        1.6GHz\u4EE5\u4E0A \\n\u3010\u63A8\u5968\u3011 Core2 Duo 2.0GHz\u4EE5\u4E0A\\n\u30E1\u30E2\u30EA:32bit
        OS 1GB\u4EE5\u4E0A 64bit OS 2GB\u4EE5\u4E0A\\nHDD:12GB\u4EE5\u4E0A\\nDVD-ROM\u30C9\u30E9\u30A4\u30D6\\n\u30C7\u30A3\u30B9\u30D7\u30EC\u30A4:1024\xD7768
        \u30D4\u30AF\u30BB\u30EB\u4EE5\u4E0A\u307E\u305F\u306F1280\xD7720\u30D4\u30AF\u30BB\u30EB\u4EE5\u4E0A\u8868\u793A\u53EF\u80FD\u306A\u30C7\u30A3\u30B9\u30D7\u30EC\u30A4\\n\u30D3\u30C7\u30AA\u30AB\u30FC\u30C9:DirectX9.0c\u306B\u5B8C\u5168\u5BFE\u5FDC\u3057\u305F\u3082\u306E\u3002\u30B7\u30A7\u30FC\u30C0\u30FC\u30E2\u30C7\u30EB3.0\u5FC5\u9808
        VRAM 256MB\u4EE5\u4E0A \\n\u3010\u63A8\u5968\u3011 VRAM 512MB\u4EE5\u4E0A\\n16\u30D3\u30C3\u30C8\u30B9\u30C6\u30EC\u30AA48KHz\u306EWAVE\u30D5\u30A1\u30A4\u30EB\u304C\u518D\u751F\u53EF\u80FD\u306A\u30B5\u30A6\u30F3\u30C9\u30DC\u30FC\u30C9\\n\u203B\u30A4\u30F3\u30BF\u30FC\u30CD\u30C3\u30C8\u63A5\u7D9A\u53CA\u3073\u7121\u6599\u306ESteam\u30A2\u30AB\u30A6\u30F3\u30C8\u306E\u767B\u9332\u304C\u5FC5\u8981\u3067\u3059\u3002\",\"salesDate\":\"2017\u5E7402\u670816\u65E5\",\"itemPrice\":5054,\"listPrice\":0,\"discountRate\":0,\"discountPrice\":0,\"itemUrl\":\"http://books.rakuten.co.jp/rb/14485665/\",\"affiliateUrl\":\"\",\"smallImageUrl\":\"http://thumbnail.image.rakuten.co.jp/@0_mall/book/cabinet/0550/4988615100550.jpg?_ex=64x64\",\"mediumImageUrl\":\"http://thumbnail.image.rakuten.co.jp/@0_mall/book/cabinet/0550/4988615100550.jpg?_ex=120x120\",\"largeImageUrl\":\"http://thumbnail.image.rakuten.co.jp/@0_mall/book/cabinet/0550/4988615100550.jpg?_ex=200x200\",\"availability\":\"5\",\"postageFlag\":2,\"limitedFlag\":0,\"reviewCount\":0,\"reviewAverage\":\"0.0\",\"booksGenreId\":\"004319014007\"},{\"title\":\"Winning
        Post 8 2017\",\"titleKana\":\"\u30A6\u30A3\u30CB\u30F3\u30B0 \u30DD\u30B9\u30C8
        8 2017\",\"os\":\"Windows10/8.1/7\",\"label\":\"\",\"jan\":\"4988615103216\",\"makerCode\":\"\",\"itemCaption\":\"\",\"salesDate\":\"2017\u5E7403\u670802\u65E5\",\"itemPrice\":6642,\"listPrice\":0,\"discountRate\":0,\"discountPrice\":0,\"itemUrl\":\"http://books.rakuten.co.jp/rb/14575716/\",\"affiliateUrl\":\"\",\"smallImageUrl\":\"http://thumbnail.image.rakuten.co.jp/@0_mall/book/cabinet/3216/4988615103216.jpg?_ex=64x64\",\"mediumImageUrl\":\"http://thumbnail.image.rakuten.co.jp/@0_mall/book/cabinet/3216/4988615103216.jpg?_ex=120x120\",\"largeImageUrl\":\"http://thumbnail.image.rakuten.co.jp/@0_mall/book/cabinet/3216/4988615103216.jpg?_ex=200x200\",\"availability\":\"5\",\"postageFlag\":2,\"limitedFlag\":0,\"reviewCount\":0,\"reviewAverage\":\"0.0\",\"booksGenreId\":\"004319014007\"}],\"GenreInformation\":[]}"}
    headers:
      Access-Control-Allow-Origin: ['*']
      Cache-Control: [no-store]
      Connection: [close]
      Content-Language: [ja-JP]
      Content-Length: ['4842']
      Content-Type: [application/json;charset=UTF-8]
      Date: ['Mon, 13 Feb 2017 14:36:44 GMT']
      Vary: [Accept-Encoding]
    status: {code: 200, message: OK}
version: 1
