interactions:
- request:
    body: null
    headers:
      User-Agent: [python-requests/2.13.0]
    method: GET
    uri: https://app.rakuten.co.jp/services/api/HighCommissionShop/List/20131205?applicationId=XXXXXX&formatVersion=2&hits=3
  response:
    body: {string: "{\"count\":8179,\"page\":1,\"first\":1,\"last\":3,\"hits\":3,\"carrier\":0,\"pageCount\":100,\"startApplyDate\":\"2017/02/21\",\"Shops\":[{\"shopName\":\"G\u30B7\u30E7\u30C3\u30AF\uFF06\u30DA\u30A2\u30A6\u30A9\u30C3\u30C1BlessYou\",\"shopCode\":\"blessyou\",\"shopUrl\":\"http://www.rakuten.co.jp/blessyou/\",\"shopPR\":\"1997\u5E74\u697D\u5929\u5E02\u5834\u5275\u696D\u3068\u3068\u3082\u306B\u51FA\u5E97\u305713\u5E74\u76EE\u3092\u8FCE\u3048\u307E\u3057\u305F\u3000\u697D\u5929\u4E00\u306E\u54C1\u63C3\u3048\u306E\u30DA\u30A2\u30A6\u30A9\u30C3\u30C1\u306F\u30AF\u30EA\u30B9\u30DE\u30B9\u306A\u3069\u30AE\u30D5\u30C8\u9700\u8981\u3067\u306F\u5927\u5909\u597D\u8A55\u3067\u3059\u3000\u30EC\u30FC\u30B6\u30FC\u3067\u6642\u8A08\u306B\u30E1\u30C3\u30BB\u30FC\u30B8\u3092\u5165\u308C\u308B\u30B5\u30FC\u30D3\u30B9\u304C\u597D\u8A55\u3067\u3059\",\"genreId\":\"558929\",\"genreName\":\"\u8155\u6642\u8A08\",\"affiliateRateS\":\"1.1\",\"affiliateRateA\":\"1.1\",\"affiliateRateB\":\"1.1\",\"affiliateRateC\":\"1.1\",\"affiliateRateD\":\"1.1\",\"commissionType\":\"2\",\"affiliateUrl\":null},{\"shopName\":\"\u8CA1\u5E03\u3010\u540D\u5165\u308C\u7121\u6599\u3011\u30B0\u30EC\u30F3\u30C1\u30A7\u30C3\u30AF\",\"shopCode\":\"glencheck\",\"shopUrl\":\"http://www.rakuten.co.jp/glencheck/\",\"shopPR\":\"\u6D77\u5916\u5404\u56FD\u304B\u3089\u7D20\u6750\u3001\u6A5F\u80FD\u6027\u3001\u305D\u3057\u3066\u30B9\u30BF\u30A4\u30EA\u30C3\u30B7\u30E5\u3055\u306B\u3053\u3060\u308F\u308A\u306C\u3044\u305F\u9038\u54C1\u3092\u3054\u7D39\u4ECB\u3002\u662F\u975E\u306B\u304A\u624B\u306B\u3068\u3063\u3066\u9802\u304D\u305F\u3044\u5546\u54C1\u3070\u304B\u308A\u3067\u3059\u3002\u9769\u88FD\u54C1\u3001\u30A2\u30D1\u30EC\u30EB\u3001\u96D1\u8CA8\u5C0F\u7269\u306A\u3069\u306A\u3069\u30E9\u30A4\u30F3\u30CA\u30C3\u30D7\u3082\u8C4A\u5BCC\u3002\u9769\u5C0F\u7269\u3078\u306F\u304A\u540D\u5165\u308C\u7121\u6599\u3067\u30AE\u30D5\u30C8\u306B\u3082\u5927\u597D\u8A55\u3067\u3059\uFF01\uFF01\",\"genreId\":\"216131\",\"genreName\":\"\u30D0\u30C3\u30B0\u30FB\u5C0F\u7269\u30FB\u30D6\u30E9\u30F3\u30C9\u96D1\u8CA8\",\"affiliateRateS\":\"12.0\",\"affiliateRateA\":\"12.0\",\"affiliateRateB\":\"10.0\",\"affiliateRateC\":\"10.0\",\"affiliateRateD\":\"10.0\",\"commissionType\":\"2\",\"affiliateUrl\":null},{\"shopName\":\"\u97D3\u56FD\u4E16\u754C\u306E\u30B0\u30EB\u30E1\uFF20\u30AD\u30E0\u30C1\u3067\u3084\u305B\u308B\",\"shopCode\":\"rabbit\",\"shopUrl\":\"http://www.rakuten.co.jp/rabbit/\",\"shopPR\":\"2012\u5E74\u306B14\u5468\u5E74\u3092\u8FCE\u3048\u305F\u5F53\u5E97\u3002\u8001\u8217\u5E97\u3067\u3042\u308B\u4E8B\u3068\u3001\u30B7\u30E7\u30C3\u30D7\u30AA\u30D6\u30B6\u30A4\u30E4\u30FC\u306E\u30B0\u30E9\u30F3\u30D7\u30EA\u53D7\u8CDE\u6B74\u304C\u3001\u304A\u5BA2\u69D8\u306B\u5B89\u5FC3\u611F\u3092\u4E0E\u3048\u9AD8\u3044\u8CFC\u5165\u7387\u3092\u8A87\u308A\u307E\u3059\u3002\u697D\u5929\u30B0\u30EB\u30E1\u5927\u8CDE2011\u3092\u53D7\u8CDE\u3057\u305F\u300C\u97D3\u56FD\u51B7\u9EBA\u300D\u3092\u7B46\u982D\u306B\u3001\u54C1\u63C3\u3048\u3082\u30D0\u30C4\u30B0\u30F3\u3067\u3059\u3002\u3069\u3046\u305E\u3054\u7D39\u4ECB\u3088\u308D\u3057\u304F\u304A\u9858\u3044\u3044\u305F\u3057\u307E\u3059\u3002\",\"genreId\":\"100227\",\"genreName\":\"\u98DF\u54C1\",\"affiliateRateS\":\"10.5\",\"affiliateRateA\":\"10.5\",\"affiliateRateB\":\"10.5\",\"affiliateRateC\":\"10.5\",\"affiliateRateD\":\"10.5\",\"commissionType\":\"2\",\"affiliateUrl\":null}]}"}
    headers:
      Access-Control-Allow-Origin: ['*']
      Cache-Control: [no-store]
      Connection: [close]
      Content-Language: [ja-JP]
      Content-Length: ['2129']
      Content-Type: [application/json;charset=UTF-8]
      Date: ['Mon, 20 Feb 2017 15:36:36 GMT']
      Vary: [Accept-Encoding]
    status: {code: 200, message: OK}
version: 1
