interactions:
- request:
    body: null
    headers:
      User-Agent:
      - python-requests/2.22.0
    method: GET
    uri: https://app.rakuten.co.jp/services/api/Gora/GoraGolfCourseSearch/20170623?applicationId=XXXXXX&formatVersion=2&hits=3
  response:
    body:
      string: "{\"count\":2047,\"page\":1,\"first\":1,\"last\":3,\"hits\":3,\"carrier\":0,\"pageCount\":683,\"Items\":[{\"golfCourseId\":80004,\"golfCourseName\":\"\u30A2\u30B8\u30A2\u53D6\u624B\u30AB\u30F3\u30C8\u30EA\u30FC\u5036\u697D\u90E8\",\"golfCourseAbbr\":\"\u30A2\u30B8\u30A2\u53D6\u624BCC\",\"golfCourseNameKana\":\"\u3042\u3058\u3042\u3068\u308A\u3067\u304B\u3093\u3068\u308A\u30FC\u304F\u3089\u3076\",\"golfCourseCaption\":\"\u5E38\u78D0\u9053\u306E\u8C37\u548C\u539FI.C.\u3088\u308A15\u5206\uFF01\u90FD\u5FC3\u304B\u3089\u306E\u30A2\u30AF\u30BB\u30B9\u306E\u826F\u3055\u304C\u9B45\u529B\u3002\u59C9\u59B9\u30B3\u30FC\u30B9\u306B\u7D9A\u304D\u3001\u3010\u30BB\u30B0\u30A6\u30A7\u30A4\u3011\u3092100\u53F0\u5C0E\u5165\uFF01\u65E5\u672C\u4E00\u306E\u5C0E\u5165\u6570\u3092\u8A87\u308A\u307E\u3059\u3002\u30D5\u30A7\u30A2\u30A6\u30A7\u30A4\u4E57\u308A\u5165\u308C\u53EF\u80FD\u3067\u79FB\u52D5\u3082\u5FEB\u9069\u3001\u3010\u30BB\u30B0\u30A6\u30A7\u30A4\u3067\u30B4\u30EB\u30D5\u3011\u3092\u662F\u975E\u4F53\u9A13\u3057\u3066\u307F\u3066\u4E0B\u3055\u3044\u3002\\n\\n\u3010\u304A\u5F97\u30D7\u30E9\u30F3\u306E\u4E00\u90E8\u3092\u3054\u7D39\u4ECB\u3011\\n\u30FB\u5168\u65E5\u5EFB\u308A\u653E\u984C\uFF01\uFF0A\u5F53\u65E5\u306E\u5929\u5019\u3001\u65E5\u6CA1\u72B6\u6CC1\u306B\u3088\u308A\u3001\u8FFD\u52A0\u30E9\u30A6\u30F3\u30C9\u3067\u304D\u306A\u3044\u5834\u5408\u3082\u3054\u3056\u3044\u307E\u3059\u3002\\n\u30FB\u304A\u8A95\u751F\u6708\u7279\u5178\u3042\u308A\uFF01\\n\u30FB\u5E73\u65E5\u306F\u98DF\u3079\u653E\u984C\u306E\u30E9\u30F3\u30C1\u30D0\u30A4\u30AD\u30F3\u30B0\u30014\u30B5\u30E0\u5272\u5F15\u304D\u3042\u308A\u3002\\n\u304A\u5F97\u3067\u697D\u3057\u3044\u4E00\u65E5\u3092\u304A\u6C17\u8EFD\u306B\u304A\u904E\u3054\u3057\u4E0B\u3055\u3044\u3002\",\"address\":\"\u8328\u57CE\u770C\u53D6\u624B\u5E02\u7A321340\",\"latitude\":35.9061664,\"longitude\":140.0397556,\"highway\":\"\u5E38\u78D0\u81EA\u52D5\u8ECA\u9053\u8C37\u548C\u539F\",\"golfCourseDetailUrl\":\"https://booking.gora.golf.rakuten.co.jp/guide/disp/c_id/80004\",\"reserveCalUrl\":\"https://search.gora.golf.rakuten.co.jp/cal/disp/c_id/80004\",\"ratingUrl\":\"https://booking.gora.golf.rakuten.co.jp/voice/detail/c_id/80004\",\"golfCourseImageUrl\":\"https://gora.golf.rakuten.co.jp/img/golf/80004/photo1.jpg\",\"evaluation\":3.3},{\"golfCourseId\":280065,\"golfCourseName\":\"\u4E09\u7530\u30EC\u30FC\u30AF\u30B5\u30A4\u30C9\u30AB\u30F3\u30C8\u30EA\u30FC\u30AF\u30E9\u30D6\",\"golfCourseAbbr\":\"\u4E09\u7530\u30EC\u30FC\u30AF\u30B5\u30A4\u30C9CC\",\"golfCourseNameKana\":\"\u3055\u3093\u3060\u308C\u30FC\u304F\u3055\u3044\u3069\u304B\u3093\u3068\u308A\u30FC\u304F\u3089\u3076\",\"golfCourseCaption\":\"\uFF2A\u30FB\uFF25\u30FB\u30AF\u30EC\u30FC\u30F3\u72EC\u7279\u306E\u30B0\u30EA\u30FC\u30F3\u5468\u308A\u306E\u8A2D\u8A08\u304C\u6311\u6226\u610F\u6B32\u3092\u99C6\u308A\u7ACB\u3066\u308B\u30B3\u30FC\u30B9\u3067\u3059\u3002\\n\u3000\u5168\u30AB\u30FC\u30C8\u3001\u300E\u30EA\u30E2\u30B3\u30F3\u64CD\u4F5C\u306E\u96FB\u78C1\u8A98\u5C0E5\u4EBA\u4E57\u308A\u30AB\u30FC\u30C8\u300F\u3092\u5C0E\u5165\u3002\u3055\u3089\u306B\u300E\uFF27\uFF30\uFF33\u30CA\u30D3\u30B2\u30FC\u30B7\u30E7\u30F3\u300F\u4ED8\u3067\u3059\u3002\u308F\u305A\u3089\u308F\u3057\u3044\u30AB\u30FC\u30C8\u306E\u79FB\u52D5\u3082\u7121\u304F\u30D7\u30EC\u30FC\u306B\u96C6\u4E2D\u51FA\u6765\u304D\u5927\u5909\u597D\u8A55\u3067\u3059\u3002\u307E\u305F\u30B3\u30FC\u30B9\u30E1\u30F3\u30C6\u30CA\u30F3\u30B9\u3082\u9AD8\u3044\u8A55\u4FA1\u3092\u9802\u6234\u3044\u305F\u3057\u3066\u304A\u308A\u307E\u3059\u3002\\n\u300C\u6765\u3066\u826F\u304B\u3063\u305F\u3002\u307E\u305F\u6765\u308B\u3088\u300D\u3068\u8A00\u3063\u3066\u9802\u3051\u308B\u4FA1\u5024\u306E\u9AD8\u3044\u30B3\u30B9\u30C8\u30D1\u30D5\u30A9\u30FC\u30DE\u30F3\u30B9\u3002\",\"address\":\"\u5175\u5EAB\u770C\u4E09\u7530\u5E02\u5927\u5DDD\u702C1461\",\"latitude\":34.9436875,\"longitude\":135.1140517,\"highway\":\"\u4E2D\u56FD\u81EA\u52D5\u8ECA\u9053\u795E\u6238\u4E09\u7530\",\"golfCourseDetailUrl\":\"https://booking.gora.golf.rakuten.co.jp/guide/disp/c_id/280065\",\"reserveCalUrl\":\"https://search.gora.golf.rakuten.co.jp/cal/disp/c_id/280065\",\"ratingUrl\":\"https://booking.gora.golf.rakuten.co.jp/voice/detail/c_id/280065\",\"golfCourseImageUrl\":\"https://gora.golf.rakuten.co.jp/img/golf/280065/photo1.jpg\",\"evaluation\":4.1},{\"golfCourseId\":90076,\"golfCourseName\":\"\u90A3\u9808\u5C0F\u5DDD\u30B4\u30EB\u30D5\u30AF\u30E9\u30D6\",\"golfCourseAbbr\":\"\u90A3\u9808\u5C0F\u5DDDGC\",\"golfCourseNameKana\":\"\u306A\u3059\u304A\u304C\u308F\u3054\u308B\u3075\u304F\u3089\u3076\",\"golfCourseCaption\":\"\u2015\u5F53\u30B4\u30EB\u30D5\u5834\u306E\u30B3\u30FC\u30B9\u306F\u5408\u8A08\uFF12\uFF11\u30DB\u30FC\u30EB\\n\\n\u90A3\u9808\u5C0F\u5DDD\u30EC\u30C7\u30A3\u30B9\u30D7\u30ED\u30C8\u30FC\u30CA\u30E1\u30F3\u30C8\u3092\uFF12\uFF10\u5E74\u9023\u7D9A\u3067\u958B\u50AC\u3057\u305F\u300C\u30C8\u30FC\u30CA\u30E1\u30F3\u30C8\u30B3\u30FC\u30B9\u300D\u306E\uFF11\uFF18\u30DB\u30FC\u30EB\u3068\u3001\u7DF4\u7FD2\u30DB\u30FC\u30EB\u306E\uFF13\u30DB\u30FC\u30EB\u300C\u30D7\u30E9\u30B9\uFF13\u300D\u304C\u3042\u308A\u307E\u3059\u3002
        \\n\\n\u2015\u30B3\u30FC\u30B9\u30B3\u30F3\u30BB\u30D7\u30C8\u306F\u300E\u3061\u3087\u3063\u3068\u96E3\u3057\u3081\u300F\\n\\n\u90A3\u9808\u5C0F\u5DDD\u30B4\u30EB\u30D5\u30AF\u30E9\u30D6\u306E\u30D7\u30EC\u30FC\u3067\u935B\u3048\u308B\u3068\u30B9\u30B3\u30A2\u304C\u826F\u304F\u306A\u308B\uFF01\u30FB\u30FB\u30FB
        \u305D\u3093\u306A\u30B3\u30FC\u30B9\u9020\u308A\u3092\u3057\u3066\u3044\u307E\u3059\u3002\\n\\n\u2015\u30B0\u30EA\u30FC\u30F3\u306F\u901A\u79F0\u300EF1\u30B0\u30EA\u30FC\u30F3\u300F\\n\\n\u30AA\u30F3\u30B7\u30FC\u30BA\u30F3\u306F10feat\u4EE5\u4E0A\u306E\u6642\u3082\u3042\u308A\u3001\u901F\u3044\u3068\u3054\u597D\u8A55\u3092\u3044\u305F\u3060\u3044\u3066\u3044\u307E\u3059\u3002\\n\\n\u2015\u5145\u5B9F\u306E\u300E\u5BBF\u6CCA\u30D7\u30E9\u30F3\u300F\\n\\n\u6B63\u76F4\u30A2\u30AF\u30BB\u30B9\u306F\u826F\u3044\u30B4\u30EB\u30D5\u5834\u3067\u306F\u3042\u308A\u307E\u305B\u3093\u306E\u3067\u3001\u3054\u5BBF\u6CCA\u3067\u306E\u3054\u5229\u7528\u3082\u304A\u52E7\u3081\u3057\u307E\u3059\u3002\\n\u30AF\u30E9\u30D6\u30CF\u30A6\u30B9\u5185\u306E\u30ED\u30C3\u30B8\u3084\u3001\u59C9\u59B9\u9928\u306E\u5357\u5E73\u53F0\u6E29\u6CC9\u30DB\u30C6\u30EB\u3067\u306F\u65EC\u306E\u4F1A\u5E2D\u6599\u7406\u3068\u6CC9\u8CEA\u629C\u7FA4\u306E\u300C\u7F8E\u4EBA\u306E\u6E6F\u300D\u3001
        \u30B9\u30BF\u30C3\u30D5\u304C\u5FC3\u3092\u8FBC\u3081\u3066\u304A\u5BA2\u69D8\u3092\u304A\u3082\u3066\u306A\u3057\u3044\u305F\u3057\u307E\u3059\u3002\\n\\n\u2015\u30B0\u30EB\u30E1\u306A\u30B4\u30EB\u30D5\u5834\u3092\u76EE\u6307\u3057\u3066\u3044\u307E\u3059\u300E\u671D\u30AB\u30D5\u30A7\u30FB\u663C\u30D0\u30A4\u30AD\u30F3\u30B0\u300F\u203B\u571F\u65E5\u795D\\n\\n\u30B9\u30BF\u30FC\u30C8\u524D\u306F\u3001\u4EF2\u9593\u3068\u4E00\u7DD2\u306B\u671D\u30AB\u30D5\u30A7\u3067\u30B3\u30FC\u30D2\u30FC\u3092\u304A\u697D\u3057\u307F\u304F\u3060\u3055\u3044\u3002
        \u304A\u663C\u306F\u3001\u8ABF\u7406\u5E2B\u305F\u3061\u304C\u81EA\u4FE1\u3092\u6301\u3063\u3066\u304A\u52E7\u3081\u3059\u308B\u548C\u6D0B\u69D8\u3005\u306A\u6599\u7406\u7FA4\u3002
        \u6708\u66FF\u308F\u308A\u6599\u7406\u30D5\u30A7\u30A2\u3092\u542B\u3080\u30E9\u30F3\u30C1\u30D0\u30A4\u30AD\u30F3\u30B0\u3092\u304A\u697D\u3057\u307F\u4E0B\u3055\u3044\u3002\u5973\u6027\u306B\u5B09\u3057\u3044\u30B9\u30A4\u30FC\u30C4\u3001\u30C9\u30EA\u30F3\u30AF\u30D0\u30FC\u3082\u3054\u7528\u610F\u3057\u3066\u3044\u307E\u3059\u3002\",\"address\":\"\u6803\u6728\u770C\u90A3\u9808\u90E1\u90A3\u73C2\u5DDD\u753A\u4E09\u8F2A1283\",\"latitude\":36.7489853,\"longitude\":140.0990356,\"highway\":\"\u6771\u5317\u81EA\u52D5\u8ECA\u9053\u77E2\u677F\",\"golfCourseDetailUrl\":\"https://booking.gora.golf.rakuten.co.jp/guide/disp/c_id/90076\",\"reserveCalUrl\":\"https://search.gora.golf.rakuten.co.jp/cal/disp/c_id/90076\",\"ratingUrl\":\"https://booking.gora.golf.rakuten.co.jp/voice/detail/c_id/90076\",\"golfCourseImageUrl\":\"https://gora.golf.rakuten.co.jp/img/golf/90076/photo1.jpg\",\"evaluation\":4.2}]}"
    headers:
      Access-Control-Allow-Origin:
      - '*'
      Cache-Control:
      - no-store
      Connection:
      - close
      Content-Language:
      - ja-JP
      Content-Length:
      - '4813'
      Content-Type:
      - application/json;charset=UTF-8
      Date:
      - Tue, 22 Oct 2019 10:41:13 GMT
      Vary:
      - Accept-Encoding
    status:
      code: 200
      message: OK
version: 1
